{
    "materials": [
        {
            "metals": [
                {
                    "Copper": {
                        "conductivity": 59000000.0,
                        "epsilon_r": null,
                        "mu_r": 1
                    }
                },
                {
                    "Gold": {
                        "conductivity": 41100000.0,
                        "epsilon_r": null,
                        "mu_r": 1
                    }
                },
                {
                    "Tin": {
                        "conductivity": 9170000.0,
                        "epsilon_r": null,
                        "mu_r": 1
                    }
                },
                {
                    "Aluminium": {
                        "conductivity": 37700000.0,
                        "epsilon_r": null,
                        "mu_r": 1
                    }
                }
            ]
        },
        {
            "substrate": [
                {
                    "FP4323": {
                        "conductivity": 0,
                        "epsilon_r": 3.7,
                        "mu_r": 1
                    }
                },
                {
                    "Silicon": {
                        "conductivity": 1e-12,
                        "epsilon_r": 11.7,
                        "mu_r": 1
                    }
                },
                {
                    "SiO2": {
                        "conductivity": 0,
                        "epsilon_r": 4.2,
                        "mu_r": 1
                    }
                }
            ]
        },
        {
            "film": [
                {
                    "PANI": {
                        "conductivity": 0.33,
                        "epsilon_r": 1,
                        "mu_r": 1
                    }
                },
                {
                    "PEDOT": {
                        "conductivity": 10,
                        "epsilon_r": 1,
                        "mu_r": 1
                    }
                },
                {
                    "PPy": {
                        "conductivity": 7.9,
                        "epsilon_r": 0.279,
                        "mu_r": 1
                    }
                }
            ]
        }
    ]
}
