31,1,500000,7357.415762400316
3,1,1,501000,7342.730301796718
3,1,1,502000,7328.1033490042955
3,1,1,503000,7313.534555069899
3,1,1,504000,7299.023573809839
3,1,1,505000,7284.570061782496
3,1,1,506000,7270.173678261181
3,1,1,507000,7255.8340852074125
3,1,1,508000,7241.550947244406
3,1,1,509000,7227.323931630958
3,1,1,510000,7213.152708235605
3,1,1,511000,7199.036949511071
3,1,1,512000,7184.976330469059
3,1,1,513000,7170.970528655281
3,1,1,514000,7157.019224124821
3,1,1,515000,7143.122099417785
3,1,1,516000,7129.278839535193
3,1,1,517000,7115.489131915199
3,1,1,518000,7101.752666409573
3,1,1,519000,7088.069135260419
3,1,1,520000,7074.438233077226
3,1,1,521000,7060.859656814125
3,1,1,522000,7047.333105747429
3,1,1,523000,7033.858281453454
3,1,1,524000,7020.434887786559
3,1,1,525000,7007.062630857444
3,1,1,526000,6993.741219011705
3,1,1,527000,6980.470362808649
3,1,1,528000,6967.2497750002985
3,1,1,529000,6954.079170510695
3,1,1,530000,6940.958266415389
3,1,1,531000,6927.886781921203
3,1,1,532000,6914.864438346163
3,1,1,533000,6901.890959099734
3,1,1,534000,6888.966069663217
3,1,1,535000,6876.089497570387
3,1,1,536000,6863.260972388354
3,1,1,537000,6850.4802256986195
3,1,1,538000,6837.746991078363
3,1,1,539000,6825.061004081927
3,1,1,540000,6812.422002222513
3,1,1,541000,6799.829724954082
3,1,1,542000,6787.283913653428
3,1,1,543000,6774.7843116025015
3,1,1,544000,6762.330663970876
3,1,1,545000,6749.922717798454
3,1,1,546000,6737.56022197831
3,1,1,547000,6725.2429272397785
3,1,1,548000,6712.970586131677
3,1,1,549000,6700.742953005752
3,1,1,550000,6688.559784000285
3,1,1,551000,6676.42083702388
3,1,1,552000,6664.325871739417
3,1,1,553000,6652.274649548209
3,1,1,554000,6640.266933574291
3,1,1,555000,6628.30248864893
3,1,1,556000,6616.38108129525
3,1,1,557000,6604.502479713029
3,1,1,558000,6592.6664537637225
3,1,1,559000,6580.872774955561
3,1,1,560000,6569.121216428852
3,1,1,561000,6557.411552941458
3,1,1,562000,6545.743560854373
3,1,1,563000,6534.11701811751
3,1,1,564000,6522.531704255599
3,1,1,565000,6510.987400354263
3,1,1,566000,6499.483889046214
3,1,1,567000,6488.0209544976315
3,1,1,568000,6476.598382394646
3,1,1,569000,6465.215959929983
3,1,1,570000,6453.873475789752
3,1,1,571000,6442.570720140379
3,1,1,572000,6431.3074846156605
3,1,1,573000,6420.083562303942
3,1,1,574000,6408.898747735466
3,1,1,575000,6397.75283686984
3,1,1,576000,6386.64562708361
3,1,1,577000,6375.576917157989
3,1,1,578000,6364.546507266709
3,1,1,579000,6353.554198964006
3,1,1,580000,6342.599795172686
3,1,1,581000,6331.6831001723895
3,1,1,582000,6320.803919587898
3,1,1,583000,6309.962060377632
3,1,1,584000,6299.157330822186
3,1,1,585000,6288.389540513091
3,1,1,586000,6277.658500341568
3,1,1,587000,6266.96402248749
3,1,1,588000,6256.305920408437
3,1,1,589000,6245.684008828791
3,1,1,590000,6235.098103729083
3,1,1,591000,6224.548022335293
3,1,1,592000,6214.033583108374
3,1,1,593000,6203.554605733823
3,1,1,594000,6193.1109111113765
3,1,1,595000,6182.702321344804
3,1,1,596000,6172.32865973181
3,1,1,597000,6161.989750754033
3,1,1,598000,6151.685420067154
3,1,1,599000,6141.415494491086
3,1,1,600000,6131.179802000266
3,1,1,601000,6120.978171714073
3,1,1,602000,6110.810433887302
3,1,1,603000,6100.676419900762
3,1,1,604000,6090.575962251918
3,1,1,605000,6080.508894545715
3,1,1,606000,6070.47505148541
3,1,1,607000,6060.474268863522
3,1,1,608000,6050.50638355289
3,1,1,609000,6040.571233497797
3,1,1,610000,6030.668657705177
3,1,1,611000,6020.798496235933
3,1,1,612000,6010.960590196335
3,1,1,613000,6001.1547817294595
3,1,1,614000,5991.380914006775
3,1,1,615000,5981.63883121977
3,1,1,616000,5971.928378571682
3,1,1,617000,5962.249402269301
3,1,1,618000,5952.601749514818
3,1,1,619000,5942.98526849783
3,1,1,620000,5933.399808387351
3,1,1,621000,5923.845219323928
3,1,1,622000,5914.321352411831
3,1,1,623000,5904.828059711332
3,1,1,624000,5895.365194231019
3,1,1,625000,5885.932609920252
3,1,1,626000,5876.530161661598
3,1,1,627000,5867.157705263409
3,1,1,628000,5857.8150974524815
3,1,1,629000,5848.502195866704
3,1,1,630000,5839.218859047869
3,1,1,631000,5829.964946434481
3,1,1,632000,5820.740318354681
3,1,1,633000,5811.544836019204
3,1,1,634000,5802.378361514442
3,1,1,635000,5793.240757795525
3,1,1,636000,5784.131888679493
3,1,1,637000,5775.051618838554
3,1,1,638000,5765.99981379335
3,1,1,639000,5756.976339906351
3,1,1,640000,5747.98106437525
3,1,1,641000,5739.013855226457
3,1,1,642000,5730.074581308654
3,1,1,643000,5721.163112286406
3,1,1,644000,5712.279318633783
3,1,1,645000,5703.423071628151
3,1,1,646000,5694.594243343896
3,1,1,647000,5685.7927066463035
3,1,1,648000,5677.018335185427
3,1,1,649000,5668.271003390078
3,1,1,650000,5659.550586461783
3,1,1,651000,5650.856960368907
3,1,1,652000,5642.190001840732
3,1,1,653000,5633.54958836165
3,1,1,654000,5624.93559816538
3,1,1,655000,5616.34791022925
3,1,1,656000,5607.786404268532
3,1,1,657000,5599.250960730836
3,1,1,658000,5590.741460790513
3,1,1,659000,5582.257786343184
3,1,1,660000,5573.799820000239
3,1,1,661000,5565.367445083449
3,1,1,662000,5556.960545619576
3,1,1,663000,5548.579006335081
3,1,1,664000,5540.222712650837
3,1,1,665000,5531.891550676933
3,1,1,666000,5523.58540720745
3,1,1,667000,5515.304169715379
3,1,1,668000,5507.047726347545
3,1,1,669000,5498.8159659195235
3,1,1,670000,5490.608777910688
3,1,1,671000,5482.426052459251
3,1,1,672000,5474.267680357376
3,1,1,673000,5466.133553046296
3,1,1,674000,5458.02356261151
3,1,1,675000,5449.937601778013
3,1,1,676000,5441.875563905558
3,1,1,677000,5433.837342983988
3,1,1,678000,5425.822833628553
3,1,1,679000,5417.831931075342
3,1,1,680000,5409.8645311767
3,1,1,681000,5401.920530396711
3,1,1,682000,5393.9998258066835
3,1,1,683000,5386.102315080759
3,1,1,684000,5378.227896491465
3,1,1,685000,5370.376468905339
3,1,1,686000,5362.547931778657
3,1,1,687000,5354.742185153069
3,1,1,688000,5346.959129651393
3,1,1,689000,5339.198666473379
3,1,1,690000,5331.460697391533
3,1,1,691000,5323.745124746971
3,1,1,692000,5316.051851445316
3,1,1,693000,5308.38078095261
3,1,1,694000,5300.731817291297
3,1,1,695000,5293.104865036198
3,1,1,696000,5285.4998293105755
3,1,1,697000,5277.916615782153
3,1,1,698000,5270.355130659251
3,1,1,699000,5262.815280686921
3,1,1,700000,5255.296973143085
3,1,1,701000,5247.800115834748
3,1,1,702000,5240.324617094243
3,1,1,703000,5232.8703857754745
3,1,1,704000,5225.437331250228
3,1,1,705000,5218.025363404481
3,1,1,706000,5210.634392634784
3,1,1,707000,5203.264329844638
3,1,1,708000,5195.915086440899
3,1,1,709000,5188.586574330265
3,1,1,710000,5181.2787059157135
3,1,1,711000,5173.991394093048
3,1,1,712000,5166.724552247411
3,1,1,713000,5159.478094249872
3,1,1,714000,5152.2519344540015
3,1,1,715000,5145.045987692529
3,1,1,716000,5137.860169273965
3,1,1,717000,5130.694394979296
3,1,1,718000,5123.548581058713
3,1,1,719000,5116.422644228314
3,1,1,720000,5109.316501666888
3,1,1,721000,5102.230071012702
3,1,1,722000,5095.16327036033
3,1,1,723000,5088.116018257481
3,1,1,724000,5081.088233701876
3,1,1,725000,5074.07983613815
3,1,1,726000,5067.090745454763
3,1,1,727000,5060.120881980963
3,1,1,728000,5053.170166483734
3,1,1,729000,5046.238520164825
3,1,1,730000,5039.32586465775
3,1,1,731000,5032.432122024841
3,1,1,732000,5025.557214754312
3,1,1,733000,5018.701065757377
3,1,1,734000,5011.8635983653385
3,1,1,735000,5005.044736326745
3,1,1,736000,4998.244403804561
3,1,1,737000,4991.462525373352
3,1,1,738000,4984.699026016474
3,1,1,739000,4977.953831123354
3,1,1,740000,4971.226866486701
3,1,1,741000,4964.5180582998055
3,1,1,742000,4957.827333153853
3,1,1,743000,4951.154618035204
3,1,1,744000,4944.4998403227955
3,1,1,745000,4937.862927785449
3,1,1,746000,4931.2438085793
3,1,1,747000,4924.6424112451905
3,1,1,748000,4918.058664706092
3,1,1,749000,4911.492498264564
3,1,1,750000,4904.943841600212
3,1,1,751000,4898.4126247671875
3,1,1,752000,4891.898778191701
3,1,1,753000,4885.402232669531
3,1,1,754000,4878.922919363605
3,1,1,755000,4872.460769801535
3,1,1,756000,4866.015715873226
3,1,1,757000,4859.587689828478
3,1,1,758000,4853.176624274616
3,1,1,759000,4846.78245217412
3,1,1,760000,4840.405106842313
3,1,1,761000,4834.044521945017
3,1,1,762000,4827.700631496271
3,1,1,763000,4821.373369856038
3,1,1,764000,4815.062671727955
3,1,1,765000,4808.7684721570695
3,1,1,766000,4802.490706527623
3,1,1,767000,4796.229310560831
3,1,1,768000,4789.9842203127055
3,1,1,769000,4783.755372171855
3,1,1,770000,4777.542702857346
3,1,1,771000,4771.346149416549
3,1,1,772000,4765.165649223001
3,1,1,773000,4759.00113997433
3,1,1,774000,4752.852559690127
3,1,1,775000,4746.719846709881
3,1,1,776000,4740.602939690928
3,1,1,777000,4734.5017776063805
3,1,1,778000,4728.416299743136
3,1,1,779000,4722.346445699818
3,1,1,780000,4716.292155384817
3,1,1,781000,4710.253369014291
3,1,1,782000,4704.230027110176
3,1,1,783000,4698.222070498286
3,1,1,784000,4692.229440306325
3,1,1,785000,4686.252077961986
3,1,1,786000,4680.289925191043
3,1,1,787000,4674.342924015449
3,1,1,788000,4668.411016751471
3,1,1,789000,4662.494146007808
3,1,1,790000,4656.5922546837455
3,1,1,791000,4650.7052859673295
3,1,1,792000,4644.833183333535
3,1,1,793000,4638.975890542443
3,1,1,794000,4633.133351637479
3,1,1,795000,4627.305510943595
3,1,1,796000,4621.492313065525
3,1,1,797000,4615.69370288602
3,1,1,798000,4609.909625564108
3,1,1,799000,4604.140026533363
3,1,1,800000,4598.384851500197
3,1,1,801000,4592.644046442146
3,1,1,802000,4586.9175576061825
3,1,1,803000,4581.205331507046
3,1,1,804000,4575.507314925572
3,1,1,805000,4569.8234549070285
3,1,1,806000,4564.153698759502
3,1,1,807000,4558.497994052241
3,1,1,808000,4552.856288614058
3,1,1,809000,4547.228530531716
3,1,1,810000,4541.614668148344
3,1,1,811000,4536.014650061847
3,1,1,812000,4530.428425123349
3,1,1,813000,4524.855942435621
3,1,1,814000,4519.297151351544
3,1,1,815000,4513.752001472587
3,1,1,816000,4508.220442647253
3,1,1,817000,4502.702424969594
3,1,1,818000,4497.197898777703
3,1,1,819000,4491.706814652208
3,1,1,820000,4486.22912341483
3,1,1,821000,4480.764776126867
3,1,1,822000,4475.313724087784
3,1,1,823000,4469.875918833731
3,1,1,824000,4464.451312136116
3,1,1,825000,4459.0398560001895
3,1,1,826000,4453.641502663627
3,1,1,827000,4448.256204595114
3,1,1,828000,4442.8839144929425
3,1,1,829000,4437.524585283665
3,1,1,830000,4432.178170120673
3,1,1,831000,4426.844622382863
3,1,1,832000,4421.523895673266
3,1,1,833000,4416.215943817719
3,1,1,834000,4410.9207208635
3,1,1,835000,4405.638181078033
3,1,1,836000,4400.368278947558
3,1,1,837000,4395.110969175817
3,1,1,838000,4389.866206682764
3,1,1,839000,4384.63394660329
3,1,1,840000,4379.414144285904
3,1,1,841000,4374.206755291506
3,1,1,842000,4369.011735392113
3,1,1,843000,4363.8290405695825
3,1,1,844000,4358.658627014407
3,1,1,845000,4353.500451124446
3,1,1,846000,4348.354469503732
3,1,1,847000,4343.220638961224
3,1,1,848000,4338.098916509621
3,1,1,849000,4332.989259364144
3,1,1,850000,4327.891624941363
3,1,1,851000,4322.805970858
3,1,1,852000,4317.732254929764
3,1,1,853000,4312.670435170174
3,1,1,854000,4307.620469789413
3,1,1,855000,4302.582317193167
3,1,1,856000,4297.5559359814915
3,1,1,857000,4292.541284947674
3,1,1,858000,4287.538323077107
3,1,1,859000,4282.547009546168
3,1,1,860000,4277.567303721115
3,1,1,861000,4272.599165156978
3,1,1,862000,4267.642553596472
3,1,1,863000,4262.697428968898
3,1,1,864000,4257.763751389075
3,1,1,865000,4252.841481156252
3,1,1,866000,4247.930578753068
3,1,1,867000,4243.031004844472
3,1,1,868000,4238.142720276681
3,1,1,869000,4233.265686076133
3,1,1,870000,4228.399863448456
3,1,1,871000,4223.545213777452
3,1,1,872000,4218.701698624035
3,1,1,873000,4213.869279725267
3,1,1,874000,4209.047918993318
3,1,1,875000,4204.237578514466
3,1,1,876000,4199.438220548127
3,1,1,877000,4194.649807525837
3,1,1,878000,4189.872302050294
3,1,1,879000,4185.105666894376
3,1,1,880000,4180.34986500018
3,1,1,881000,4175.604859478046
3,1,1,882000,4170.87061360562
3,1,1,883000,4166.147090826908
3,1,1,884000,4161.4342547513115
3,1,1,885000,4156.732069152721
3,1,1,886000,4152.0404979685745
3,1,1,887000,4147.35950529894
3,1,1,888000,4142.689055405583
3,1,1,889000,4138.029112711091
3,1,1,890000,4133.379641797931
3,1,1,891000,4128.740607407584
3,1,1,892000,4124.11197443964
3,1,1,893000,4119.4937079509045
3,1,1,894000,4114.885773154539
3,1,1,895000,4110.288135419171
3,1,1,896000,4105.700760268033
3,1,1,897000,4101.123613378103
3,1,1,898000,4096.556660579241
3,1,1,899000,4091.999867853345
3,1,1,900000,4087.453201333508
3,1,1,901000,4082.9166273031724
3,1,1,902000,4078.3901121952954
3,1,1,903000,4073.8736225915386
3,1,1,904000,4069.367125221413
3,1,1,905000,4064.8705869615005
3,1,1,906000,4060.3839748346127
3,1,1,907000,4055.9072560089944
3,1,1,908000,4051.4403977975303
3,1,1,909000,4046.9833676569397
3,1,1,910000,4042.5361331869885
3,1,1,911000,4038.0986621297016
3,1,1,912000,4033.6709223685953
3,1,1,913000,4029.252881927886
3,1,1,914000,4024.8445089717275
3,1,1,915000,4020.4457718034528
3,1,1,916000,4016.0566388648012
3,1,1,917000,4011.6770787351784
3,1,1,918000,4007.3070601308914
3,1,1,919000,4002.9465519044174
3,1,1,920000,3998.595523043651
3,1,1,921000,3994.2539426711805
3,1,1,922000,3989.921780043556
3,1,1,923000,3985.5990045505496
3,1,1,924000,3981.285585714459
3,1,1,925000,3976.981493189358
3,1,1,926000,3972.6866967604287
3,1,1,927000,3968.401166343211
3,1,1,928000,3964.124871982928
3,1,1,929000,3959.857783853776
3,1,1,930000,3955.5998722582335
3,1,1,931000,3951.3511076263762
3,1,1,932000,3947.1114605151897
3,1,1,933000,3942.880901607884
3,1,1,934000,3938.6594017132306
3,1,1,935000,3934.446931764875
3,1,1,936000,3930.243462820682
3,1,1,937000,3926.048966062068
3,1,1,938000,3921.863412793345
3,1,1,939000,3917.6867744410624
3,1,1,940000,3913.519022553357
3,1,1,941000,3909.3601287993183
3,1,1,942000,3905.2100649683216
3,1,1,943000,3901.068802969413
3,1,1,944000,3896.936314830676
3,1,1,945000,3892.8125726985822
3,1,1,946000,3888.697548837375
3,1,1,947000,3884.5912156284667
3,1,1,948000,3880.493545569789
3,1,1,949000,3876.404511275193
3,1,1,950000,3872.324085473852
3,1,1,951000,3868.25224100963
3,1,1,952000,3864.188950840502
3,1,1,953000,3860.1341880379423
3,1,1,954000,3856.087925786329
3,1,1,955000,3852.050137382365
3,1,1,956000,3848.020796234475
3,1,1,957000,3843.9998758622337
3,1,1,958000,3839.9873498957795
3,1,1,959000,3835.9831920752426
3,1,1,960000,3831.9873762501643
3,1,1,961000,3827.9998763789395
3,1,1,962000,3824.020666528229
3,1,1,963000,3820.049720872439
3,1,1,964000,3816.08701369311
3,1,1,965000,3812.1325193784005
3,1,1,966000,3808.1862124225213
3,1,1,967000,3804.248067425188
3,1,1,968000,3800.3180590910724
3,1,1,969000,3796.396162229263
3,1,1,970000,3792.482351752741
3,1,1,971000,3788.5766026778138
3,1,1,972000,3784.6788901236187
3,1,1,973000,3780.789189311568
3,1,1,974000,3776.907475564845
3,1,1,975000,3773.0337243078543
3,1,1,976000,3769.1679110657337
3,1,1,977000,3765.3100114638246
3,1,1,978000,3761.4600012271567
3,1,1,979000,3757.617856179937
3,1,1,980000,3753.7835522450605
3,1,1,981000,3749.9570654435856
3,1,1,982000,3746.138371894256
3,1,1,983000,3742.3274478129783
3,1,1,984000,3738.524269512355
3,1,1,985000,3734.7288134011756
3,1,1,986000,3730.9410559839325
3,1,1,987000,3727.1609738603424
3,1,1,988000,3723.388543724855
3,1,1,989000,3719.623742366188
3,1,1,990000,3715.866546666826
3,1,1,991000,3712.1169336025823
3,1,1,992000,3708.3748802420923
3,1,1,993000,3704.6403637463814
3,1,1,994000,3700.9133613683675
3,1,1,995000,3697.1938504524205
3,1,1,996000,3693.481808433893
3,1,1,997000,3689.777212838676
3,1,1,998000,3686.080041282723
3,1,1,999000,3682.3902714716287
3,1,1,1000000,3678.707881200158
3,1,1,1001000,3675.032848351806
3,1,1,1002000,3671.365150898359
3,1,1,1003000,3667.7047668994596
3,1,1,1004000,3664.0516745021478
3,1,1,1005000,3660.4058519404543
3,1,1,1006000,3656.76727753495
3,1,1,1007000,3653.135929692313
3,1,1,1008000,3649.5117869049195
3,1,1,1009000,3645.894827750407
3,1,1,1010000,3642.2850308912484
3,1,1,1011000,3638.6823750743392
3,1,1,1012000,3635.0868391305903
3,1,1,1013000,3631.498401974489
3,1,1,1014000,3627.917042603706
3,1,1,1015000,3624.3427400986793
3,1,1,1016000,3620.775473622203
3,1,1,1017000,3617.215222419033
3,1,1,1018000,3613.661965815479
3,1,1,1019000,3610.1156832189986
3,1,1,1020000,3606.5763541178017
3,1,1,1021000,3603.0439580804687
3,1,1,1022000,3599.5184747555354
3,1,1,1023000,3595.999883871123
3,1,1,1024000,3592.4881652345293
3,1,1,1025000,3588.9832987318628
3,1,1,1026000,3585.4852643276404
3,1,1,1027000,3581.9940420644193
3,1,1,1028000,3578.5096120624107
3,1,1,1029000,3575.0319545191055
3,1,1,1030000,3571.5610497088924
3,1,1,1031000,3568.096877982694
3,1,1,1032000,3564.6394197675963
3,1,1,1033000,3561.1886555664655
3,1,1,1034000,3557.7445659575997
3,1,1,1035000,3554.3071315943557
3,1,1,1036000,3550.8763332047856
3,1,1,1037000,3547.4521515912797
3,1,1,1038000,3544.034567630211
3,1,1,1039000,3540.623562271566
3,1,1,1040000,3537.2191165386134
3,1,1,1041000,3533.821211527532
3,1,1,1042000,3530.4298284070624
3,1,1,1043000,3527.0449484181777
3,1,1,1044000,3523.6665528737144
3,1,1,1045000,3520.2946231580468
3,1,1,1046000,3516.929140726727
3,1,1,1047000,3513.570087106169
3,1,1,1048000,3510.2174438932793
3,1,1,1049000,3506.8711927551576
3,1,1,1050000,3503.531315428722
3,1,1,1051000,3500.1977937204165
3,1,1,1052000,3496.870609505853
3,1,1,1053000,3493.549744729495
3,1,1,1054000,3490.235181404324
3,1,1,1055000,3486.926901611522
3,1,1,1056000,3483.6248875001493
3,1,1,1057000,3480.32912128681
3,1,1,1058000,3477.0395852553474
3,1,1,1059000,3473.7562617565227
3,1,1,1060000,3470.4791332076943
3,1,1,1061000,3467.208182092515
3,1,1,1062000,3463.9433909606014
3,1,1,1063000,3460.6847424272414
3,1,1,1064000,3457.4322191730816
3,1,1,1065000,3454.1858039438107
3,1,1,1066000,3450.945479549867
3,1,1,1067000,3447.711228866129
3,1,1,1068000,3444.4830348316086
3,1,1,1069000,3441.2608804491656
3,1,1,1070000,3438.044748785194
3,1,1,1071000,3434.8346229693357
3,1,1,1072000,3431.6304861941762
3,1,1,1073000,3428.4323217149636
3,1,1,1074000,3425.2401128493098
3,1,1,1075000,3422.0538429768926
3,1,1,1076000,3418.8734955391815
3,1,1,1077000,3415.699054039145
3,1,1,1078000,3412.530502040964
3,1,1,1079000,3409.3678231697477
3,1,1,1080000,3406.211001111257
3,1,1,1081000,3403.0600196116175
3,1,1,1082000,3399.914862477041
3,1,1,1083000,3396.775513573553
3,1,1,1084000,3393.641956826714
3,1,1,1085000,3390.5141762213434
3,1,1,1086000,3387.3921558012507
3,1,1,1087000,3384.275879668958
3,1,1,1088000,3381.1653319854386
3,1,1,1089000,3378.060496969843
3,1,1,1090000,3374.961358899227
3,1,1,1091000,3371.8679021083003
3,1,1,1092000,3368.780110989155
3,1,1,1093000,3365.6979699909957
3,1,1,1094000,3362.6214636198893
3,1,1,1095000,3359.550576438501
3,1,1,1096000,3356.4852930658385
3,1,1,1097000,3353.4255981769907
3,1,1,1098000,3350.3714765028753
3,1,1,1099000,3347.32291282999
3,1,1,1100000,3344.2798920001424
3,1,1,1101000,3341.242398910225
3,1,1,1102000,3338.21041851194
3,1,1,1103000,3335.183935811568
3,1,1,1104000,3332.1629358697087
3,1,1,1105000,3329.1474038010488
3,1,1,1106000,3326.1373247741044
3,1,1,1107000,3323.132684010982
3,1,1,1108000,3320.133466787145
3,1,1,1109000,3317.1396584311606
3,1,1,1110000,3314.1512443244656
3,1,1,1111000,3311.1682099011323
3,1,1,1112000,3308.190540647625
3,1,1,1113000,3305.2182221025673
3,1,1,1114000,3302.251239856515
3,1,1,1115000,3299.2895795517115
3,1,1,1116000,3296.3332268818613
3,1,1,1117000,3293.3821675919053
3,1,1,1118000,3290.436387477782
3,1,1,1119000,3287.4958723862005
3,1,1,1120000,3284.5606082144263
3,1,1,1121000,3281.630580910043
3,1,1,1122000,3278.705776470729
3,1,1,1123000,3275.7861809440396
3,1,1,1124000,3272.871780427187
3,1,1,1125000,3269.962561066807
3,1,1,1126000,3267.058509058755
3,1,1,1127000,3264.1596106478787
3,1,1,1128000,3261.265852127801
3,1,1,1129000,3258.3772198407064
3,1,1,1130000,3255.493700177131
3,1,1,1131000,3252.6152795757366
3,1,1,1132000,3249.741944523107
3,1,1,1133000,3246.8736815535385
3,1,1,1134000,3244.0104772488157
3,1,1,1135000,3241.1523182380256
3,1,1,1136000,3238.2991911973236
3,1,1,1137000,3235.4510828497428
3,1,1,1138000,3232.6079799649915
3,1,1,1139000,3229.769869359226
3,1,1,1140000,3226.936737894875
3,1,1,1141000,3224.1085724804175
3,1,1,1142000,3221.2853600701897
3,1,1,1143000,3218.4670876641794
3,1,1,1144000,3215.6537423078303
3,1,1,1145000,3212.8453110918404
3,1,1,1146000,3210.041781151971
3,1,1,1147000,3207.24313966884
3,1,1,1148000,3204.449373867733
3,1,1,1149000,3201.6604710184142
3,1,1,1150000,3198.87641843492
3,1,1,1151000,3196.097203475375
3,1,1,1152000,3193.322813541804
3,1,1,1153000,3190.5532360799293
3,1,1,1154000,3187.7884585789943
3,1,1,1155000,3185.028468571566
3,1,1,1156000,3182.2732536333547
3,1,1,1157000,3179.522801383024
3,1,1,1158000,3176.777099482002
3,1,1,1159000,3174.0361356343046
3,1,1,1160000,3171.299897586343
3,1,1,1161000,3168.568373126751
3,1,1,1162000,3165.841550086195
3,1,1,1163000,3163.119416337195
3,1,1,1164000,3160.40195979395
3,1,1,1165000,3157.689168412154
3,1,1,1166000,3154.981030188816
3,1,1,1167000,3152.277533162089
3,1,1,1168000,3149.578665411093
3,1,1,1169000,3146.8844150557384
3,1,1,1170000,3144.1947702565453
3,1,1,1171000,3141.5097192144835
3,1,1,1172000,3138.829250170784
3,1,1,1173000,3136.153351406785
3,1,1,1174000,3133.482011243745
3,1,1,1175000,3130.815218042687
3,1,1,1176000,3128.152960204218
3,1,1,1177000,3125.495226168358
3,1,1,1178000,3122.8420044143954
3,1,1,1179000,3120.193283460694
3,1,1,1180000,3117.5490518645415
3,1,1,1181000,3114.9092982219804
3,1,1,1182000,3112.2740111676467
3,1,1,1183000,3109.643179374606
3,1,1,1184000,3107.016791554187
3,1,1,1185000,3104.394836455829
3,1,1,1186000,3101.7773028669117
3,1,1,1187000,3099.1641796125996
3,1,1,1188000,3096.5554555556882
3,1,1,1189000,3093.9511195964324
3,1,1,1190000,3091.3511606724023
3,1,1,1191000,3088.7555677583205
3,1,1,1192000,3086.164329865905
3,1,1,1193000,3083.5774360437194
3,1,1,1194000,3080.9948753770163
3,1,1,1195000,3078.4166369875793
3,1,1,1196000,3075.842710033577
3,1,1,1197000,3073.273083709406
3,1,1,1198000,3070.707747245543
3,1,1,1199000,3068.146689908386
3,1,1,1200000,3065.589901000133
3,1,1,1201000,3063.037369858582
3,1,1,1202000,3060.4890858570366
3,1,1,1203000,3057.9450384041215
3,1,1,1204000,3055.4052169436513
3,1,1,1205000,3052.8696109544894
3,1,1,1206000,3050.338209950381
3,1,1,1207000,3047.811003479831
3,1,1,1208000,3045.287981125959
3,1,1,1209000,3042.769132506336
3,1,1,1210000,3040.2544472728573
3,1,1,1211000,3037.7439151116087
3,1,1,1212000,3035.237525742705
3,1,1,1213000,3032.7352689201643
3,1,1,1214000,3030.2371344317608
3,1,1,1215000,3027.7431120988954
3,1,1,1216000,3025.253191776445
3,1,1,1217000,3022.767363352637
3,1,1,1218000,3020.285616748898
3,1,1,1219000,3017.807941919735
3,1,1,1220000,3015.3343288525884
3,1,1,1221000,3012.8647675676975
3,1,1,1222000,3010.3992481179666
3,1,1,1223000,3007.9377605888462
3,1,1,1224000,3005.480295098169
3,1,1,1225000,3003.026841796048
3,1,1,1226000,3000.5773908647298
3,1,1,1227000,2998.131932518467
3,1,1,1228000,2995.6904570033876
3,1,1,1229000,2993.252954597362
3,1,1,1230000,2990.8194156098843
3,1,1,1231000,2988.3898303819315
3,1,1,1232000,2985.964189285841
3,1,1,1233000,2983.5424827251895
3,1,1,1234000,2981.1247011346513
3,1,1,1235000,2978.7108349798837
3,1,1,1236000,2976.300874757409
3,1,1,1237000,2973.894810994468
3,1,1,1238000,2971.492634248915
3,1,1,1239000,2969.094335109085
3,1,1,1240000,2966.699904193675
3,1,1,1241000,2964.309332151619
3,1,1,1242000,2961.9226096619636
3,1,1,1243000,2959.5397274337556
3,1,1,1244000,2957.1606762059155
3,1,1,1245000,2954.7854467471147
3,1,1,1246000,2952.4140298556663
3,1,1,1247000,2950.0464163593892
3,1,1,1248000,2947.6825971155095
3,1,1,1249000,2945.322563010534
3,1,1,1250000,2942.9663049601263
3,1,1,1251000,2940.6138139089976
3,1,1,1252000,2938.2650808307985
3,1,1,1253000,2935.920096727979
3,1,1,1254000,2933.578852631705
3,1,1,1255000,2931.241339601718
3,1,1,1256000,2928.9075487262403
3,1,1,1257000,2926.5774711218432
3,1,1,1258000,2924.251097933353
3,1,1,1259000,2921.928420333724
3,1,1,1260000,2919.6094295239345
3,1,1,1261000,2917.2941167328772
3,1,1,1262000,2914.98247321724
3,1,1,1263000,2912.6744902614078
3,1,1,1264000,2910.370159177341
3,1,1,1265000,2908.069471304473
3,1,1,1266000,2905.7724180096025
3,1,1,1267000,2903.4789906867863
3,1,1,1268000,2901.1891807572215
3,1,1,1269000,2898.9029796691557
3,1,1,1270000,2896.6203788977623
3,1,1,1271000,2894.3413699450516
3,1,1,1272000,2892.0659443397462
3,1,1,1273000,2889.794093637202
3,1,1,1274000,2887.525809419277
3,1,1,1275000,2885.261083294241
3,1,1,1276000,2882.9999068966754
3,1,1,1277000,2880.7422718873595
3,1,1,1278000,2878.4881699531757
3,1,1,1279000,2876.2375928070055
3,1,1,1280000,2873.990532187625
3,1,1,1281000,2871.7469798596067
3,1,1,1282000,2869.5069276132285
3,1,1,1283000,2867.2703672643474
3,1,1,1284000,2865.037290654327
3,1,1,1285000,2862.8076896499288
3,1,1,1286000,2860.5815561432037
3,1,1,1287000,2858.3588820514046
3,1,1,1288000,2856.1396593168915
3,1,1,1289000,2853.923879907028
3,1,1,1290000,2851.7115358140754
3,1,1,1291000,2849.5026190551184
3,1,1,1292000,2847.297121671948
3,1,1,1293000,2845.0950357309807
3,1,1,1294000,2842.896353323152
3,1,1,1295000,2840.701066563829
3,1,1,1296000,2838.5091675927133
3,1,1,1297000,2836.320648573753
3,1,1,1298000,2834.135501695039
3,1,1,1299000,2831.9537191687104
3,1,1,1300000,2829.7752932308913
3,1,1,1301000,2827.600216141552
3,1,1,1302000,2825.4284801844537
3,1,1,1303000,2823.2600776670442
3,1,1,1304000,2821.095000920366
3,1,1,1305000,2818.9332422989714
3,1,1,1306000,2816.7747941808257
3,1,1,1307000,2814.6196489672207
3,1,1,1308000,2812.467799082689
3,1,1,1309000,2810.3192369749104
3,1,1,1310000,2808.173955114625
3,1,1,1311000,2806.0319459955435
3,1,1,1312000,2803.8932021342666
3,1,1,1313000,2801.7577160701885
3,1,1,1314000,2799.625480365418
3,1,1,1315000,2797.4964876046834
3,1,1,1316000,2795.3707303952556
3,1,1,1317000,2793.2482013668628
3,1,1,1318000,2791.1288931715926
3,1,1,1319000,2789.01279848382
3,1,1,1320000,2786.899910000119
3,1,1,1321000,2784.790220439181
3,1,1,1322000,2782.6837225417244
3,1,1,1323000,2780.580409070415
3,1,1,1324000,2778.480272809788
3,1,1,1325000,2776.383306566158
3,1,1,1326000,2774.2895031675407
3,1,1,1327000,2772.1988554635705
3,1,1,1328000,2770.1113563254185
3,1,1,1329000,2768.0269986457156
3,1,1,1330000,2765.9457753384663
3,1,1,1331000,2763.8676793389623
3,1,1,1332000,2761.792703603725
3,1,1,1333000,2759.720841110397
3,1,1,1334000,2757.6520848576893
3,1,1,1335000,2755.586427865287
3,1,1,1336000,2753.5238631737725
3,1,1,1337000,2751.4643838445454
3,1,1,1338000,2749.4079829597617
3,1,1,1339000,2747.3546536222248
3,1,1,1340000,2745.304388955344
3,1,1,1341000,2743.257182103027
3,1,1,1342000,2741.2130262296255
3,1,1,1343000,2739.1719145198485
3,1,1,1344000,2737.133840178688
3,1,1,1345000,2735.0987964313435
3,1,1,1346000,2733.066776523148
3,1,1,1347000,2731.037773719494
3,1,1,1348000,2729.0117813057554
3,1,1,1349000,2726.9887925872195
3,1,1,1350000,2724.9688008890066
3,1,1,1351000,2722.9517995560004
3,1,1,1352000,2720.937781952779
3,1,1,1353000,2718.926741463532
3,1,1,1354000,2716.9186714919933
3,1,1,1355000,2714.9135654613706
3,1,1,1356000,2712.911416814277
3,1,1,1357000,2710.9122190126427
3,1,1,1358000,2708.915965537671
3,1,1,1359000,2706.9226498897406
3,1,1,1360000,2704.9322655883498
3,1,1,1361000,2702.9448061720495
3,1,1,1362000,2700.9602651983555
3,1,1,1363000,2698.9786362436967
3,1,1,1364000,2696.9999129033417
3,1,1,1365000,2695.024088791325
3,1,1,1366000,2693.05115754038
3,1,1,1367000,2691.081112801871
3,1,1,1368000,2689.1139482457324
3,1,1,1369000,2687.149657560378
3,1,1,1370000,2685.1882344526693
3,1,1,1371000,2683.22967264782
3,1,1,1372000,2681.2739658893283
3,1,1,1373000,2679.321107938936
3,1,1,1374000,2677.3710925765345
3,1,1,1375000,2675.4239136001142
3,1,1,1376000,2673.4795648256963
3,1,1,1377000,2671.538040087262
3,1,1,1378000,2669.5993332366897
3,1,1,1379000,2667.663438143697
3,1,1,1380000,2665.7303486957667
3,1,1,1381000,2663.8000587980855
3,1,1,1382000,2661.8725623734854
3,1,1,1383000,2659.947853362371
3,1,1,1384000,2658.0259257226576
3,1,1,1385000,2656.1067734297158
3,1,1,1386000,2654.190390476304
3,1,1,1387000,2652.2767708725
3,1,1,1388000,2650.3659086456487
3,1,1,1389000,2648.4577978402863
3,1,1,1390000,2646.552432518099
3,1,1,1391000,2644.649806757842
3,1,1,1392000,2642.749914655288
3,1,1,1393000,2640.8527503231576
3,1,1,1394000,2638.9583078910764
3,1,1,1395000,2637.06658150549
3,1,1,1396000,2635.1775653296254
3,1,1,1397000,2633.29125354342
3,1,1,1398000,2631.4076403434606
3,1,1,1399000,2629.5267199429286
3,1,1,1400000,2627.648486571543
3,1,1,1401000,2625.772934475487
3,1,1,1402000,2623.900057917374
3,1,1,1403000,2622.029851176164
3,1,1,1404000,2620.162308547122
3,1,1,1405000,2618.297424341749
3,1,1,1406000,2616.4351928877372
3,1,1,1407000,2614.5756085288967
3,1,1,1408000,2612.718665625114
3,1,1,1409000,2610.8643585522777
3,1,1,1410000,2609.0126817022406
3,1,1,1411000,2607.1636294827485
3,1,1,1412000,2605.3171963173922
3,1,1,1413000,2603.4733766455465
3,1,1,1414000,2601.6321649223196
3,1,1,1415000,2599.7935556184857
3,1,1,1416000,2597.9575432204497
3,1,1,1417000,2596.124122230175
3,1,1,1418000,2594.293287165132
3,1,1,1419000,2592.46503255825
3,1,1,1420000,2590.6393529578568
3,1,1,1421000,2588.8162429276263
3,1,1,1422000,2586.9956970465246
3,1,1,1423000,2585.1777099087553
3,1,1,1424000,2583.3622761237057
3,1,1,1425000,2581.5493903159004
3,1,1,1426000,2579.739047124936
3,1,1,1427000,2577.931241205437
3,1,1,1428000,2576.1259672270007
3,1,1,1429000,2574.3232198741493
3,1,1,1430000,2572.5229938462644
3,1,1,1431000,2570.7252838575523
3,1,1,1432000,2568.9300846369824
3,1,1,1433000,2567.1373909282343
3,1,1,1434000,2565.3471974896484
3,1,1,1435000,2563.559499094189
3,1,1,1436000,2561.7742905293558
3,1,1,1437000,2559.991566597187
3,1,1,1438000,2558.211322114157
3,1,1,1439000,2556.433551911159
3,1,1,1440000,2554.658250833444
3,1,1,1441000,2552.885413740568
3,1,1,1442000,2551.115035506351
3,1,1,1443000,2549.3471110188198
3,1,1,1444000,2547.581635180165
3,1,1,1445000,2545.8186029066846
3,1,1,1446000,2544.0580091287407
3,1,1,1447000,2542.2998487907125
3,1,1,1448000,2540.544116850938
3,1,1,1449000,2538.7908082816825
3,1,1,1450000,2537.039918069075
3,1,1,1451000,2535.2914412130654
3,1,1,1452000,2533.5453727273816
3,1,1,1453000,2531.801707639476
3,1,1,1454000,2530.0604409904813
3,1,1,1455000,2528.3215678351607
3,1,1,1456000,2526.585083241867
3,1,1,1457000,2524.850982292489
3,1,1,1458000,2523.1192600824124
3,1,1,1459000,2521.3899117204646
3,1,1,1460000,2519.662932328875
3,1,1,1461000,2517.93831704323
3,1,1,1462000,2516.2160610124206
3,1,1,1463000,2514.4961593986022
3,1,1,1464000,2512.778607377156
3,1,1,1465000,2511.063400136628
3,1,1,1466000,2509.3505328786887
3,1,1,1467000,2507.6400008181026
3,1,1,1468000,2505.9317991826683
3,1,1,1469000,2504.2259232131787
3,1,1,1470000,2502.5223681633724
3,1,1,1471000,2500.8211292999044
3,1,1,1472000,2499.1222019022807
3,1,1,1473000,2497.4255812628376
3,1,1,1474000,2495.7312626866765
3,1,1,1475000,2494.039241491632
3,1,1,1476000,2492.349513008237
3,1,1,1477000,2490.6620725796606
3,1,1,1478000,2488.976915561677
3,1,1,1479000,2487.294037322622
3,1,1,1480000,2485.61343324335
3,1,1,1481000,2483.9350987171906
3,1,1,1482000,2482.2590291499027
3,1,1,1483000,2480.585219959649
3,1,1,1484000,2478.913666576926
3,1,1,1485000,2477.244364444551
3,1,1,1486000,2475.577309017602
3,1,1,1487000,2473.9124957633867
3,1,1,1488000,2472.2499201613978
3,1,1,1489000,2470.5895777032633
3,1,1,1490000,2468.9314638927244
3,1,1,1491000,2467.2755742455793
3,1,1,1492000,2465.62190428965
3,1,1,1493000,2463.9704495647416
3,1,1,1494000,2462.3212056225952
3,1,1,1495000,2460.6741680268624
3,1,1,1496000,2459.029332353046
3,1,1,1497000,2457.3866941884826
3,1,1,1498000,2455.7462491322817
3,1,1,1499000,2454.1079927953015
3,1,1,1500000,2452.4719208001056
3,1,1,1501000,2450.8380287809173
3,1,1,1502000,2449.2063123835937
3,1,1,1503000,2447.576767265573
3,1,1,1504000,2445.94938909585
3,1,1,1505000,2444.3241735549236
3,1,1,1506000,2442.7011163347656
3,1,1,1507000,2441.080213138792
3,1,1,1508000,2439.461459681802
3,1,1,1509000,2437.844851689967
3,1,1,1510000,2436.2303849007667
3,1,1,1511000,2434.618055062977
3,1,1,1512000,2433.007857936613
3,1,1,1513000,2431.3997892929006
3,1,1,1514000,2429.7938449142393
3,1,1,1515000,2428.1900205941633
3,1,1,1516000,2426.5883121373076
3,1,1,1517000,2424.9887153593663
3,1,1,1518000,2423.39122608706
3,1,1,1519000,2421.795840158103
3,1,1,1520000,2420.202553421157
3,1,1,1521000,2418.6113617358055
3,1,1,1522000,2417.0222609725083
3,1,1,1523000,2415.43524701258
3,1,1,1524000,2413.8503157481355
3,1,1,1525000,2412.26746308207
3,1,1,1526000,2410.686684928019
3,1,1,1527000,2409.1079772103194
3,1,1,1528000,2407.5313358639773
3,1,1,1529000,2405.9567568346356
3,1,1,1530000,2404.3842360785343
3,1,1,1531000,2402.813769562481
3,1,1,1532000,2401.245353263812
3,1,1,1533000,2399.6789831703577
3,1,1,1534000,2398.1146552804157
3,1,1,1535000,2396.552365602709
3,1,1,1536000,2394.9921101563527
3,1,1,1537000,2393.4338849708242
3,1,1,1538000,2391.8776860859275
3,1,1,1539000,2390.323509551759
3,1,1,1540000,2388.771351428673
3,1,1,1541000,2387.2212077872546
3,1,1,1542000,2385.6730747082747
3,1,1,1543000,2384.1269482826683
3,1,1,1544000,2382.5828246115
3,1,1,1545000,2381.0406998059275
3,1,1,1546000,2379.500569987165
3,1,1,1547000,2377.962431286463
3,1,1,1548000,2376.4262798450636
3,1,1,1549000,2374.892111814175
3,1,1,1550000,2373.3599233549403
3,1,1,1551000,2371.8297106384
3,1,1,1552000,2370.3014698454635
3,1,1,1553000,2368.7751971668763
3,1,1,1554000,2367.25088880319
3,1,1,1555000,2365.7285409647316
3,1,1,1556000,2364.208149871568
3,1,1,1557000,2362.6897117534727
3,1,1,1558000,2361.173222849909
3,1,1,1559000,2359.658679409981
3,1,1,1560000,2358.146077692409
3,1,1,1561000,2356.6354139655073
3,1,1,1562000,2355.1266845071455
3,1,1,1563000,2353.619885604708
3,1,1,1564000,2352.115013555088
3,1,1,1565000,2350.6120646646373
3,1,1,1566000,2349.111035249143
3,1,1,1567000,2347.6119216337947
3,1,1,1568000,2346.114720153163
3,1,1,1569000,2344.619427151153
3,1,1,1570000,2343.126038980993
3,1,1,1571000,2341.634552005195
3,1,1,1572000,2340.1449625955215
3,1,1,1573000,2338.6572671329686
3,1,1,1574000,2337.171462007724
3,1,1,1575000,2335.687543619148
3,1,1,1576000,2334.2055083757355
3,1,1,1577000,2332.725352695091
3,1,1,1578000,2331.247073003904
3,1,1,1579000,2329.770665737909
3,1,1,1580000,2328.2961273418723
3,1,1,1581000,2326.8234542695504
3,1,1,1582000,2325.352642983665
3,1,1,1583000,2323.88368995588
3,1,1,1584000,2322.4165916667675
3,1,1,1585000,2320.9513446057786
3,1,1,1586000,2319.4879452712216
3,1,1,1587000,2318.026390170233
3,1,1,1588000,2316.5666758187394
3,1,1,1589000,2315.1087987414458
3,1,1,1590000,2313.6527554717977
3,1,1,1591000,2312.198542551954
3,1,1,1592000,2310.746156532762
3,1,1,1593000,2309.295593973734
3,1,1,1594000,2307.84685144301
3,1,1,1595000,2306.3999255173394
3,1,1,1596000,2304.954812782055
3,1,1,1597000,2303.5115098310325
3,1,1,1598000,2302.070013266681
3,1,1,1599000,2300.630319699911
3,1,1,1600000,2299.1924257500987
3,1,1,1601000,2297.756328045071
3,1,1,1602000,2296.3220232210724
3,1,1,1603000,2294.8895079227445
3,1,1,1604000,2293.4587788030913
3,1,1,1605000,2292.0298325234635
3,1,1,1606000,2290.602665753523
3,1,1,1607000,2289.177275171225
3,1,1,1608000,2287.753657462786
3,1,1,1609000,2286.3318093226585
3,1,1,1610000,2284.9117274535142
3,1,1,1611000,2283.493408566207
3,1,1,1612000,2282.076849379751
3,1,1,1613000,2280.6620466213003
3,1,1,1614000,2279.2489970261204
3,1,1,1615000,2277.837697337559
3,1,1,1616000,2276.4281443070295
3,1,1,1617000,2275.0203346939757
3,1,1,1618000,2273.614265265858
3,1,1,1619000,2272.20993279812
3,1,1,1620000,2270.807334074172
3,1,1,1621000,2269.406465885353
3,1,1,1622000,2268.0073250309238
3,1,1,1623000,2266.6099083180275
3,1,1,1624000,2265.2142125616747
3,1,1,1625000,2263.8202345847126
3,1,1,1626000,2262.4279712178104
3,1,1,1627000,2261.037419299421
3,1,1,1628000,2259.648575675772
3,1,1,1629000,2258.261437200835
3,1,1,1630000,2256.8760007362935
3,1,1,1631000,2255.4922631515374
3,1,1,1632000,2254.110221323626
3,1,1,1633000,2252.729872137267
3,1,1,1634000,2251.351212484797
3,1,1,1635000,2249.974239266153
3,1,1,1636000,2248.5989493888515
3,1,1,1637000,2247.2253397679647
3,1,1,1638000,2245.853407326104
3,1,1,1639000,2244.483148993385
3,1,1,1640000,2243.1145617074144
3,1,1,1641000,2241.7476424132587
3,1,1,1642000,2240.3823880634336
3,1,1,1643000,2239.018795617869
3,1,1,1644000,2237.656862043892
3,1,1,1645000,2236.296584316206
3,1,1,1646000,2234.9379594168654
3,1,1,1647000,2233.5809843352513
3,1,1,1648000,2232.225656068058
3,1,1,1649000,2230.8719716192595
3,1,1,1650000,2229.519928000095
3,1,1,1651000,2228.169522229047
3,1,1,1652000,2226.8207513318134
3,1,1,1653000,2225.473612341293
3,1,1,1654000,2224.128102297557
3,1,1,1655000,2222.7842182478307
3,1,1,1656000,2221.4419572464717
3,1,1,1657000,2220.101316354954
3,1,1,1658000,2218.7622926418335
3,1,1,1659000,2217.424883182736
3,1,1,1660000,2216.0890850603364
3,1,1,1661000,2214.7548953643336
3,1,1,1662000,2213.422311191431
3,1,1,1663000,2212.0913296453136
3,1,1,1664000,2210.761947836633
3,1,1,1665000,2209.434162882979
3,1,1,1666000,2208.107971908859
3,1,1,1667000,2206.783372045685
3,1,1,1668000,2205.46036043175
3,1,1,1669000,2204.138934212199
3,1,1,1670000,2202.8190905390165
3,1,1,1671000,2201.500826571009
3,1,1,1672000,2200.184139473779
3,1,1,1673000,2198.8690264197
3,1,1,1674000,2197.5554845879083
3,1,1,1675000,2196.243511164274
3,1,1,1676000,2194.933103341382
3,1,1,1677000,2193.624258318519
3,1,1,1678000,2192.3169733016443
3,1,1,1679000,2191.0112455033686
3,1,1,1680000,2189.707072142952
3,1,1,1681000,2188.4044504462586
3,1,1,1682000,2187.1033776457534
3,1,1,1683000,2185.803850980486
3,1,1,1684000,2184.5058676960566
3,1,1,1685000,2183.209425044605
3,1,1,1686000,2181.9145202847913
3,1,1,1687000,2180.6211506817785
3,1,1,1688000,2179.329313507204
3,1,1,1689000,2178.0390060391696
3,1,1,1690000,2176.750225562224
3,1,1,1691000,2175.4629693673314
3,1,1,1692000,2174.1772347518663
3,1,1,1693000,2172.893019019587
3,1,1,1694000,2171.6103194806124
3,1,1,1695000,2170.329133451422
3,1,1,1696000,2169.0494582548104
3,1,1,1697000,2167.771291219893
3,1,1,1698000,2166.494629682072
3,1,1,1699000,2165.2194709830255
3,1,1,1700000,2163.945812470682
3,1,1,1701000,2162.6736514992117
3,1,1,1702000,2161.402985429001
3,1,1,1703000,2160.1338116266343
3,1,1,1704000,2158.866127464882
3,1,1,1705000,2157.599930322674
3,1,1,1706000,2156.335217585087
3,1,1,1707000,2155.0719866433274
3,1,1,1708000,2153.8102348947064
3,1,1,1709000,2152.5499597426315
3,1,1,1710000,2151.2911585965835
3,1,1,1711000,2150.0338288720977
3,1,1,1712000,2148.777967990746
3,1,1,1713000,2147.5235733801273
3,1,1,1714000,2146.270642473837
3,1,1,1715000,2145.0191727114625
3,1,1,1716000,2143.7691615385534
3,1,1,1717000,2142.5206064066147
3,1,1,1718000,2141.273504773084
3,1,1,1719000,2140.0278541013136
3,1,1,1720000,2138.7836518605573
3,1,1,1721000,2137.5408955259486
3,1,1,1722000,2136.299582578489
3,1,1,1723000,2135.059710505025
3,1,1,1724000,2133.821276798236
3,1,1,1725000,2132.5842789566127
3,1,1,1726000,2131.348714484449
3,1,1,1727000,2130.1145808918113
3,1,1,1728000,2128.881875694537
3,1,1,1729000,2127.6505964142034
3,1,1,1730000,2126.420740578126
3,1,1,1731000,2125.19230571933
3,1,1,1732000,2123.965289376534
3,1,1,1733000,2122.739689094148
3,1,1,1734000,2121.515502422236
3,1,1,1735000,2120.2927269165184
3,1,1,1736000,2119.07136013834
3,1,1,1737000,2117.851399654668
3,1,1,1738000,2116.632843038066
3,1,1,1739000,2115.4156878666804
3,1,1,1740000,2114.1999317242276
3,1,1,1741000,2112.9855721999766
3,1,1,1742000,2111.772606888726
3,1,1,1743000,2110.5610333907966
3,1,1,1744000,2109.3508493120175
3,1,1,1745000,2108.1420522637013
3,1,1,1746000,2106.9346398626335
3,1,1,1747000,2105.7286097310575
3,1,1,1748000,2104.523959496659
3,1,1,1749000,2103.3206867925423
3,1,1,1750000,2102.118789257233
3,1,1,1751000,2100.9182645346427
3,1,1,1752000,2099.719110274063
3,1,1,1753000,2098.5213241301535
3,1,1,1754000,2097.3249037629184
3,1,1,1755000,2096.1298468376967
3,1,1,1756000,2094.936151025147
3,1,1,1757000,2093.7438140012277
3,1,1,1758000,2092.552833447188
3,1,1,1759000,2091.3632070495505
3,1,1,1760000,2090.17493250009
3,1,1,1761000,2088.988007495831
3,1,1,1762000,2087.802429739023
3,1,1,1763000,2086.6181969371287
3,1,1,1764000,2085.4353068028104
3,1,1,1765000,2084.2537570539134
3,1,1,1766000,2083.0735454134547
3,1,1,1767000,2081.8946696095977
3,1,1,1768000,2080.7171273756558
3,1,1,1769000,2079.5409164500606
3,1,1,1770000,2078.366034576361
3,1,1,1771000,2077.1924795031946
3,1,1,1772000,2076.0202489842873
3,1,1,1773000,2074.8493407784313
3,1,1,1774000,2073.6797526494697
3,1,1,1775000,2072.511482366286
3,1,1,1776000,2071.344527702791
3,1,1,1777000,2070.178886437907
3,1,1,1778000,2069.0145563555457
3,1,1,1779000,2067.8515352446084
3,1,1,1780000,2066.6898208989655
3,1,1,1781000,2065.5294111174385
3,1,1,1782000,2064.370303703792
3,1,1,1783000,2063.2124964667178
3,1,1,1784000,2062.05598721982
3,1,1,1785000,2060.900773781602
3,1,1,1786000,2059.7468539754523
3,1,1,1787000,2058.594225629636
3,1,1,1788000,2057.4428865772693
3,1,1,1789000,2056.2928346563194
3,1,1,1790000,2055.144067709585
3,1,1,1791000,2053.9965835846774
3,1,1,1792000,2052.850380134017
3,1,1,1793000,2051.705455214812
3,1,1,1794000,2050.5618066890515
3,1,1,1795000,2049.419432423487
3,1,1,1796000,2048.278330289621
3,1,1,1797000,2047.1384981636952
3,1,1,1798000,2045.9999339266726
3,1,1,1799000,2044.8626354642347
3,1,1,1800000,2043.726600666754
3,1,1,1801000,2042.5918274292928
3,1,1,1802000,2041.4583136515862
3,1,1,1803000,2040.3260572380245
3,1,1,1804000,2039.1950560976477
3,1,1,1805000,2038.0653081441324
3,1,1,1806000,2036.9368112957693
3,1,1,1807000,2035.8095634754607
3,1,1,1808000,2034.6835626107065
3,1,1,1809000,2033.5588066335874
3,1,1,1810000,2032.4352934807503
3,1,1,1811000,2031.3130210934053
3,1,1,1812000,2030.1919874173063
3,1,1,1813000,2029.0721904027343
3,1,1,1814000,2027.9536280044967
3,1,1,1815000,2026.8362981819057
3,1,1,1816000,2025.7201988987651
3,1,1,1817000,2024.605328123367
3,1,1,1818000,2023.4916838284703
3,1,1,1819000,2022.37926399129
3,1,1,1820000,2021.2680665934938
3,1,1,1821000,2020.1580896211738
3,1,1,1822000,2019.0493310648503
3,1,1,1823000,2017.9417889194508
3,1,1,1824000,2016.8354611842972
3,1,1,1825000,2015.7303458631002
3,1,1,1826000,2014.626440963943
3,1,1,1827000,2013.5237444992656
3,1,1,1828000,2012.4222544858637
3,1,1,1829000,2011.3219689448654
3,1,1,1830000,2010.2228859017264
3,1,1,1831000,2009.125003386213
3,1,1,1832000,2008.0283194324006
3,1,1,1833000,2006.932832078645
3,1,1,1834000,2005.8385393675887
3,1,1,1835000,2004.7454393461346
3,1,1,1836000,2003.6535300654457
3,1,1,1837000,2002.5628095809243
3,1,1,1838000,2001.4732759522087
3,1,1,1839000,2000.3849272431526
3,1,1,1840000,1999.2977615218256
3,1,1,1841000,1998.2117768604887
3,1,1,1842000,1997.1269713355903
3,1,1,1843000,1996.0433430277578
3,1,1,1844000,1994.9608900217784
3,1,1,1845000,1993.8796104065893
3,1,1,1846000,1992.7995022752748
3,1,1,1847000,1991.7205637250445
3,1,1,1848000,1990.6427928572296
3,1,1,1849000,1989.566187777262
3,1,1,1850000,1988.490746594679
3,1,1,1851000,1987.4164674231
3,1,1,1852000,1986.3433483802144
3,1,1,1853000,1985.2713875877812
3,1,1,1854000,1984.2005831716056
3,1,1,1855000,1983.1309332615408
3,1,1,1856000,1982.0624359914646
3,1,1,1857000,1980.9950894992774
3,1,1,1858000,1979.9288919268884
3,1,1,1859000,1978.8638414202026
3,1,1,1860000,1977.7999361291172
3,1,1,1861000,1976.737174207501
3,1,1,1862000,1975.6755538131881
3,1,1,1863000,1974.6150731079738
3,1,1,1864000,1973.5557302575949
3,1,1,1865000,1972.4975234317199
3,1,1,1866000,1971.440450803942
3,1,1,1867000,1970.3845105517712
3,1,1,1868000,1969.3297008566153
3,1,1,1869000,1968.2760199037773
3,1,1,1870000,1967.2234658824375
3,1,1,1871000,1966.1720369856548
3,1,1,1872000,1965.121731410341
3,1,1,1873000,1964.0725473572659
3,1,1,1874000,1963.0244830310342
3,1,1,1875000,1961.9775366400838
3,1,1,1876000,1960.931706396673
3,1,1,1877000,1959.8869905168665
3,1,1,1878000,1958.8433872205312
3,1,1,1879000,1957.8008947313247
3,1,1,1880000,1956.759511276679
3,1,1,1881000,1955.7192350878024
3,1,1,1882000,1954.6800643996592
3,1,1,1883000,1953.6419974509595
3,1,1,1884000,1952.6050324841608
3,1,1,1885000,1951.5691677454417
3,1,1,1886000,1950.5344014847067
3,1,1,1887000,1949.5007319555684
3,1,1,1888000,1948.468157415338
3,1,1,1889000,1947.4366761250178
3,1,1,1890000,1946.4062863492911
3,1,1,1891000,1945.3769863565099
3,1,1,1892000,1944.3487744186875
3,1,1,1893000,1943.321648811494
3,1,1,1894000,1942.2956078142333
3,1,1,1895000,1941.2706497098454
3,1,1,1896000,1940.2467727848941
3,1,1,1897000,1939.2239753295505
3,1,1,1898000,1938.2022556375964
3,1,1,1899000,1937.1816120064018
3,1,1,1900000,1936.162042736926
3,1,1,1901000,1935.1435461336964
3,1,1,1902000,1934.126120504815
3,1,1,1903000,1933.1097641619335
3,1,1,1904000,1932.094475420251
3,1,1,1905000,1931.0802525985075
3,1,1,1906000,1930.0670940189711
3,1,1,1907000,1929.0549980074243
3,1,1,1908000,1928.0439628931645
3,1,1,1909000,1927.0339870089879
3,1,1,1910000,1926.0250686911825
3,1,1,1911000,1925.0172062795177
3,1,1,1912000,1924.0103981172379
3,1,1,1913000,1923.0046425510488
3,1,1,1914000,1921.9999379311173
3,1,1,1915000,1920.996282611048
3,1,1,1916000,1919.9936749478902
3,1,1,1917000,1918.9921133021169
3,1,1,1918000,1917.9915960376213
3,1,1,1919000,1916.9921215217091
3,1,1,1920000,1915.9936881250821
3,1,1,1921000,1914.9962942218422
3,1,1,1922000,1913.9999381894695
3,1,1,1923000,1913.0046184088187
3,1,1,1924000,1912.0103332641145
3,1,1,1925000,1911.0170811429389
3,1,1,1926000,1910.0248604362196
3,1,1,1927000,1909.0336695382246
3,1,1,1928000,1908.043506846555
3,1,1,1929000,1907.0543707621355
3,1,1,1930000,1906.0662596892007
3,1,1,1931000,1905.0791720352968
3,1,1,1932000,1904.0931062112606
3,1,1,1933000,1903.1080606312253
3,1,1,1934000,1902.124033712594
3,1,1,1935000,1901.1410238760516
3,1,1,1936000,1900.1590295455362
3,1,1,1937000,1899.1780491482486
3,1,1,1938000,1898.198081114632
3,1,1,1939000,1897.2191238783698
3,1,1,1940000,1896.24117587637
3,1,1,1941000,1895.264235548768
3,1,1,1942000,1894.2883013389069
3,1,1,1943000,1893.3133716933394
3,1,1,1944000,1892.3394450618093
3,1,1,1945000,1891.366519897254
3,1,1,1946000,1890.394594655784
3,1,1,1947000,1889.4236677966912
3,1,1,1948000,1888.4537377824224
3,1,1,1949000,1887.4848030785827
3,1,1,1950000,1886.5168621539276
3,1,1,1951000,1885.549913480347
3,1,1,1952000,1884.5839555328673
3,1,1,1953000,1883.6189867896355
3,1,1,1954000,1882.6550057319123
3,1,1,1955000,1881.6920108440702
3,1,1,1956000,1880.7300006135783
3,1,1,1957000,1879.7689735309941
3,1,1,1958000,1878.8089280899685
3,1,1,1959000,1877.8498627872173
3,1,1,1960000,1876.8917761225302
3,1,1,1961000,1875.934666598755
3,1,1,1962000,1874.9785327217933
3,1,1,1963000,1874.02337300059
3,1,1,1964000,1873.069185947128
3,1,1,1965000,1872.1159700764163
3,1,1,1966000,1871.1637239064892
3,1,1,1967000,1870.2124459583918
3,1,1,1968000,1869.2621347561776
3,1,1,1969000,1868.312788826896
3,1,1,1970000,1867.3644067005878
3,1,1,1971000,1866.4169869102775
3,1,1,1972000,1865.4705279919663
3,1,1,1973000,1864.525028484621
3,1,1,1974000,1863.5804869301712
3,1,1,1975000,1862.636901873498
3,1,1,1976000,1861.6942718624275
3,1,1,1977000,1860.7525954477276
3,1,1,1978000,1859.8118711830934
3,1,1,1979000,1858.872097625143
3,1,1,1980000,1857.9332733334122
3,1,1,1981000,1856.9953968703483
3,1,1,1982000,1856.0584668012914
3,1,1,1983000,1855.1224816944814
3,1,1,1984000,1854.1874401210462
3,1,1,1985000,1853.253340654992
3,1,1,1986000,1852.3201818731907
3,1,1,1987000,1851.3879623553883
3,1,1,1988000,1850.4566806841838
3,1,1,1989000,1849.5263354450262
3,1,1,1990000,1848.5969252262103
3,1,1,1991000,1847.6684486188644
3,1,1,1992000,1846.7409042169465
3,1,1,1993000,1845.8142906172386
3,1,1,1994000,1844.8886064193375
3,1,1,1995000,1843.9638502256432
3,1,1,1996000,1843.0400206413615
3,1,1,1997000,1842.1171162744922
3,1,1,1998000,1841.1951357358143
3,1,1,1999000,1840.274077638899
3,1,1,2000000,1839.353940600079
