freq (Hz),l3000,l6000,l10000,l12000
50,77542.41115389892,41330.60955028753,27969.44577709978,20889.955638240368
550,77542.41114684984,41330.60997473125,27969.439425494034,20889.956880717484
1050,77542.41112946691,41330.61039255788,27969.433070109913,20889.958119655435
1550,77542.41110153237,41330.61080505665,27969.42670811457,20889.95935520725
2050,77542.41106288019,41330.611211003285,27969.420342277364,21284.004436548686
2550,85502.93383538444,42482.748574000674,27969.413971139897,21284.004487412418
3050,85502.93371219221,42482.748794489875,25808.202850517446,21284.004535385895
3550,85502.93357438431,42482.74900878151,25808.200939427494,21284.004580347126
4050,85502.93342280539,42482.74921694964,25808.199025167803,21284.004621737968
4550,85502.93325714134,42668.73066869245,25808.19710581903,21385.201316001214
5050,85502.93307677178,42668.730886914156,25808.195183163967,21385.201474515743
5550,85502.93288310328,42668.73109926288,25808.193255811984,21385.20162938667
6050,85572.91563102051,42668.7313045787,26008.741153698338,21385.201781442604
6550,85572.91554941569,42668.73150381156,26008.740396191206,21385.20193016905
7050,85572.91545342418,42749.384876434764,26008.73963516498,21409.476211760884
7550,85572.9153439867,42749.38486398874,26008.738869292465,21409.476348094064
8050,85572.9152196304,42749.38484404927,26008.73810001238,21409.476480745663
8550,85572.91508183083,42749.384817928374,26008.737326272527,21386.619947213872
9050,85572.91492961136,42749.38478591839,25850.512145071905,21386.619971149903
9550,85619.44123158544,42749.384745707765,25850.51181516725,21386.6199911951
10050,85619.44095767433,42749.38470026556,25850.511481253532,21386.62000848484
10550,85619.44066955168,42749.38464731984,25850.511143694162,21413.331674836205
11050,85619.4403673748,42749.38458869586,25850.510801627373,21413.331767576376
11550,85619.44005088152,42760.890788627505,25850.510456791722,21413.331857270838
12050,85619.4397206247,42760.89077696274,25850.510106294478,21413.33194340409
12550,85716.44459391425,42760.89075914235,25850.509752687405,21408.229258503652
13050,85716.44411893212,42761.56227930156,25850.509395023804,21408.22928434294
13550,85716.44363042689,42761.562261949904,25846.25311687875,21408.22930663087
14050,85716.44312744337,42761.562237598584,25846.25285433674,21408.22932575661
14550,85716.44261041986,42761.56220687241,25846.252587629177,21425.316047300574
15050,85716.44207940574,42761.562169681754,25846.252317694878,21425.31609049224
15550,85716.44153410711,42761.56212591741,25846.25204284155,21425.316130260864
16050,85716.44097468173,42761.56207557426,25846.251764622255,21425.316166158515
16550,85723.45078610512,42761.56201808163,25846.251482097327,21418.128377988178
17050,85723.4502558909,42852.29757880252,25844.36066503671,21418.12834405442
17550,85723.44971087111,42852.297211772544,25844.360344436776,21418.1283056196
18050,85723.44915184179,42852.29683796869,25844.36002023347,21418.12826456224
18550,85747.70269520124,42852.29645793071,25844.35969135489,21418.128220074996
19050,85747.7020291708,42852.296070372344,25844.359359569207,21418.12817274767
19550,85747.7013493802,42867.45981247689,25844.35902300612,21423.13261494312
20050,85747.70065533392,42867.45956712834,25844.358682762413,21423.132575058797
20550,85747.69994651849,42867.45931519993,25844.358338176695,21423.13253257393
21050,85757.0737699491,42867.459056859116,25844.35798972726,21423.132486661438
21550,85757.0730600861,42867.458791343895,25843.391719636707,21423.05851095657
22050,85757.07233562756,42867.458518810156,25843.391356000942,21423.0584571249
22550,85757.07159678641,42867.458240482396,25843.39098860529,21423.058400793376
23050,85757.07084433966,42867.45795469184,25843.39061691836,21423.05834098444
23550,85758.22156218452,42867.45766238902,25843.39024140487,21423.058277202184
24050,85758.22075738091,42868.112059270396,25843.38986238599,21423.20996256395
24550,85758.21993862442,42868.1117210292,25841.62193635484,21423.209896906978
25050,85758.2191056308,42868.11137588949,25841.621527230218,21423.209827927116
25550,85758.21825807115,42868.11102393273,25841.621114213158,21423.1158515244
26050,85765.10825701828,42868.1106657095,25841.620696954968,21423.115768001855
26550,85765.10736156354,42868.11030026676,25841.62027628354,21423.1156809674
27050,85765.10645235615,42870.70838094491,25841.619851052128,21423.11559122295
27550,85765.10552796391,42870.708000873914,25841.61942260689,21423.911245718264
28050,85767.62596943387,42870.70761315023,25841.618989218037,21423.91115392093
28550,85767.6250187574,42870.707218866024,25841.697929322814,21423.911058667338
29050,85767.62405331577,42870.70681836474,25841.69748884593,21423.91095996568
29550,85767.62307437422,42870.70641073105,25841.697044947603,21423.83330076012
30050,85767.62208106906,42870.705997346995,25841.696596854137,21423.833190570796
30550,85771.80261618675,42871.08103789989,25841.69614460519,21423.833076869272
31050,85771.8015567695,42871.08061582251,25841.69568833975,21423.832960007956
31550,85771.80048263632,42871.08018854657,25841.69522866662,21467.208298128437
32050,85771.79939422633,42871.07975422092,25841.69476468845,21467.20800018757
32550,85900.19000747836,42871.079312438735,25841.69429684524,21467.207698963193
33050,85900.18889126355,42871.07886432546,25840.97315863188,21467.207395078418
33550,85900.18776020921,42871.82083836473,25840.97267448348,21467.207087612493
34050,85900.18661521604,42871.820365599655,25840.97218626726,21467.34297723769
34550,85900.1854562736,42871.81988702034,25840.97169446502,21467.34267701056
35050,85902.80789346184,42871.819400665256,25840.971199182677,21467.3423725201
35550,85902.8066892962,42871.81890856416,25840.970699308804,21467.342065204208
36050,85902.8054703551,42871.818409378415,25840.27195197017,21467.341754016215
36550,85902.80423763077,42871.817903739386,25840.27143810849,21467.341439602336
37050,85902.80299031282,42872.22301437919,25840.27092045347,21467.62397306393
37550,85902.8017287399,42872.22249735107,25840.270399364377,21467.62365827116
38050,85902.80045301083,42872.22197340112,25840.26987404202,21467.62334038128
38550,85902.79916315502,42872.22144270047,25840.26934459754,21467.62301950049
39050,85902.27813425256,42872.22090568496,25821.051193428455,21467.62269478324
39550,85902.27679913281,42872.22036175892,25821.050473626343,21467.622367101325
40050,85902.27544981564,42872.219810898605,25821.049750528142,21467.77031861384
40550,85902.27408591047,42872.948523504485,25821.049023163272,21467.769989391523
41050,85902.2727088933,42872.94794762735,25821.048291769275,21467.76965675824
41550,85902.27131648101,42872.94736536365,25821.04755718731,21467.769321358857
42050,85902.26991008467,42872.9467764005,25821.046817643703,21467.768981957583
42550,85902.26848976084,42872.94618057496,25820.248178905713,21467.768639727434
43050,85903.1877720552,42872.94557792355,25820.247436026977,21467.768294908084
43550,85903.18630045386,42872.94496911652,25820.246687469855,21467.833643181297
44050,85903.18481496602,42873.2701283721,25820.24593605236,21467.833292968193
44550,85903.18331486908,42873.26950703063,25820.24518070763,21467.832939217893
45050,85903.18180070863,42873.26887821741,25820.2444211334,21467.832582115938
45550,85903.18027300436,42873.26824340912,25820.24365725897,21467.832221702738
46050,85903.1787306013,42873.267601706946,25820.242890106718,21467.83185806923
46550,85903.17717317886,42873.26695344793,25820.242118469538,21467.955007090124
47050,85902.38116466417,42873.26629750268,25820.241342641377,21467.954638824896
47550,85902.37955684516,42873.98271343062,25820.240563740164,21467.954267730187
48050,85902.37793478988,42873.98203264546,25820.193577315735,21467.95389339956
48550,85902.37629816832,42873.98134542294,25820.192812633028,21467.95351547162
49050,85902.37464720383,42873.980651548205,25820.19204414227,21467.989909617547
49550,85902.37298246306,42873.97995152735,25820.191271617834,21467.989526404857
50000,85902.37147176873,42873.97931472242,25820.190573223994,21467.98917843356
55000,85903.15735925066,42874.26212038204,25819.678273447345,21468.062544925597
60000,85902.51990787816,42913.433152151156,25819.45693012125,21468.0622168104
65000,85903.10726594953,42912.92786690471,25819.42812149298,21468.10761351166
70000,85901.62638101114,42911.13188546837,25819.299013370397,21468.182131311165
75000,85902.7998828322,42911.4814030597,25819.213222884417,21468.23641474121
80000,85903.21018987596,42911.228285749785,25819.128494225755,21468.252099355246
85000,85903.13133891646,42910.887028258374,25818.73923821598,21468.311433900424
90000,85903.27763116114,42910.99701107507,25818.427869797302,21468.327676465648
95000,85903.25275631556,42910.58304641632,25818.309114531545,21468.364624623766
100000,85903.2644504648,42910.806985024195,25818.284600295512,21468.391400223405
105000,85903.11894387189,42910.36760730633,25818.12701608316,21468.42112344996
110000,85903.50947610891,42910.65422918362,25817.79013242747,21468.427967700525
115000,85903.50301085124,42911.36319987264,25817.756479901538,21468.44182616052
120000,85903.48373471039,42911.73635056083,25802.905815024635,21468.443928584475
125000,85903.44396350597,42913.239759150005,25805.419990181756,21468.432084949578
130000,85904.31440896448,42913.34624102182,25803.800417375736,21468.462477756704
135000,85903.72392815076,42913.86187193127,25803.9390178958,21468.41843180082
140000,85903.6234141306,42914.01693335065,25803.76733842758,21468.473630856915
145000,85903.69552269719,42928.011935381466,25803.71083544223,21468.379715641888
150000,85903.63318181153,42927.32033238966,25798.493867367513,21468.487665619276
155000,85903.59171547994,42926.9438353536,25798.518204201006,21468.405446740366
160000,85903.57218819093,42926.99002338185,25798.49638205075,21468.513071381753
165000,85903.54877834665,42926.75788569926,25798.385330967,21468.440991912557
170000,85903.51573478583,42926.799011172385,25798.347262532254,21468.432465668007
175000,85903.48189838829,42926.61206159281,25796.51049297245,21468.537498551363
180000,85903.44749616226,42926.67495349585,25796.49356696587,21468.73728192831
185000,85903.41037880059,42926.50324707955,25796.14849263559,21468.56883216162
190000,85903.36985736626,42926.60198208216,25796.158974719066,21468.646384091422
195000,85903.32742265782,42926.435271857365,25796.024801435058,21468.568077182084
200000,85903.28306133316,42923.68789496863,25795.49523071245,21468.64050789793
205000,85903.23728744849,42924.150849768535,25795.380444547853,21468.57586945942
210000,85903.18949713134,42924.640200310125,25795.394866322076,21468.710078864162
215000,85903.14045203172,42924.76209102638,25795.275790118223,21468.185087494883
220000,85903.08929545978,42925.0078686241,25795.289454309845,21468.566182281214
225000,85903.0369711091,42925.0620969363,25792.129465015256,21468.60251330837
230000,85902.98216325515,42932.72523659503,25792.107705364597,21468.579796406284
235000,85902.92640688627,42932.740338379495,25791.6657235021,21468.62231417568
240000,85902.86759755781,42932.086291386244,25791.49834345708,21468.595267237863
245000,85902.80835712016,42932.146774034845,25791.377247274366,21468.866577468027
250000,85902.74508324338,42931.935595813324,25791.404447632463,21468.786593658344
255000,85902.68254322208,42931.97765453242,25790.510476272335,21468.84251540009
260000,85902.61414501311,42931.85444541861,25790.500567967967,21468.784923223342
265000,85902.54890616087,42932.17256032095,25790.47621858196,21468.940041781967
270000,85902.4742021339,42931.933445256946,25790.37101667093,21468.86160998389
275000,85902.40780674879,42932.10964381456,25790.294798315026,21468.909799894274
280000,85902.32452814777,42932.11525883954,25790.23386705506,21468.82023696755
285000,85902.26057198823,42936.18912209118,25789.925597378846,21468.911585901344
290000,85902.16410034566,42936.21374630342,25789.90054107263,21470.74327458461
295000,85902.11128769515,42936.19802406393,25789.82994146474,21470.307271248614
300000,85901.99270090304,42936.263966666585,25789.779196514013,21470.35917208634
305000,85901.97285489802,42936.237176791525,25789.718713039267,21470.32665715918
310000,85901.81782366245,42936.92573039406,25788.147796930978,21470.338912456933
315000,85901.87627359673,42936.92241518665,25788.102932825685,21470.313233053657
320000,85901.66916829818,42936.95377023266,25788.05135191196,21470.27479098453
325000,85901.78956329783,42936.976651745885,25787.895934295182,21470.26166608458
330000,85901.54443295128,42937.34449816814,25787.846016866988,21470.221898547516
335000,85901.60288020708,42937.31625752508,25787.7990931255,21470.22479750975
340000,85901.37523745332,42937.333994303466,25787.033861391472,21469.89054103959
345000,85901.39794527889,42937.322962777194,25787.002326987527,21470.036849136035
350000,85901.17555046207,42937.360683621504,25786.917328418935,21469.995950350145
355000,85901.20986431258,42937.29411281544,25786.835093633308,21469.986091423907
360000,85900.97395411697,42937.386866026056,25786.811730140413,21469.96636506873
365000,85901.02870514563,42937.25153630935,25785.655399775336,21469.98298217226
370000,85900.776479032,42937.37351777061,25785.6213799166,21469.94579136522
375000,85900.82750086913,42937.1608568287,25785.5872221014,21469.958930127712
380000,85900.56956220247,42937.28265805908,25785.528236342892,21469.86533753861
385000,85900.60533429577,42938.973105637524,25785.4717447603,21469.880337660332
390000,85900.34629413561,42938.58724418048,25784.90368952785,21469.84038389596
395000,85900.3780138124,42938.478810952896,25784.87961351558,21469.850471902162
400000,85900.11293452475,42938.39057212568,25784.837351694834,21469.800605272096
405000,85900.1482974413,42938.29233665212,25784.780559502007,21469.80125285073
410000,85899.87414462677,42938.25728138293,25784.73480783649,21469.77367272677
415000,85899.90882931469,42939.13943656863,25783.91173419895,21469.845422067316
420000,85899.62751681723,42939.003858828575,25783.738347771035,21469.792869167748
425000,85899.65594311806,42938.96169246067,25783.699684398303,21469.38144844915
430000,85899.36975543924,42938.92450248344,25783.706158050474,21469.677645495867
435000,85899.39327300056,42938.882506357855,25783.43465561858,21469.673873049356
440000,85899.10161527935,42939.83159437917,25783.57480189837,21469.633366326394
445000,85899.12329152736,42939.7177181163,25782.89452548135,21469.652010385213
450000,85898.82495935164,42939.65243618737,25782.85366490886,21469.605045373177
455000,85898.84437995656,42939.585380435965,25782.76780659272,21469.63887671218
460000,85898.5396093945,42939.51192420521,25782.726215080318,21469.570451580697
465000,85898.55482976147,42939.45936523561,25782.7608306492,21469.76937142115
470000,85898.24442769648,42939.88924228229,25782.643168408023,21469.6675088642
475000,85898.25530637382,42939.833475301646,25782.664717397354,21469.704821381158
480000,85897.93933211351,42939.76277353992,25782.52244908121,21469.61416401005
485000,85897.94681284639,42939.71035706114,25782.553843171772,21469.726384474958
490000,85897.62489694028,42939.63882462489,25782.403777258598,21469.68383821731
495000,85897.62906232492,42940.088944035895,25781.565338236076,21469.422277165697
500000,85897.30117990024,42940.03350572527,25781.520002877838,21469.486011465124
500000,85897.30117990024,42940.03350572527,25781.520002877838,21469.486011465124
515000,85896.89544786404,42939.77328427408,25781.396063883232,21470.173569722578
530000,85896.8104104608,42939.51718955475,25781.210926602318,21470.586089961624
545000,85895.98160975047,42939.22179209532,25781.140961305962,21470.207258071383
560000,85895.06142849449,42938.859394978645,25780.95560518897,21470.123306559155
575000,85894.72415122371,42938.54954417657,25780.83498617163,21469.969363752225
590000,85894.09513030176,42938.458132665255,25780.137587667614,21469.851250469725
605000,85893.33727439113,42938.13856068388,25780.026671902757,21469.72525080168
620000,85892.64954771403,42937.81992067238,25779.77537484878,21469.6347795928
635000,85891.95130096076,42937.60360283271,25779.510370457265,21469.44287272632
650000,85891.20123993562,42937.26706056741,25779.1975442314,21469.608956827535
665000,85890.42306388641,42936.9255172631,25779.004356592173,21469.327733541617
680000,85889.62723339151,42936.08960516479,25778.77188083383,21469.48155794574
695000,85888.80949141127,42935.97824643249,25778.091779827642,21469.17600619703
710000,85887.97058418399,42935.39329071765,25777.79225183579,21469.386635146206
725000,85887.1125120947,42935.22632412196,25777.63526922883,21469.07018158819
740000,85886.23585051403,42935.675112210105,25777.416876905336,21469.24965384683
755000,85885.3405867106,42935.15528266014,25777.12472987576,21466.020125138904
770000,85884.42679811489,42934.76334374441,25776.08397362449,21466.089015617206
785000,85883.4943948018,42932.86407238098,25775.843104611882,21466.513321791066
800000,85882.54327688245,42932.529853806576,25776.582559063718,21466.11610868947
815000,85881.57329389435,42932.139343027986,25775.70997816455,21466.37516692952
830000,85880.58427161147,42934.199989304376,25775.23307705425,21465.92771568191
845000,85879.57598502113,42933.455617453496,25775.135886277356,21466.112952546675
860000,85878.54829923966,42933.10180799438,25774.45294064154,21465.72081283899
875000,85877.50104261993,42932.43990448027,25774.21247498754,21465.672034415045
890000,85876.43406304182,42932.25169146518,25773.808660539158,21465.388308079804
905000,85875.34724975818,42927.823166285074,25773.606422626286,21461.727788312488
920000,85874.24049896846,42929.37982179259,25773.203811794825,21461.734103575673
935000,85873.11373677356,42928.09641943773,25773.108970597994,21462.071576973653
950000,85871.96691295902,42927.87311391375,25772.75240795879,21461.7294769414
965000,85870.79998043313,42927.497726647816,25772.536507818237,21461.99157202707
980000,85869.612898709,42927.5254350723,25769.798020222,21461.71268742629
995000,85868.40566715543,42927.01921673567,25769.405086114428,21465.35895205721
1010000,85867.17825062785,42926.33776385447,25769.1881598792,21464.488132927552
1025000,85865.93063774674,42925.826358010054,25769.43991386851,21464.24511689598
1040000,85864.66280965117,42925.349870485516,25768.747929216366,21463.899148987974
1055000,85863.37477673187,42924.944526340296,25768.742257897244,21463.777120324987
1070000,85862.06651446085,42924.44432741584,25768.17156066938,21463.386757987173
1085000,85860.7380177261,42923.88468093257,25768.047566396523,21463.25636518456
1100000,85859.38927748962,42923.29007146178,25767.38756792125,21462.856119371285
1115000,85858.02027669181,42922.686276047156,25767.243130803214,21462.74760437444
1130000,85856.63102006826,42922.12625328287,25766.520893632012,21462.322817469958
1145000,85855.22147995592,42921.509985215336,25766.35285636562,21462.218469769676
1160000,85853.79166907305,42920.900936499864,25765.830844800577,21461.768634309134
1175000,85852.34155216711,42919.977267149974,25765.602494918006,21461.673679627762
1190000,85850.87115845768,42919.49257813667,25764.427377186927,21461.195652199585
1205000,85849.38043449413,42918.83116481859,25763.98122696117,21461.11510906449
1220000,85847.86942142472,42918.18789019378,25763.58153825512,21460.612525046472
1235000,85846.33806489082,42917.68995562532,25763.33655305907,21460.54772223784
1250000,85844.78639439207,42917.02299995375,25762.920548315797,21460.0430273768
1265000,85843.21436800102,42916.38201889272,25760.22739768923,21459.99804940686
1280000,85841.62203369186,42916.198913110995,25759.52894883254,21459.52501978883
1295000,85840.00931413326,42915.47731010859,25759.24403403759,21459.552142941502
1310000,85838.37628190946,42914.7837375221,25758.90242575249,21459.14811240304
1325000,85836.72284589928,42913.89325340777,25758.77826355768,21456.147431130805
1340000,85835.0491164023,42913.13922866203,25758.266360802685,21454.85901859015
1355000,85833.35492180011,42912.421241507014,25758.080405112327,21455.581317000448
1370000,85831.640500136,42911.761186141746,25757.6399915983,21455.42437089256
1385000,85829.90551032333,42911.00345492401,25757.29469476879,21455.20617642615
1400000,85828.15042275708,42910.24257752208,25756.821527859942,21454.976823428573
1415000,85826.37457955812,42909.20211458918,25756.416658238977,21460.024794494275
1430000,85824.5788734656,42908.43632337643,25755.974856658926,21457.541450071676
1445000,85822.76207632526,42907.66954921052,25755.601689582618,21457.006176359075
1460000,85820.92586886804,42907.076859818444,25754.97103563642,21456.657035146036
1475000,85819.0679419056,42906.26291503586,25754.613139152763,21456.18226811076
1490000,85817.1914935347,42905.12357056011,25754.032809500808,21455.80421673829
1505000,85815.29203523221,42904.31512085938,25753.62467509676,21456.95098122568
1520000,85813.37590095683,42903.513014426666,25752.985575866867,21455.838665816354
1535000,85811.43413234611,42902.173878448615,25753.05236132441,21455.376042895936
1550000,85809.47944654743,42901.6034059414,25752.3045781707,21454.500695178383
1565000,85807.49375160571,42903.36067522854,25752.001203247873,21454.49537629132
1580000,85805.50295642475,42901.99073985343,25751.22480528166,21453.935887339227
1595000,85803.46992213148,42900.972904115304,25750.87075130319,21453.752681968974
1610000,85801.44838040181,42900.27263611349,25749.325086159926,21453.13695249996
1625000,85799.36087520284,42899.48770628629,25749.01638387261,21450.925491677062
1640000,85797.32072124018,42898.67677115848,25748.23617335934,21451.57788029439
1655000,85795.16427196992,42897.54728145225,25747.857148740623,21450.937060971857
1670000,85793.1344083988,42893.784624976885,25747.22683480582,21450.55962053953
1685000,85790.88206233043,42893.34087099713,25746.588143258352,21450.163957394412
1700000,85788.935013016,42892.49468621786,25746.08845185279,21449.772327731785
1715000,85786.54608307256,42891.25881640353,25745.664727697556,21449.308088897127
1730000,85779.38573193167,42890.480672044054,25744.82923964167,21449.014019170154
1745000,85777.61347646083,42890.572297674444,25744.42237380184,21448.627008137428
1760000,85775.2982157417,42889.59668407268,25743.846039243985,21448.344967987872
1775000,85772.51110915017,42888.60578935639,25743.37204305763,21448.89549011867
1790000,85770.13977966795,42886.676546948875,25742.716102480576,21448.300299604056
1805000,85767.15204226751,42885.7079365394,25742.296876912675,21442.305019812993
1820000,85764.77015986115,42884.75416791448,25741.577159491586,21442.114386319856
1835000,85761.69162915248,42884.9560771549,25741.1499076081,21441.21793870874
1850000,85759.31512567074,42883.88666768264,25740.386669251933,21441.333402609973
1865000,85759.5429372483,42882.87473303146,25739.984139442033,21440.81170924732
1880000,85756.79650435463,42880.40629284483,25739.189988502523,21440.60472110752
1895000,85754.24351622803,42879.51754137062,25738.744000806124,21440.12350248172
1910000,85752.13783700787,42878.482796182085,25736.3635840109,21439.80619043821
1925000,85749.54563951802,42878.41806084483,25736.015176390127,21439.367140237588
1940000,85747.36988178197,42877.18244445406,25735.366152878327,21438.87970981491
1955000,85744.80155076746,42876.11179294974,25734.799462877694,21438.584621523903
1970000,85742.53633705496,42875.31174868024,25734.202412055365,21438.442800580546
1985000,85739.91160137874,42874.008597512766,25733.599409020608,21437.893917721074
2000000,85737.6489958948,42871.5906896916,25733.010745090654,21437.675545633865
