Material Switch 1 Conductores index","Material Switch 2 Substrato index","freq (Hz)","abs(1 / ec.Y11)"
1,1,50,4.364858287014245E10
1,1,20050,1.0884933384074825E8
1,1,40050,5.449261282165159E7
1,1,60050,3.6343532781135395E7
1,1,80050,2.726332471589136E7
1,1,100050,2.1813384742699277E7
1,1,120050,1.8179334806389984E7
1,1,140050,1.5583214162849559E7
1,1,160050,1.3635920921631023E7
1,1,180050,1.2121239341888882E7
1,1,200050,1.0909418362944987E7
1,1,220050,9917878.407212662
1,1,240050,9091560.689469596
1,1,260050,8392344.331886822
1,1,280050,7792998.191419935
1,1,300050,7273551.553098083
1,1,320050,6819025.600710148
1,1,340050,6417965.427163593
1,1,360050,6061461.306782799
1,1,380050,5742478.998834837
1,1,400050,5455390.934900784
1,1,420050,5195641.336762781
1,1,440050,4959502.655396211
1,1,460050,4743895.540717514
1,1,480050,4546253.814200939
1,1,500050,4364421.844829912
1,1,520050,4196575.605243831
1,1,540050,4041161.2693401836
1,1,560050,3896846.9663551114
1,1,580050,3762484.5160021903
1,1,600050,3637078.815943711
1,1,620050,3519763.1537893363
1,1,640050,3409779.147733864
1,1,660050,3306460.334076424
1,1,680050,3209218.6508448725
1,1,700050,3117533.2383502577
1,1,720050,3030941.1061830586
1,1,740050,2949029.313569485
1,1,760050,2871428.3843261455
1,1,780050,2797806.7348338035
1,1,800050,2727865.937762717
1,1,820050,2661336.6788697564
1,1,840050,2597975.291360172
1,1,860050,2537560.77380056
1,1,880050,2479892.214654899
1,1,900050,2424786.560199093
1,1,920050,2372076.6735579846
1,1,940050,2321609.6415158673
1,1,960050,2273245.2929609073
1,1,980050,2226854.8987368676
1,1,1000050,2182320.0275055584
1,1,1020050,2139531.536206164
1,1,1040050,2098388.6769935684
1,1,1060050,2058798.3052752085
1,1,1080050,2020674.1757391752
1,1,1100050,1983936.3151739237
1,1,1120050,1948510.4624856694
1,1,1140050,1914327.5676568449
1,1,1160050,1881323.3425344187
1,1,1180050,1849437.8573002287
1,1,1200050,1818615.1772901728
1,1,1220050,1788803.0355371675
1,1,1240050,1759952.5370002715
1,1,1260050,1732017.8909622564
1,1,1280050,1704956.168514547
1,1,1300050,1678727.0824252698
1,1,1320050,1653292.787021028
1,1,1340050,1628617.695986841
1,1,1360050,1604668.3162435761
1,1,1380050,1581413.0962697426
1,1,1400050,1558822.2874234093
1,1,1420050,1536867.8169832611
1,1,1440050,1515523.1717697585
1,1,1460050,1494763.291330452
1,1,1480050,1474564.4697862281
1,1,1500050,1454904.2655292442
1,1,1520050,1435761.4180500743
1,1,1540050,1417115.7712458135
1,1,1560050,1398948.2026262593
1,1,1580050,1381240.5578981843
1,1,1600050,1363975.5904546934
1,1,1620050,1347136.905346837
1,1,1640050,1330708.907354688
1,1,1660050,1314676.7528129334
1,1,1680050,1299026.3048761408
1,1,1700050,1283744.0919427082
1,1,1720050,1268817.2689788535
1,1,1740050,1254233.5815103778
1,1,1760050,1239981.332068449
1,1,1780050,1226049.348898675
1,1,1800050,1212426.9567551392
1,1,1820050,1199103.9496206976
1,1,1840050,1186070.5652058527
1,1,1860050,1173317.4610935508
1,1,1880050,1160835.6924055566
1,1,1900050,1148616.6908802881
1,1,1920050,1136652.2452577204
1,1,1940050,1124934.482877859
1,1,1960050,1113455.852405342
1,1,1980050,1102209.1076018573
1,2,50,1.3803397995152784E10
1,2,20050,3.442243890690466E7
1,2,40050,1.723270661881321E7
1,2,60050,1.1493253956426792E7
1,2,80050,8621735.16656396
1,2,100050,6898249.875896841
1,2,120050,5749020.408858341
1,2,140050,4928024.991670882
1,2,160050,4312214.308550524
1,2,180050,3833212.4414517977
1,2,200050,3449987.003665876
1,2,220050,3136423.08604124
1,2,240050,2875108.935985777
1,2,260050,2653989.2331604147
1,2,280050,2464452.419508667
1,2,300050,2300182.969783026
1,2,320050,2156443.9933867096
1,2,340050,2029612.9983336846
1,2,360050,1916872.3790679306
1,2,380050,1815997.6321100483
1,2,400050,1725209.0990711416
1,2,420050,1643066.063762415
1,2,440050,1568389.7286295379
1,2,460050,1500206.282107229
1,2,480050,1437704.1976532317
1,2,500050,1380201.7799888721
1,2,520050,1327122.1999489658
1,2,540050,1277974.0766288235
1,2,560050,1232336.2201293674
1,2,580050,1189845.5307015448
1,2,600050,1150187.3178625575
1,2,620050,1113087.4930787315
1,2,640050,1078306.2262064866
1,2,660050,1045632.7552207023
1,2,680050,1014881.1118056583
1,2,700050,985886.579649223
1,2,720050,958502.742980993
1,2,740050,932599.0136929015
1,2,760050,908058.5488894117
1,2,780050,884776.4887935624
1,2,800050,862658.4589505979
1,2,820050,841619.2916083559
1,2,840050,821581.929746375
1,2,860050,802476.484022357
1,2,880050,784239.4183096937
1,2,900050,766812.8438235949
1,2,920050,750143.9053132393
1,2,940050,734184.2456076181
1,2,960050,718889.5370901609
1,2,980050,704219.0705406872
1,2,1000050,690135.3933137868
1,2,1020050,676603.9900822861
1,2,1040050,663593.0004167231
1,2,1060050,651072.9683349194
1,2,1080050,639016.6196781925
1,2,1100050,627398.6637729373
1,2,1120050,616195.6163416574
1,2,1140050,605385.6410538348
1,2,1160050,594948.4074681402
1,2,1180050,584864.9634197118
1,2,1200050,575117.6201687243
1,2,1220050,565689.8488450893
1,2,1240050,556566.1869145815
1,2,1260050,547732.1535521878
1,2,1280050,539174.1729490687
1,2,1300050,530879.5046986035
1,2,1320050,522836.1805109215
1,2,1340050,515032.9465941008
1,2,1360050,507459.2111197653
1,2,1380050,500104.9962562536
1,2,1400050,492960.89431337017
1,2,1420050,486018.02759301604
1,2,1440050,479268.0115853155
1,2,1460050,472702.92119000194
1,2,1480050,466315.2596759978
1,2,1500050,460097.9301246287
1,2,1520050,454044.2091269773
1,2,1540050,448147.7225307163
1,2,1560050,442402.42305275
1,2,1580050,436802.5695917518
1,2,1600050,431342.70809252857
1,2,1620050,426017.6538276212
1,2,1640050,420822.47497542656
1,2,1660050,415752.47738529043
1,2,1680050,410803.1904308832
1,2,1700050,405970.35386218806
1,2,1720050,401249.9055745244
1,2,1740050,396637.97022123623
1,2,1760050,392130.84860283765
1,2,1780050,387725.0077713764
1,2,1800050,383417.0717943477
1,2,1820050,379203.81312791025
1,2,1840050,375082.1445523047
1,2,1860050,371049.1116278942
1,2,1880050,367101.8856325327
1,2,1900050,363237.75694506284
1,2,1920050,359454.1288421963
1,2,1940050,355748.5116793046
1,2,1960050,352118.51742736244
1,2,1980050,348561.8545407689
1,3,50,3.84523230046498E10
1,3,20050,9.589107981208862E7
1,3,40050,4.800539700954967E7
1,3,60050,3.201692173576013E7
1,3,80050,2.401769082114162E7
1,3,100050,1.921655322571224E7
1,3,120050,1.6015128281819105E7
1,3,140050,1.3728069619653083E7
1,3,160050,1.2012597002389576E7
1,3,180050,1.0678234658330614E7
1,3,200050,9610678.081641976
1,3,220050,8737178.596829869
1,3,240050,8009232.035960775
1,3,260050,7393255.720947819
1,3,280050,6865260.3114885725
1,3,300050,6407652.558681473
1,3,320050,6007236.838720285
1,3,340050,5653921.92393009
1,3,360050,5339858.770261022
1,3,380050,5058850.5465921685
1,3,400050,4805939.633126859
1,3,420050,4577112.606195571
1,3,440050,4369085.672610855
1,3,460050,4179146.071584587
1,3,480050,4005033.122034028
1,3,500050,3844847.8156835088
1,3,520050,3696983.2712863656
1,3,540050,3560070.6420376617
1,3,560050,3432936.6132173776
1,3,580050,3314569.692668496
1,3,600050,3204093.242617171
1,3,620050,3100743.7307192506
1,3,640050,3003853.058717972
1,3,660050,2912834.103829255
1,3,680050,2827168.811458547
1,3,700050,2746398.329022868
1,3,720050,2670114.7840185123
1,3,740050,2597954.3952874197
1,3,760050,2529591.67190637
1,3,780050,2464734.5044964417
1,3,800050,2403119.992791005
1,3,820050,2344510.8837662237
1,3,840050,2288692.5185791194
1,3,860050,2235470.2054909053
1,3,880050,2184666.9510057317
1,3,900050,2136121.49350867
1,3,920050,2089686.5933725436
1,3,940050,2045227.5413355518
1,3,960050,2002620.8533227046
1,3,980050,1961753.1250777317
1,3,1000050,1922520.0242312565
1,3,1020050,1884825.4009434392
1,3,1040050,1848580.5011608729
1,3,1060050,1813703.268933014
1,3,1080050,1780117.7262464238
1,3,1100050,1747753.4205104061
1,3,1120050,1716544.9312373425
1,3,1140050,1686431.428650028
1,3,1160050,1657356.2779469173
1,3,1180050,1629266.6838120618
1,3,1200050,1602113.370469973
1,3,1220050,1575850.293211322
1,3,1240050,1550434.3778335112
1,3,1260050,1525825.284895363
1,3,1280050,1501985.1960723666
1,3,1300050,1478878.6202319171
1,3,1320050,1456472.217137525
1,3,1340050,1434734.6369407412
1,3,1360050,1413636.373833673
1,3,1380050,1393149.6324281793
1,3,1400050,1373248.205587218
1,3,1420050,1353907.362580476
1,3,1440050,1335103.746559089
1,3,1460050,1316815.2804578051
1,3,1480050,1299021.0805259515
1,3,1500050,1281701.3767756855
1,3,1520050,1264837.439710838
1,3,1540050,1248411.5127641745
1,3,1560050,1232406.7499326463
1,3,1580050,1216807.158148457
1,3,1600050,1201597.5439720794
1,3,1620050,1186763.4642340874
1,3,1640050,1172291.1802886894
1,3,1660050,1158167.6155733098
1,3,1680050,1144380.3162003795
1,3,1700050,1130917.414330437
1,3,1720050,1117767.5941004136
1,3,1740050,1104920.059901966
1,3,1760050,1092364.5068222517
1,3,1780050,1080091.0930774454
1,3,1800050,1068090.4142843091
1,3,1820050,1056353.4794277004
1,3,1840050,1044871.6883956742
1,3,1860050,1033636.8109633803
1,3,1880050,1022640.9671192084
1,3,1900050,1011876.6086326168
1,3,1920050,1001336.5017746957
1,3,1940050,991013.7111066717
1,3,1960050,980901.5842618656
1,3,1980050,970993.7376493148
2,1,50,4.364858287014245E10
2,1,20050,1.0884933384074825E8
2,1,40050,5.449261282165159E7
2,1,60050,3.6343532781135395E7
2,1,80050,2.726332471589137E7
2,1,100050,2.1813384742699277E7
2,1,120050,1.8179334806389984E7
2,1,140050,1.5583214162849572E7
2,1,160050,1.3635920921631066E7
2,1,180050,1.2121239341888882E7
2,1,200050,1.0909418362944987E7
2,1,220050,9917878.407212703
2,1,240050,9091560.689469598
2,1,260050,8392344.331886822
2,1,280050,7792998.1914199265
2,1,300050,7273551.553098083
2,1,320050,6819025.600710148
2,1,340050,6417965.427163593
2,1,360050,6061461.306782803
2,1,380050,5742478.998834837
2,1,400050,5455390.934900784
2,1,420050,5195641.336762778
2,1,440050,4959502.655396211
2,1,460050,4743895.540717514
2,1,480050,4546253.814200939
2,1,500050,4364421.844829912
2,1,520050,4196575.605243831
2,1,540050,4041161.2693401836
2,1,560050,3896846.9663551003
2,1,580050,3762484.5160021903
2,1,600050,3637078.815943711
2,1,620050,3519763.153789329
2,1,640050,3409779.147733864
2,1,660050,3306460.334076424
2,1,680050,3209218.6508448725
2,1,700050,3117533.2383502484
2,1,720050,3030941.1061830586
2,1,740050,2949029.313569485
2,1,760050,2871428.384326148
2,1,780050,2797806.734833793
2,1,800050,2727865.937762717
2,1,820050,2661336.6788697564
2,1,840050,2597975.291360172
2,1,860050,2537560.7738005556
2,1,880050,2479892.214654902
2,1,900050,2424786.560199096
2,1,920050,2372076.6735579846
2,1,940050,2321609.6415158566
2,1,960050,2273245.2929609073
2,1,980050,2226854.8987368676
2,1,1000050,2182320.0275055584
2,1,1020050,2139531.536206168
2,1,1040050,2098388.6769935684
2,1,1060050,2058798.3052752095
2,1,1080050,2020674.1757391752
2,1,1100050,1983936.3151739237
2,1,1120050,1948510.462485671
2,1,1140050,1914327.5676568449
2,1,1160050,1881323.3425344205
2,1,1180050,1849437.8573002287
2,1,1200050,1818615.177290177
2,1,1220050,1788803.0355371675
2,1,1240050,1759952.5370002715
2,1,1260050,1732017.8909622564
2,1,1280050,1704956.168514549
2,1,1300050,1678727.0824252698
2,1,1320050,1653292.78702103
2,1,1340050,1628617.695986841
2,1,1360050,1604668.3162435847
2,1,1380050,1581413.0962697456
2,1,1400050,1558822.2874234072
2,1,1420050,1536867.8169832611
2,1,1440050,1515523.171769761
2,1,1460050,1494763.291330452
2,1,1480050,1474564.469786229
2,1,1500050,1454904.2655292442
2,1,1520050,1435761.4180500733
2,1,1540050,1417115.7712458135
2,1,1560050,1398948.2026262593
2,1,1580050,1381240.5578981843
2,1,1600050,1363975.5904546918
2,1,1620050,1347136.905346837
2,1,1640050,1330708.907354688
2,1,1660050,1314676.7528129364
2,1,1680050,1299026.3048761338
2,1,1700050,1283744.0919427082
2,1,1720050,1268817.2689788523
2,1,1740050,1254233.5815103895
2,1,1760050,1239981.332068449
2,1,1780050,1226049.3488986732
2,1,1800050,1212426.9567551392
2,1,1820050,1199103.9496206976
2,1,1840050,1186070.5652058527
2,1,1860050,1173317.4610935508
2,1,1880050,1160835.6924055566
2,1,1900050,1148616.6908802881
2,1,1920050,1136652.2452577204
2,1,1940050,1124934.482877859
2,1,1960050,1113455.8524053427
2,1,1980050,1102209.1076018573
2,2,50,1.3803397995152784E10
2,2,20050,3.442243890690466E7
2,2,40050,1.72327066188132E7
2,2,60050,1.1493253956426792E7
2,2,80050,8621735.16656396
2,2,100050,6898249.875896841
2,2,120050,5749020.408858341
2,2,140050,4928024.991670882
2,2,160050,4312214.308550524
2,2,180050,3833212.4414517977
2,2,200050,3449987.003665876
2,2,220050,3136423.08604124
2,2,240050,2875108.9359857747
2,2,260050,2653989.2331604147
2,2,280050,2464452.419508667
2,2,300050,2300182.969783026
2,2,320050,2156443.9933867096
2,2,340050,2029612.9983336846
2,2,360050,1916872.3790679306
2,2,380050,1815997.6321100483
2,2,400050,1725209.0990711416
2,2,420050,1643066.063762415
2,2,440050,1568389.7286295379
2,2,460050,1500206.282107229
2,2,480050,1437704.1976532317
2,2,500050,1380201.7799888721
2,2,520050,1327122.1999489658
2,2,540050,1277974.0766288235
2,2,560050,1232336.2201293674
2,2,580050,1189845.5307015448
2,2,600050,1150187.3178625582
2,2,620050,1113087.4930787312
2,2,640050,1078306.2262064866
2,2,660050,1045632.7552207023
2,2,680050,1014881.1118056583
2,2,700050,985886.579649223
2,2,720050,958502.742980993
2,2,740050,932599.0136929015
2,2,760050,908058.5488894117
2,2,780050,884776.4887935624
2,2,800050,862658.4589505979
2,2,820050,841619.2916083559
2,2,840050,821581.929746375
2,2,860050,802476.484022357
2,2,880050,784239.4183096937
2,2,900050,766812.8438235949
2,2,920050,750143.9053132393
2,2,940050,734184.2456076181
2,2,960050,718889.5370901609
2,2,980050,704219.0705406872
2,2,1000050,690135.3933137868
2,2,1020050,676603.9900822861
2,2,1040050,663593.0004167231
2,2,1060050,651072.9683349194
2,2,1080050,639016.6196781925
2,2,1100050,627398.6637729373
2,2,1120050,616195.6163416574
2,2,1140050,605385.6410538348
2,2,1160050,594948.4074681402
2,2,1180050,584864.9634197118
2,2,1200050,575117.6201687243
2,2,1220050,565689.8488450893
2,2,1240050,556566.1869145815
2,2,1260050,547732.1535521878
2,2,1280050,539174.1729490687
2,2,1300050,530879.5046986035
2,2,1320050,522836.1805109215
2,2,1340050,515032.9465941008
2,2,1360050,507459.2111197641
2,2,1380050,500104.9962562536
2,2,1400050,492960.89431337017
2,2,1420050,486018.02759301604
2,2,1440050,479268.0115853155
2,2,1460050,472702.9211900027
2,2,1480050,466315.2596759978
2,2,1500050,460097.9301246287
2,2,1520050,454044.2091269773
2,2,1540050,448147.7225307146
2,2,1560050,442402.42305275
2,2,1580050,436802.5695917518
2,2,1600050,431342.70809252857
2,2,1620050,426017.6538276212
2,2,1640050,420822.47497542656
2,2,1660050,415752.47738529043
2,2,1680050,410803.1904308832
2,2,1700050,405970.35386218806
2,2,1720050,401249.9055745244
2,2,1740050,396637.97022123623
2,2,1760050,392130.84860283765
2,2,1780050,387725.0077713764
2,2,1800050,383417.07179434807
2,2,1820050,379203.81312791025
2,2,1840050,375082.1445523047
2,2,1860050,371049.1116278942
2,2,1880050,367101.8856325327
2,2,1900050,363237.75694506284
2,2,1920050,359454.1288421963
2,2,1940050,355748.5116793046
2,2,1960050,352118.51742736244
2,2,1980050,348561.8545407689
2,3,50,3.84523230046498E10
2,3,20050,9.589107981208862E7
2,3,40050,4.800539700954967E7
2,3,60050,3.201692173576013E7
2,3,80050,2.401769082114162E7
2,3,100050,1.9216553225712214E7
2,3,120050,1.6015128281819105E7
2,3,140050,1.3728069619653083E7
2,3,160050,1.2012597002389576E7
2,3,180050,1.0678234658330614E7
2,3,200050,9610678.081642004
2,3,220050,8737178.596829869
2,3,240050,8009232.035960775
2,3,260050,7393255.720947819
2,3,280050,6865260.3114885725
2,3,300050,6407652.558681473
2,3,320050,6007236.838720251
2,3,340050,5653921.92393009
2,3,360050,5339858.770261022
2,3,380050,5058850.5465921685
2,3,400050,4805939.633126859
2,3,420050,4577112.606195571
2,3,440050,4369085.672610855
2,3,460050,4179146.071584587
2,3,480050,4005033.122034028
2,3,500050,3844847.815683508
2,3,520050,3696983.2712863656
2,3,540050,3560070.6420376617
2,3,560050,3432936.6132173776
2,3,580050,3314569.692668496
2,3,600050,3204093.242617171
2,3,620050,3100743.7307192497
2,3,640050,3003853.0587179665
2,3,660050,2912834.103829255
2,3,680050,2827168.811458547
2,3,700050,2746398.329022868
2,3,720050,2670114.7840185123
2,3,740050,2597954.3952874197
2,3,760050,2529591.671906356
2,3,780050,2464734.5044964417
2,3,800050,2403119.992791005
2,3,820050,2344510.8837662237
2,3,840050,2288692.518579119
2,3,860050,2235470.2054909053
2,3,880050,2184666.951005733
2,3,900050,2136121.49350867
2,3,920050,2089686.5933725436
2,3,940050,2045227.5413355518
2,3,960050,2002620.8533227046
2,3,980050,1961753.1250777317
2,3,1000050,1922520.0242312565
2,3,1020050,1884825.4009434392
2,3,1040050,1848580.5011608729
2,3,1060050,1813703.268933014
2,3,1080050,1780117.7262464238
2,3,1100050,1747753.4205104061
2,3,1120050,1716544.9312373437
2,3,1140050,1686431.428650028
2,3,1160050,1657356.2779469173
2,3,1180050,1629266.6838120618
2,3,1200050,1602113.370469973
2,3,1220050,1575850.293211322
2,3,1240050,1550434.3778335112
2,3,1260050,1525825.284895363
2,3,1280050,1501985.1960723535
2,3,1300050,1478878.6202319171
2,3,1320050,1456472.217137525
2,3,1340050,1434734.6369407412
2,3,1360050,1413636.373833673
2,3,1380050,1393149.6324281793
2,3,1400050,1373248.205587218
2,3,1420050,1353907.362580476
2,3,1440050,1335103.746559089
2,3,1460050,1316815.2804578051
2,3,1480050,1299021.0805259515
2,3,1500050,1281701.3767756855
2,3,1520050,1264837.439710838
2,3,1540050,1248411.5127641745
2,3,1560050,1232406.7499326463
2,3,1580050,1216807.158148457
2,3,1600050,1201597.5439720794
2,3,1620050,1186763.4642340874
2,3,1640050,1172291.1802886894
2,3,1660050,1158167.6155733098
2,3,1680050,1144380.3162003795
2,3,1700050,1130917.414330437
2,3,1720050,1117767.5941004136
2,3,1740050,1104920.059901966
2,3,1760050,1092364.5068222517
2,3,1780050,1080091.0930774454
2,3,1800050,1068090.4142843091
2,3,1820050,1056353.4794277004
2,3,1840050,1044871.6883956742
2,3,1860050,1033636.8109633822
2,3,1880050,1022640.9671192102
2,3,1900050,1011876.6086326155
2,3,1920050,1001336.5017746957
2,3,1940050,991013.7111066717
2,3,1960050,980901.5842618656
2,3,1980050,970993.7376493148
3,1,50,4.364858287014245E10
3,1,20050,1.0884933384074825E8
3,1,40050,5.449261282165159E7
3,1,60050,3.6343532781135395E7
3,1,80050,2.726332471589137E7
3,1,100050,2.1813384742699277E7
3,1,120050,1.8179334806389984E7
3,1,140050,1.5583214162849572E7
3,1,160050,1.3635920921631023E7
3,1,180050,1.2121239341888882E7
3,1,200050,1.0909418362944987E7
3,1,220050,9917878.407212662
3,1,240050,9091560.689469598
3,1,260050,8392344.331886824
3,1,280050,7792998.191419935
3,1,300050,7273551.553098083
3,1,320050,6819025.600710119
3,1,340050,6417965.427163593
3,1,360050,6061461.306782803
3,1,380050,5742478.998834837
3,1,400050,5455390.934900784
3,1,420050,5195641.336762778
3,1,440050,4959502.655396196
3,1,460050,4743895.540717514
3,1,480050,4546253.814200939
3,1,500050,4364421.844829912
3,1,520050,4196575.605243831
3,1,540050,4041161.2693401785
3,1,560050,3896846.9663551003
3,1,580050,3762484.516002195
3,1,600050,3637078.815943711
3,1,620050,3519763.1537893363
3,1,640050,3409779.147733864
3,1,660050,3306460.334076424
3,1,680050,3209218.6508448725
3,1,700050,3117533.2383502484
3,1,720050,3030941.1061830586
3,1,740050,2949029.313569485
3,1,760050,2871428.384326148
3,1,780050,2797806.734833793
3,1,800050,2727865.937762717
3,1,820050,2661336.6788697564
3,1,840050,2597975.2913601757
3,1,860050,2537560.773800556
3,1,880050,2479892.214654902
3,1,900050,2424786.560199093
3,1,920050,2372076.6735579846
3,1,940050,2321609.6415158566
3,1,960050,2273245.2929609073
3,1,980050,2226854.8987368667
3,1,1000050,2182320.027505568
3,1,1020050,2139531.536206168
3,1,1040050,2098388.6769935684
3,1,1060050,2058798.3052752085
3,1,1080050,2020674.1757391752
3,1,1100050,1983936.3151739237
3,1,1120050,1948510.462485671
3,1,1140050,1914327.5676568449
3,1,1160050,1881323.3425344187
3,1,1180050,1849437.8573002287
3,1,1200050,1818615.177290177
3,1,1220050,1788803.0355371677
3,1,1240050,1759952.5370002715
3,1,1260050,1732017.8909622552
3,1,1280050,1704956.168514549
3,1,1300050,1678727.0824252698
3,1,1320050,1653292.787021028
3,1,1340050,1628617.695986841
3,1,1360050,1604668.3162435766
3,1,1380050,1581413.0962697456
3,1,1400050,1558822.2874234093
3,1,1420050,1536867.8169832611
3,1,1440050,1515523.171769761
3,1,1460050,1494763.291330452
3,1,1480050,1474564.469786229
3,1,1500050,1454904.2655292442
3,1,1520050,1435761.4180500733
3,1,1540050,1417115.7712458135
3,1,1560050,1398948.2026262574
3,1,1580050,1381240.5578981843
3,1,1600050,1363975.5904546918
3,1,1620050,1347136.905346837
3,1,1640050,1330708.907354688
3,1,1660050,1314676.7528129364
3,1,1680050,1299026.3048761338
3,1,1700050,1283744.0919427082
3,1,1720050,1268817.2689788535
3,1,1740050,1254233.5815103895
3,1,1760050,1239981.332068449
3,1,1780050,1226049.3488986732
3,1,1800050,1212426.9567551392
3,1,1820050,1199103.9496206976
3,1,1840050,1186070.5652058527
3,1,1860050,1173317.4610935508
3,1,1880050,1160835.6924055584
3,1,1900050,1148616.6908802881
3,1,1920050,1136652.2452577204
3,1,1940050,1124934.482877859
3,1,1960050,1113455.852405342
3,1,1980050,1102209.1076018566
3,2,50,1.3803397995152784E10
3,2,20050,3.442243890690466E7
3,2,40050,1.72327066188132E7
3,2,60050,1.1493253956426792E7
3,2,80050,8621735.16656396
3,2,100050,6898249.875896841
3,2,120050,5749020.408858341
3,2,140050,4928024.991670882
3,2,160050,4312214.308550524
3,2,180050,3833212.4414517977
3,2,200050,3449987.003665876
3,2,220050,3136423.08604124
3,2,240050,2875108.935985777
3,2,260050,2653989.2331604147
3,2,280050,2464452.419508667
3,2,300050,2300182.969783026
3,2,320050,2156443.9933867115
3,2,340050,2029612.9983336846
3,2,360050,1916872.3790679306
3,2,380050,1815997.6321100483
3,2,400050,1725209.0990711416
3,2,420050,1643066.063762415
3,2,440050,1568389.7286295379
3,2,460050,1500206.282107229
3,2,480050,1437704.1976532328
3,2,500050,1380201.7799888721
3,2,520050,1327122.1999489658
3,2,540050,1277974.0766288235
3,2,560050,1232336.2201293674
3,2,580050,1189845.530701545
3,2,600050,1150187.3178625575
3,2,620050,1113087.4930787315
3,2,640050,1078306.2262064866
3,2,660050,1045632.7552207023
3,2,680050,1014881.1118056583
3,2,700050,985886.579649223
3,2,720050,958502.742980993
3,2,740050,932599.0136929007
3,2,760050,908058.5488894117
3,2,780050,884776.4887935624
3,2,800050,862658.4589505979
3,2,820050,841619.2916083559
3,2,840050,821581.929746375
3,2,860050,802476.484022357
3,2,880050,784239.4183096937
3,2,900050,766812.8438235949
3,2,920050,750143.9053132393
3,2,940050,734184.2456076181
3,2,960050,718889.5370901609
3,2,980050,704219.0705406872
3,2,1000050,690135.3933137868
3,2,1020050,676603.9900822861
3,2,1040050,663593.0004167231
3,2,1060050,651072.9683349194
3,2,1080050,639016.6196781929
3,2,1100050,627398.6637729373
3,2,1120050,616195.6163416574
3,2,1140050,605385.6410538348
3,2,1160050,594948.4074681402
3,2,1180050,584864.9634197118
3,2,1200050,575117.6201687243
3,2,1220050,565689.8488450893
3,2,1240050,556566.1869145815
3,2,1260050,547732.1535521878
3,2,1280050,539174.1729490687
3,2,1300050,530879.5046986035
3,2,1320050,522836.1805109215
3,2,1340050,515032.9465941008
3,2,1360050,507459.2111197653
3,2,1380050,500104.9962562536
3,2,1400050,492960.89431337017
3,2,1420050,486018.02759301604
3,2,1440050,479268.0115853155
3,2,1460050,472702.92119000194
3,2,1480050,466315.2596759978
3,2,1500050,460097.9301246287
3,2,1520050,454044.2091269773
3,2,1540050,448147.7225307146
3,2,1560050,442402.42305275
3,2,1580050,436802.5695917518
3,2,1600050,431342.70809252857
3,2,1620050,426017.6538276212
3,2,1640050,420822.47497542656
3,2,1660050,415752.47738529043
3,2,1680050,410803.1904308832
3,2,1700050,405970.35386218806
3,2,1720050,401249.9055745244
3,2,1740050,396637.97022123623
3,2,1760050,392130.84860283765
3,2,1780050,387725.0077713764
3,2,1800050,383417.07179434807
3,2,1820050,379203.81312791025
3,2,1840050,375082.1445523047
3,2,1860050,371049.1116278942
3,2,1880050,367101.88563253265
3,2,1900050,363237.75694506284
3,2,1920050,359454.1288421963
3,2,1940050,355748.5116793049
3,2,1960050,352118.51742736157
3,2,1980050,348561.8545407689
3,3,50,3.84523230046498E10
3,3,20050,9.589107981208862E7
3,3,40050,4.800539700954966E7
3,3,60050,3.201692173576013E7
3,3,80050,2.401769082114162E7
3,3,100050,1.9216553225712214E7
3,3,120050,1.601512828181912E7
3,3,140050,1.3728069619653067E7
3,3,160050,1.2012597002389576E7
3,3,180050,1.0678234658330614E7
3,3,200050,9610678.081641976
3,3,220050,8737178.596829869
3,3,240050,8009232.035960775
3,3,260050,7393255.720947819
3,3,280050,6865260.3114885725
3,3,300050,6407652.558681473
3,3,320050,6007236.838720285
3,3,340050,5653921.92393009
3,3,360050,5339858.770261022
3,3,380050,5058850.5465921685
3,3,400050,4805939.633126859
3,3,420050,4577112.606195571
3,3,440050,4369085.672610855
3,3,460050,4179146.071584587
3,3,480050,4005033.122034028
3,3,500050,3844847.8156835088
3,3,520050,3696983.2712863656
3,3,540050,3560070.6420376617
3,3,560050,3432936.6132173655
3,3,580050,3314569.6926684864
3,3,600050,3204093.242617175
3,3,620050,3100743.7307192506
3,3,640050,3003853.0587179665
3,3,660050,2912834.103829256
3,3,680050,2827168.811458547
3,3,700050,2746398.329022868
3,3,720050,2670114.784018513
3,3,740050,2597954.3952874225
3,3,760050,2529591.671906356
3,3,780050,2464734.5044964417
3,3,800050,2403119.992791005
3,3,820050,2344510.8837662204
3,3,840050,2288692.5185791194
3,3,860050,2235470.2054909053
3,3,880050,2184666.951005733
3,3,900050,2136121.49350867
3,3,920050,2089686.5933725454
3,3,940050,2045227.5413355518
3,3,960050,2002620.8533227046
3,3,980050,1961753.1250777317
3,3,1000050,1922520.0242312565
3,3,1020050,1884825.4009434392
3,3,1040050,1848580.5011608729
3,3,1060050,1813703.268933014
3,3,1080050,1780117.7262464238
3,3,1100050,1747753.4205104061
3,3,1120050,1716544.9312373437
3,3,1140050,1686431.428650028
3,3,1160050,1657356.2779469173
3,3,1180050,1629266.6838120623
3,3,1200050,1602113.370469973
3,3,1220050,1575850.293211322
3,3,1240050,1550434.3778335112
3,3,1260050,1525825.2848953598
3,3,1280050,1501985.1960723666
3,3,1300050,1478878.6202319171
3,3,1320050,1456472.2171375265
3,3,1340050,1434734.6369407412
3,3,1360050,1413636.373833673
3,3,1380050,1393149.6324281793
3,3,1400050,1373248.2055872171
3,3,1420050,1353907.362580476
3,3,1440050,1335103.746559089
3,3,1460050,1316815.2804578051
3,3,1480050,1299021.0805259515
3,3,1500050,1281701.3767756855
3,3,1520050,1264837.4397108357
3,3,1540050,1248411.5127641745
3,3,1560050,1232406.7499326463
3,3,1580050,1216807.158148457
3,3,1600050,1201597.5439720794
3,3,1620050,1186763.4642340874
3,3,1640050,1172291.1802886915
3,3,1660050,1158167.6155733098
3,3,1680050,1144380.3162003795
3,3,1700050,1130917.414330437
3,3,1720050,1117767.5941004136
3,3,1740050,1104920.059901966
3,3,1760050,1092364.5068222517
3,3,1780050,1080091.0930774454
3,3,1800050,1068090.4142843091
3,3,1820050,1056353.4794277004
3,3,1840050,1044871.6883956742
3,3,1860050,1033636.8109633803
3,3,1880050,1022640.9671192084
3,3,1900050,1011876.6086326168
3,3,1920050,1001336.5017746957
3,3,1940050,991013.7111066717
3,3,1960050,980901.5842618656
3,3,1980050,970993.7376493148
4,1,50,4.364858287014245E10
4,1,20050,1.0884933384074825E8
4,1,40050,5.449261282165159E7
4,1,60050,3.6343532781135395E7
4,1,80050,2.726332471589137E7
4,1,100050,2.1813384742699277E7
4,1,120050,1.8179334806389984E7
4,1,140050,1.5583214162849572E7
4,1,160050,1.3635920921631066E7
4,1,180050,1.2121239341888882E7
4,1,200050,1.0909418362944987E7
4,1,220050,9917878.407212703
4,1,240050,9091560.689469598
4,1,260050,8392344.331886824
4,1,280050,7792998.191419935
4,1,300050,7273551.553098083
4,1,320050,6819025.600710148
4,1,340050,6417965.427163593
4,1,360050,6061461.306782803
4,1,380050,5742478.998834837
4,1,400050,5455390.934900775
4,1,420050,5195641.336762781
4,1,440050,4959502.655396196
4,1,460050,4743895.540717514
4,1,480050,4546253.814200941
4,1,500050,4364421.844829912
4,1,520050,4196575.605243831
4,1,540050,4041161.2693401836
4,1,560050,3896846.9663551003
4,1,580050,3762484.516002195
4,1,600050,3637078.815943711
4,1,620050,3519763.1537893363
4,1,640050,3409779.147733864
4,1,660050,3306460.334076424
4,1,680050,3209218.6508448725
4,1,700050,3117533.2383502577
4,1,720050,3030941.1061830586
4,1,740050,2949029.313569485
4,1,760050,2871428.384326148
4,1,780050,2797806.734833793
4,1,800050,2727865.937762717
4,1,820050,2661336.6788697564
4,1,840050,2597975.2913601757
4,1,860050,2537560.77380056
4,1,880050,2479892.214654902
4,1,900050,2424786.560199093
4,1,920050,2372076.6735579846
4,1,940050,2321609.6415158566
4,1,960050,2273245.2929609073
4,1,980050,2226854.8987368667
4,1,1000050,2182320.027505568
4,1,1020050,2139531.536206164
4,1,1040050,2098388.6769935684
4,1,1060050,2058798.3052752095
4,1,1080050,2020674.1757391752
4,1,1100050,1983936.31517391
4,1,1120050,1948510.4624856694
4,1,1140050,1914327.5676568449
4,1,1160050,1881323.342534421
4,1,1180050,1849437.8573002287
4,1,1200050,1818615.1772901728
4,1,1220050,1788803.0355371675
4,1,1240050,1759952.5370002715
4,1,1260050,1732017.8909622552
4,1,1280050,1704956.168514547
4,1,1300050,1678727.0824252698
4,1,1320050,1653292.787021028
4,1,1340050,1628617.695986841
4,1,1360050,1604668.3162435766
4,1,1380050,1581413.0962697426
4,1,1400050,1558822.2874234072
4,1,1420050,1536867.8169832611
4,1,1440050,1515523.1717697585
4,1,1460050,1494763.291330452
4,1,1480050,1474564.4697862281
4,1,1500050,1454904.2655292442
4,1,1520050,1435761.4180500743
4,1,1540050,1417115.771245806
4,1,1560050,1398948.2026262593
4,1,1580050,1381240.5578981843
4,1,1600050,1363975.5904546934
4,1,1620050,1347136.905346837
4,1,1640050,1330708.907354688
4,1,1660050,1314676.7528129364
4,1,1680050,1299026.3048761408
4,1,1700050,1283744.0919427082
4,1,1720050,1268817.2689788535
4,1,1740050,1254233.5815103778
4,1,1760050,1239981.332068449
4,1,1780050,1226049.3488986732
4,1,1800050,1212426.9567551392
4,1,1820050,1199103.9496206976
4,1,1840050,1186070.5652058527
4,1,1860050,1173317.4610935508
4,1,1880050,1160835.6924055584
4,1,1900050,1148616.6908802881
4,1,1920050,1136652.2452577204
4,1,1940050,1124934.482877859
4,1,1960050,1113455.852405342
4,1,1980050,1102209.1076018573
4,2,50,1.3803397995152784E10
4,2,20050,3.442243890690466E7
4,2,40050,1.72327066188132E7
4,2,60050,1.1493253956426792E7
4,2,80050,8621735.16656396
4,2,100050,6898249.875896841
4,2,120050,5749020.408858341
4,2,140050,4928024.991670882
4,2,160050,4312214.308550524
4,2,180050,3833212.4414517977
4,2,200050,3449987.003665876
4,2,220050,3136423.08604124
4,2,240050,2875108.9359857747
4,2,260050,2653989.2331604147
4,2,280050,2464452.419508667
4,2,300050,2300182.969783026
4,2,320050,2156443.9933867115
4,2,340050,2029612.9983336846
4,2,360050,1916872.3790679306
4,2,380050,1815997.6321100483
4,2,400050,1725209.0990711416
4,2,420050,1643066.063762415
4,2,440050,1568389.7286295379
4,2,460050,1500206.282107229
4,2,480050,1437704.1976532317
4,2,500050,1380201.7799888721
4,2,520050,1327122.1999489658
4,2,540050,1277974.0766288235
4,2,560050,1232336.2201293674
4,2,580050,1189845.5307015448
4,2,600050,1150187.3178625582
4,2,620050,1113087.4930787315
4,2,640050,1078306.2262064866
4,2,660050,1045632.7552207023
4,2,680050,1014881.1118056583
4,2,700050,985886.579649223
4,2,720050,958502.742980993
4,2,740050,932599.0136929015
4,2,760050,908058.5488894117
4,2,780050,884776.4887935624
4,2,800050,862658.4589505979
4,2,820050,841619.2916083559
4,2,840050,821581.929746375
4,2,860050,802476.484022357
4,2,880050,784239.4183096937
4,2,900050,766812.8438235949
4,2,920050,750143.9053132393
4,2,940050,734184.2456076181
4,2,960050,718889.5370901609
4,2,980050,704219.0705406872
4,2,1000050,690135.3933137868
4,2,1020050,676603.9900822861
4,2,1040050,663593.0004167231
4,2,1060050,651072.9683349194
4,2,1080050,639016.6196781925
4,2,1100050,627398.6637729373
4,2,1120050,616195.6163416574
4,2,1140050,605385.6410538348
4,2,1160050,594948.4074681402
4,2,1180050,584864.963419711
4,2,1200050,575117.6201687261
4,2,1220050,565689.8488450893
4,2,1240050,556566.1869145802
4,2,1260050,547732.1535521878
4,2,1280050,539174.1729490687
4,2,1300050,530879.5046986035
4,2,1320050,522836.1805109215
4,2,1340050,515032.9465941008
4,2,1360050,507459.2111197653
4,2,1380050,500104.9962562536
4,2,1400050,492960.89431337017
4,2,1420050,486018.02759301604
4,2,1440050,479268.0115853155
4,2,1460050,472702.92119000194
4,2,1480050,466315.2596759978
4,2,1500050,460097.9301246287
4,2,1520050,454044.2091269773
4,2,1540050,448147.7225307146
4,2,1560050,442402.42305275
4,2,1580050,436802.5695917518
4,2,1600050,431342.70809252857
4,2,1620050,426017.6538276212
4,2,1640050,420822.47497542656
4,2,1660050,415752.47738529043
4,2,1680050,410803.1904308832
4,2,1700050,405970.35386218806
4,2,1720050,401249.9055745244
4,2,1740050,396637.97022123623
4,2,1760050,392130.84860283765
4,2,1780050,387725.0077713764
4,2,1800050,383417.07179434807
4,2,1820050,379203.81312791025
4,2,1840050,375082.1445523047
4,2,1860050,371049.1116278921
4,2,1880050,367101.8856325327
4,2,1900050,363237.75694506284
4,2,1920050,359454.1288421963
4,2,1940050,355748.5116793046
4,2,1960050,352118.51742736157
4,2,1980050,348561.8545407689
4,3,50,3.84523230046498E10
4,3,20050,9.589107981208862E7
4,3,40050,4.800539700954967E7
4,3,60050,3.201692173576013E7
4,3,80050,2.4017690821141604E7
4,3,100050,1.921655322571224E7
4,3,120050,1.6015128281819105E7
4,3,140050,1.3728069619653067E7
4,3,160050,1.2012597002389576E7
4,3,180050,1.0678234658330614E7
4,3,200050,9610678.081641976
4,3,220050,8737178.596829869
4,3,240050,8009232.035960775
4,3,260050,7393255.720947819
4,3,280050,6865260.3114885725
4,3,300050,6407652.558681473
4,3,320050,6007236.838720285
4,3,340050,5653921.92393008
4,3,360050,5339858.770261022
4,3,380050,5058850.546592188
4,3,400050,4805939.633126859
4,3,420050,4577112.606195571
4,3,440050,4369085.672610855
4,3,460050,4179146.071584587
4,3,480050,4005033.122034028
4,3,500050,3844847.8156835088
4,3,520050,3696983.2712863656
4,3,540050,3560070.6420376617
4,3,560050,3432936.6132173776
4,3,580050,3314569.692668496
4,3,600050,3204093.242617171
4,3,620050,3100743.7307192506
4,3,640050,3003853.058717972
4,3,660050,2912834.103829255
4,3,680050,2827168.811458547
4,3,700050,2746398.329022868
4,3,720050,2670114.7840185123
4,3,740050,2597954.3952874197
4,3,760050,2529591.67190637
4,3,780050,2464734.5044964417
4,3,800050,2403119.992791005
4,3,820050,2344510.8837662204
4,3,840050,2288692.5185791194
4,3,860050,2235470.2054909053
4,3,880050,2184666.9510057317
4,3,900050,2136121.49350867
4,3,920050,2089686.5933725454
4,3,940050,2045227.5413355518
4,3,960050,2002620.8533227046
4,3,980050,1961753.1250777317
4,3,1000050,1922520.0242312565
4,3,1020050,1884825.4009434392
4,3,1040050,1848580.5011608729
4,3,1060050,1813703.268933014
4,3,1080050,1780117.7262464238
4,3,1100050,1747753.4205104061
4,3,1120050,1716544.9312373437
4,3,1140050,1686431.428650028
4,3,1160050,1657356.2779469173
4,3,1180050,1629266.6838120618
4,3,1200050,1602113.370469973
4,3,1220050,1575850.293211322
4,3,1240050,1550434.3778335112
4,3,1260050,1525825.284895363
4,3,1280050,1501985.1960723666
4,3,1300050,1478878.6202319171
4,3,1320050,1456472.217137525
4,3,1340050,1434734.6369407412
4,3,1360050,1413636.373833673
4,3,1380050,1393149.6324281793
4,3,1400050,1373248.205587218
4,3,1420050,1353907.362580476
4,3,1440050,1335103.746559089
4,3,1460050,1316815.2804578051
4,3,1480050,1299021.0805259515
4,3,1500050,1281701.3767756855
4,3,1520050,1264837.439710838
4,3,1540050,1248411.5127641745
4,3,1560050,1232406.7499326463
4,3,1580050,1216807.158148457
4,3,1600050,1201597.5439720794
4,3,1620050,1186763.4642340874
4,3,1640050,1172291.1802886894
4,3,1660050,1158167.6155733098
4,3,1680050,1144380.3162003795
4,3,1700050,1130917.414330437
4,3,1720050,1117767.5941004136
4,3,1740050,1104920.0599019683
4,3,1760050,1092364.5068222517
4,3,1780050,1080091.0930774454
4,3,1800050,1068090.4142843091
4,3,1820050,1056353.4794277004
4,3,1840050,1044871.6883956742
4,3,1860050,1033636.8109633803
4,3,1880050,1022640.9671192084
4,3,1900050,1011876.6086326155
4,3,1920050,1001336.5017746957
4,3,1940050,991013.7111066717
4,3,1960050,980901.5842618656
4,3,1980050,970993.7376493148
