1,3,3,50,6.4833990185663134E7
1,3,3,100,3.2416995092831574E7
1,3,3,150,2.1611330061887722E7
1,3,3,200,1.6208497546415787E7
1,3,3,250,1.2966798037132634E7
1,3,3,300,1.0805665030943861E7
1,3,3,350,9261998.597951874
1,3,3,400,8104248.773207892
1,3,3,450,7203776.687295905
1,3,3,500,6483399.018566317
1,3,3,550,5893999.107787559
1,3,3,600,5402832.515471931
1,3,3,650,4987230.01428178
1,3,3,700,4630999.298975937
1,3,3,750,4322266.012377544
1,3,3,800,4052124.386603947
1,3,3,850,3813764.1285684225
1,3,3,900,3601888.3436479527
1,3,3,950,3412315.272929639
1,3,3,1000,3241699.5092831585
1,3,3,1050,3087332.8659839607
1,3,3,1100,2946999.5538937794
1,3,3,1150,2818869.1385070942
1,3,3,1200,2701416.2577359653
1,3,3,1250,2593359.6074265256
1,3,3,1300,2493615.00714089
1,3,3,1350,2401258.895765301
1,3,3,1400,2315499.6494879685
1,3,3,1450,2235654.8339883857
1,3,3,1500,2161133.006188772
1,3,3,1550,2091419.0382471983
1,3,3,1600,2026062.1933019734
1,3,3,1650,1964666.3692625198
1,3,3,1700,1906882.0642842113
1,3,3,1750,1852399.7195903757
1,3,3,1800,1800944.1718239763
1,3,3,1850,1752270.005017924
1,3,3,1900,1706157.6364648198
1,3,3,1950,1662410.0047605936
1,3,3,2000,1620849.7546415792
1,3,3,2050,1581316.8337966625
1,3,3,2100,1543666.4329919803
1,3,3,2150,1507767.2136200736
1,3,3,2200,1473499.7769468897
1,3,3,2250,1440755.337459181
1,3,3,2300,1409434.5692535471
1,3,3,2350,1379446.5996949608
1,3,3,2400,1350708.1288679827
1,3,3,2450,1323142.6568502681
1,3,3,2500,1296679.8037132628
1,3,3,2550,1271254.709522807
1,3,3,2600,1246807.503570445
1,3,3,2650,1223282.8336917574
1,3,3,2700,1200629.4478826504
1,3,3,2750,1178799.8215575132
1,3,3,2800,1157749.8247439843
1,3,3,2850,1137438.42430988
1,3,3,2900,1117827.4169941929
1,3,3,2950,1098881.1895875114
1,3,3,3000,1080566.503094386
1,3,3,3050,1062852.2981256258
1,3,3,3100,1045709.5191235992
1,3,3,3150,1029110.9553279863
1,3,3,3200,1013031.0966509865
1,3,3,3250,997446.0028563564
1,3,3,3300,982333.1846312599
1,3,3,3350,967671.4953084047
1,3,3,3400,953441.0321421056
1,3,3,3450,939623.0461690311
1,3,3,3500,926199.8597951878
1,3,3,3550,913154.791347368
1,3,3,3600,900472.0859119882
1,3,3,3650,888136.8518583995
1,3,3,3700,876135.0025089622
1,3,3,3750,864453.2024755087
1,3,3,3800,853078.8182324099
1,3,3,3850,841999.8725410796
1,3,3,3900,831205.0023802968
1,3,3,3950,820683.4200716858
1,3,3,4000,810424.8773207896
1,3,3,4050,800419.6319217676
1,3,3,4100,790658.4168983313
1,3,3,4150,781132.4118754597
1,3,3,4200,771833.2164959902
1,3,3,4250,762752.8257136841
1,3,3,4300,753883.6068100368
1,3,3,4350,745218.2779961284
1,3,3,4400,736749.8884734449
1,3,3,4450,728471.7998389119
1,3,3,4500,720377.6687295905
1,3,3,4550,712461.4306116828
1,3,3,4600,704717.2846267736
1,3,3,4650,697139.679415733
1,3,3,4700,689723.2998474805
1,3,3,4750,682463.0545859282
1,3,3,4800,675354.0644339913
1,3,3,4850,668391.6513985894
1,3,3,4900,661571.3284251342
1,3,3,4950,654888.7897541733
1,3,3,5000,648339.9018566314
1,3,3,5050,641920.6949075558
1,3,3,5100,635627.3547614035
1,3,3,5150,629456.215394788
1,3,3,5200,623403.7517852226
1,3,3,5250,617466.573196792
1,3,3,5300,611641.4168458788
1,3,3,5350,605925.1419220857
1,3,3,5400,600314.7239413252
1,3,3,5450,594807.2494097538
1,3,3,5500,589399.9107787565
1,3,3,5550,584090.001672641
1,3,3,5600,578874.9123719921
1,3,3,5650,573752.1255368422
1,3,3,5700,568719.21215494
1,3,3,5750,563773.827701419
1,3,3,5800,558913.7084970964
1,3,3,5850,554136.6682535311
1,3,3,5900,549440.5947937557
1,3,3,5950,544823.4469383459
1,3,3,6000,540283.251547193
1,3,3,6050,535818.1007079603
1,3,3,6100,531426.1490628129
1,3,3,6150,527105.6112655546
1,3,3,6200,522854.7595617996
1,3,3,6250,518671.9214853053
1,3,3,6300,514555.47766399314
1,3,3,6350,510503.859729631
1,3,3,6400,506515.54832549323
1,3,3,6450,502589.071206691
1,3,3,6500,498723.0014281782
1,3,3,6550,494915.95561574923
1,3,3,6600,491166.59231562994
1,3,3,6650,487473.61041851994
1,3,3,6700,483835.74765420216
1,3,3,6750,480251.7791530606
1,3,3,6800,476720.5160710528
1,3,3,6850,473240.8042749133
1,3,3,6900,469811.52308451553
1,3,3,6950,466431.58406951884
1,3,3,7000,463099.929897594
1,3,3,7050,459815.5332316535
1,3,3,7100,456577.39567368414
1,3,3,7150,453384.54675288923
1,3,3,7200,450236.0429559941
1,3,3,7250,447130.96679767687
1,3,3,7300,444068.42592919973
1,3,3,7350,441047.5522834231
1,3,3,7400,438067.501254481
1,3,3,7450,435127.450910491
1,3,3,7500,432226.60123775434
1,3,3,7550,429364.173414988
1,3,3,7600,426539.4091162049
1,3,3,7650,423751.5698409357
1,3,3,7700,420999.9362705398
1,3,3,7750,418283.80764943955
1,3,3,7800,415602.5011901484
1,3,3,7850,412955.3515010391
1,3,3,7900,410341.7100358429
1,3,3,7950,407760.94456391945
1,3,3,8000,405212.4386603947
1,3,3,8050,402695.5912152991
1,3,3,8100,400209.8159608838
1,3,3,8150,397754.54101633833
1,3,3,8200,395329.2084491656
1,3,3,8250,392933.2738525039
1,3,3,8300,390566.20593772986
1,3,3,8350,388227.48614169564
1,3,3,8400,385916.6082479951
1,3,3,8450,383633.07802167546
1,3,3,8500,381376.4128568419
1,3,3,8550,379146.1414366265
1,3,3,8600,376941.8034050184
1,3,3,8650,374762.949050076
1,3,3,8700,372609.1389980642
1,3,3,8750,370479.9439180752
1,3,3,8800,368374.9442367224
1,3,3,8850,366293.72986250336
1,3,3,8900,364235.89991945593
1,3,3,8950,362201.0624897383
1,3,3,9000,360188.83436479524
1,3,3,9050,358198.8408047687
1,3,3,9100,356230.7153058414
1,3,3,9150,354284.0993752085
1,3,3,9200,352358.6423133868
1,3,3,9250,350454.00100358477
1,3,3,9300,348569.8397078665
1,3,3,9350,346705.82986985653
1,3,3,9400,344861.6499237402
1,3,3,9450,343036.98510932893
1,3,3,9500,341231.5272929641
1,3,3,9550,339444.97479404794
1,3,3,9600,337677.03221699566
1,3,3,9650,335927.4102884101
1,3,3,9700,334195.8256992947
1,3,3,9750,332482.0009521188
1,3,3,9800,330785.6642125671
1,3,3,9850,329106.5491658027
1,3,3,9900,327444.3948770866
1,3,3,9950,325798.945656599
1,3,3,10000,324169.9509283157
1,3,3,10050,322557.1651028018
1,3,3,10100,320960.3474537779
1,3,3,10150,319379.2619983407
1,3,3,10200,317813.67738070176
1,3,3,10250,316263.36675933254
1,3,3,10300,314728.10769739404
1,3,3,10350,313207.68205634376
1,3,3,10400,311701.8758926113
1,3,3,10450,310210.47935724
1,3,3,10500,308733.286598396
1,3,3,10550,307270.0956666499
1,3,3,10600,305820.70842293935
1,3,3,10650,304384.9304491229
1,3,3,10700,302962.57096104283
1,3,3,10750,301553.4427240148
1,3,3,10800,300157.3619706626
1,3,3,10850,298774.14832102816
1,3,3,10900,297403.6247048769
1,3,3,10950,296045.61728613335
1,3,3,11000,294699.95538937824
1,3,3,11050,293366.47142833995
1,3,3,11100,292045.0008363205
1,3,3,11150,290735.3819984896
1,3,3,11200,289437.456185996
1,3,3,11250,288151.0674918362
1,3,3,11300,286876.0627684212
1,3,3,11350,285612.291566798
1,3,3,11400,284359.60607746994
1,3,3,11450,283117.86107276473
1,3,3,11500,281886.91385070945
1,3,3,11550,280666.62418036
1,3,3,11600,279456.8542485482
1,3,3,11650,278257.46860799653
1,3,3,11700,277068.3341267656
1,3,3,11750,275889.3199389922
1,3,3,11800,274720.29739687784
1,3,3,11850,273561.1400238953
1,3,3,11900,272411.72346917295
1,3,3,11950,271271.92546302587
1,3,3,12000,270141.6257735966
1,3,3,12050,269020.70616457745
1,3,3,12100,267909.0503539801
1,3,3,12150,266806.5439739225
1,3,3,12200,265713.07453140646
1,3,3,12250,264628.5313700537
1,3,3,12300,263552.8056327773
1,3,3,12350,262485.7902253569
1,3,3,12400,261427.3797808998
1,3,3,12450,260377.47062515325
1,3,3,12500,259335.96074265265
1,3,3,12550,258302.7497436778
1,3,3,12600,257277.73883199657
1,3,3,12650,256260.83077337217
1,3,3,12700,255251.9298648155
1,3,3,12750,254250.94190456136
1,3,3,12800,253257.77416274662
1,3,3,12850,252272.33535277483
1,3,3,12900,251294.5356033455
1,3,3,12950,250324.28643113188
1,3,3,13000,249361.5007140891
1,3,3,13050,248406.0926653762
1,3,3,13100,247457.97780787462
1,3,3,13150,246517.07294928964
1,3,3,13200,245583.29615781497
1,3,3,13250,244656.5667383516
1,3,3,13300,243736.80520925997
1,3,3,13350,242823.93327963722
1,3,3,13400,241917.87382710114
1,3,3,13450,241018.55087607124
1,3,3,13500,240125.8895765303
1,3,3,13550,239239.8161832589
1,3,3,13600,238360.2580355264
1,3,3,13650,237487.14353722776
1,3,3,13700,236620.40213745664
1,3,3,13750,235759.96431150255
1,3,3,13800,234905.76154225777
1,3,3,13850,234057.7263020331
1,3,3,13900,233215.79203475942
1,3,3,13950,232379.8931385777
1,3,3,14000,231549.96494879696
1,3,3,14050,230725.94372122124
1,3,3,14100,229907.76661582675
1,3,3,14150,229095.37168078858
1,3,3,14200,228288.69783684207
1,3,3,14250,227487.684861976
1,3,3,14300,226692.27337644456
1,3,3,14350,225902.40482809473
1,3,3,14400,225118.02147799704
1,3,3,14450,224339.0663863779
1,3,3,14500,223565.48339883843
1,3,3,14550,222797.21713286312
1,3,3,14600,222034.21296459986
1,3,3,14650,221276.41701591527
1,3,3,14700,220523.7761417115
1,3,3,14750,219776.2379175022
1,3,3,14800,219033.7506272405
1,3,3,14850,218296.26325139112
1,3,3,14900,217563.7254552455
1,3,3,14950,216836.08757746872
1,3,3,15000,216113.30061887717
1,3,3,15050,215395.31623143906
1,3,3,15100,214682.086707494
1,3,3,15150,213973.5649691853
1,3,3,15200,213269.70455810247
1,3,3,15250,212570.4596251251
1,3,3,15300,211875.78492046785
1,3,3,15350,211185.6357839191
1,3,3,15400,210499.9681352699
1,3,3,15450,209818.73846492928
1,3,3,15500,209141.90382471978
1,3,3,15550,208469.42181885257
1,3,3,15600,207801.25059507418
1,3,3,15650,207137.34883598454
1,3,3,15700,206477.67575051956
1,3,3,15750,205822.1910655973
1,3,3,15800,205170.85501792145
1,3,3,15850,204523.62834594055
1,3,3,15900,203880.47228195972
1,3,3,15950,203241.34854439853
1,3,3,16000,202606.21933019735
1,3,3,16050,201975.04730736185
1,3,3,16100,201347.79560764955
1,3,3,16150,200724.42781939055
1,3,3,16200,200104.90798044193
1,3,3,16250,199489.20057127124
1,3,3,16300,198877.27050816917
1,3,3,16350,198269.08313658458
1,3,3,16400,197664.6042245828
1,3,3,16450,197063.79995642294
1,3,3,16500,196466.63692625196
1,3,3,16550,195873.08213191284
1,3,3,16600,195283.10296886493
1,3,3,16650,194696.66722421366
1,3,3,16700,194113.74307084782
1,3,3,16750,193534.299061681
1,3,3,16800,192958.30412399754
1,3,3,16850,192385.72755389666
1,3,3,16900,191816.53901083773
1,3,3,16950,191250.70851228075
1,3,3,17000,190688.20642842096
1,3,3,17050,190129.0034770181
1,3,3,17100,189573.07071831325
1,3,3,17150,189020.37955003834
1,3,3,17200,188470.9017025092
1,3,3,17250,187924.60923380632
1,3,3,17300,187381.474525038
1,3,3,17350,186841.47027568638
1,3,3,17400,186304.56949903208
1,3,3,17450,185770.74551765952
1,3,3,17500,185239.9719590376
1,3,3,17550,184712.2227511771
1,3,3,17600,184187.4721183612
1,3,3,17650,183665.69457694946
1,3,3,17700,183146.86493125168
1,3,3,17750,182630.95826947372
1,3,3,17800,182117.94995972796
1,3,3,17850,181607.81564611525
1,3,3,17900,181100.53124486914
1,3,3,17950,180596.0729405659
1,3,3,18000,180094.41718239762
1,3,3,18050,179595.5406805073
1,3,3,18100,179099.42040238433
1,3,3,18150,178606.03356932
1,3,3,18200,178115.3576529207
1,3,3,18250,177627.37037167992
1,3,3,18300,177142.04968760425
1,3,3,18350,176659.37380289682
1,3,3,18400,176179.3211566934
1,3,3,18450,175701.8704218514
1,3,3,18500,175227.00050179238
1,3,3,18550,174754.69052739398
1,3,3,18600,174284.91985393324
1,3,3,18650,173817.66805807812
1,3,3,18700,173352.91493492827
1,3,3,18750,172890.64049510178
1,3,3,18800,172430.82496187012
1,3,3,18850,171973.44876833726
1,3,3,18900,171518.49255466447
1,3,3,18950,171065.93716533805
1,3,3,19000,170615.76364648205
1,3,3,19050,170167.9532432104
1,3,3,19100,169722.48739702397
1,3,3,19150,169279.34774324586
1,3,3,19200,168838.51610849783
1,3,3,19250,168399.97450821596
1,3,3,19300,167963.70514420504
1,3,3,19350,167529.69040223045
1,3,3,19400,167097.91284964734
1,3,3,19450,166668.35523306724
1,3,3,19500,166241.00047605936
1,3,3,19550,165815.8316768879
1,3,3,19600,165392.83210628355
1,3,3,19650,164971.9852052497
1,3,3,19700,164553.2745829014
1,3,3,19750,164136.6840143371
1,3,3,19800,163722.19743854328
1,3,3,19850,163309.79895633043
1,3,3,19900,162899.4728282995
1,3,3,19950,162491.20347284008
1,3,3,20000,162084.97546415785
1,3,3,20050,161680.77353033208
1,3,3,20100,161278.5825514009
1,3,3,20150,160878.38755747676
1,3,3,20200,160480.17372688896
1,3,3,20250,160083.92638435352
1,3,3,20300,159689.63099917033
1,3,3,20350,159297.27318344748
1,3,3,20400,158906.83869035088
1,3,3,20450,158518.31341237933
1,3,3,20500,158131.68337966627
1,3,3,20550,157746.93475830456
1,3,3,20600,157364.053848697
1,3,3,20650,156983.0270839302
1,3,3,20700,156603.84102817188
1,3,3,20750,156226.48237509202
1,3,3,20800,155850.93794630564
1,3,3,20850,155477.19468983976
1,3,3,20900,155105.23967862
1,3,3,20950,154735.06010898124
1,3,3,21000,154366.643299198
1,3,3,21050,153999.97668803605
1,3,3,21100,153635.04783332496
1,3,3,21150,153271.84441055113
1,3,3,21200,152910.35421146968
1,3,3,21250,152550.56514273683
1,3,3,21300,152192.46522456146
1,3,3,21350,151836.04258937505
1,3,3,21400,151481.28548052142
1,3,3,21450,151128.18225096315
1,3,3,21500,150776.7213620074
1,3,3,21550,150426.89138204913
1,3,3,21600,150078.6809853313
1,3,3,21650,149732.07895072317
1,3,3,21700,149387.07416051408
1,3,3,21750,149043.6555992256
1,3,3,21800,148701.81235243846
1,3,3,21850,148361.5336056365
1,3,3,21900,148022.80864306664
1,3,3,21950,147685.62684661313
1,3,3,22000,147349.97769468915
1,3,3,22050,147015.85076114096
1,3,3,22100,146683.23571416998
1,3,3,22150,146352.12231526666
1,3,3,22200,146022.50041816026
1,3,3,22250,145694.35996778234
1,3,3,22300,145367.6909992448
1,3,3,22350,145042.48363683038
1,3,3,22400,144718.72809299803
1,3,3,22450,144396.41466740135
1,3,3,22500,144075.53374591813
1,3,3,22550,143756.0757996966
1,3,3,22600,143438.03138421057
1,3,3,22650,143121.39113832923
1,3,3,22700,142806.14578339903
1,3,3,22750,142492.28612233663
1,3,3,22800,142179.80303873497
1,3,3,22850,141868.68749598067
1,3,3,22900,141558.93053638237
1,3,3,22950,141250.52328031187
1,3,3,23000,140943.45692535475
1,3,3,23050,140637.72274547326
1,3,3,23100,140333.31209018
1,3,3,23150,140030.21638372162
1,3,3,23200,139728.4271242741
1,3,3,23250,139427.93588314657
1,3,3,23300,139128.73430399827
1,3,3,23350,138830.8141020625
1,3,3,23400,138534.1670633828
1,3,3,23450,138238.785044058
1,3,3,23500,137944.6599694961
1,3,3,23550,137651.7838336797
1,3,3,23600,137360.14869843892
1,3,3,23650,137069.74669273387
1,3,3,23700,136780.57001194765
1,3,3,23750,136492.61091718555
1,3,3,23800,136205.86173458648
1,3,3,23850,135920.31485463967
1,3,3,23900,135635.96273151293
1,3,3,23950,135352.79788238657
1,3,3,24000,135070.8128867983
1,3,3,24050,134790.00038599412
1,3,3,24100,134510.35308228873
1,3,3,24150,134231.86373843302
1,3,3,24200,133954.52517699008
1,3,3,24250,133678.33027971786
1,3,3,24300,133403.27198696125
1,3,3,24350,133129.34329704952
1,3,3,24400,132856.53726570323
1,3,3,24450,132584.84700544618
1,3,3,24500,132314.26568502685
1,3,3,24550,132044.78652884555
1,3,3,24600,131776.40281638864
1,3,3,24650,131509.10788166965
1,3,3,24700,131242.89511267844
1,3,3,24750,130977.75795083467
1,3,3,24800,130713.6898904499
1,3,3,24850,130450.68447819546
1,3,3,24900,130188.73531257662
1,3,3,24950,129927.83604341315
1,3,3,25000,129667.98037132632
1,3,3,25050,129409.16204723185
1,3,3,25100,129151.3748718389
1,3,3,25150,128894.61269515533
1,3,3,25200,128638.86941599828
1,3,3,25250,128384.13898151119
1,3,3,25300,128130.41538668606
1,3,3,25350,127877.69267389181
1,3,3,25400,127625.96493240775
1,3,3,25450,127375.22629796306
1,3,3,25500,127125.47095228068
1,3,3,25550,126876.69312262844
1,3,3,25600,126628.88708137334
1,3,3,25650,126382.04714554227
1,3,3,25700,126136.16767638741
1,3,3,25750,125891.24307895754
1,3,3,25800,125647.26780167274
1,3,3,25850,125404.23633590552
1,3,3,25900,125162.14321556597
1,3,3,25950,124920.983016692
1,3,3,26000,124680.75035704456
1,3,3,26050,124441.43989570672
1,3,3,26100,124203.04633268804
1,3,3,26150,123965.5644085337
1,3,3,26200,123728.98890393731
1,3,3,26250,123493.31463935829
1,3,3,26300,123258.53647464482
1,3,3,26350,123024.6493086588
1,3,3,26400,122791.64807890748
1,3,3,26450,122559.52776117799
1,3,3,26500,122328.28336917577
1,3,3,26550,122097.90995416796
1,3,3,26600,121868.40260462998
1,3,3,26650,121639.75644589706
1,3,3,26700,121411.96663981861
1,3,3,26750,121185.02838441718
1,3,3,26800,120958.93691355057
1,3,3,26850,120733.68749657941
1,3,3,26900,120509.27543803562
1,3,3,26950,120285.69607729708
1,3,3,27000,120062.94478826514
1,3,3,27050,119841.01697904461
1,3,3,27100,119619.90809162945
1,3,3,27150,119399.6136015896
1,3,3,27200,119180.12901776317
1,3,3,27250,118961.4498819507
1,3,3,27300,118743.57176861388
1,3,3,27350,118526.4902845762
1,3,3,27400,118310.20106872832
1,3,3,27450,118094.6997917362
1,3,3,27500,117879.98215575128
1,3,3,27550,117666.0438941255
1,3,3,27600,117452.88077112888
1,3,3,27650,117240.4885816693
1,3,3,27700,117028.8631510165
1,3,3,27750,116818.00033452825
1,3,3,27800,116607.89601737968
1,3,3,27850,116398.54611429654
1,3,3,27900,116189.94656928882
1,3,3,27950,115982.09335539026
1,3,3,28000,115774.9824743985
1,3,3,28050,115568.6099566188
1,3,3,28100,115362.97186061062
1,3,3,28150,115158.06427293636
1,3,3,28200,114953.88330791338
1,3,3,28250,114750.42510736847
1,3,3,28300,114547.68584039426
1,3,3,28350,114345.66170310962
1,3,3,28400,114144.348918421
1,3,3,28450,113943.74373578763
1,3,3,28500,113743.842430988
1,3,3,28550,113544.64130588989
1,3,3,28600,113346.13668822228
1,3,3,28650,113148.32493134926
1,3,3,28700,112951.20241404737
1,3,3,28750,112754.76554028373
1,3,3,28800,112559.01073899852
1,3,3,28850,112363.93446388755
1,3,3,28900,112169.53319318895
1,3,3,28950,111975.80342947002
1,3,3,29000,111782.74169941922
1,3,3,29050,111590.34455363706
1,3,3,29100,111398.60856643156
1,3,3,29150,111207.53033561425
1,3,3,29200,111017.10648229993
1,3,3,29250,110827.3336507062
1,3,3,29300,110638.20850795764
1,3,3,29350,110449.72774388947
1,3,3,29400,110261.88807085576
1,3,3,29450,110074.68622353677
1,3,3,29500,109888.1189587511
1,3,3,29550,109702.18305526763
1,3,3,29600,109516.87531362027
1,3,3,29650,109332.19255592437
1,3,3,29700,109148.13162569556
1,3,3,29750,108964.68938766913
1,3,3,29800,108781.86272762273
1,3,3,29850,108599.64855219965
1,3,3,29900,108418.04378873436
1,3,3,29950,108237.04538508042
1,3,3,30000,108056.65030943858
1,3,3,30050,107876.8555501883
1,3,3,30100,107697.65811571953
1,3,3,30150,107519.0550342672
1,3,3,30200,107341.04335374698
1,3,3,30250,107163.620141592
1,3,3,30300,106986.78248459265
1,3,3,30350,106810.52748873673
1,3,3,30400,106634.85227905124
1,3,3,30450,106459.75399944688
1,3,3,30500,106285.22981256255
1,3,3,30550,106111.27689961232
1,3,3,30600,105937.89246023394
1,3,3,30650,105765.07371233797
1,3,3,30700,105592.81789195955
1,3,3,30750,105421.12225311087
1,3,3,30800,105249.98406763496
1,3,3,30850,105079.40062506184
1,3,3,30900,104909.36923246464
1,3,3,30950,104739.8872143185
1,3,3,31000,104570.95191235989
1,3,3,31050,104402.5606854479
1,3,3,31100,104234.71090942629
1,3,3,31150,104067.39997698742
1,3,3,31200,103900.6252975371
1,3,3,31250,103734.38429706101
1,3,3,31300,103568.67441799225
1,3,3,31350,103403.49311907997
1,3,3,31400,103238.83787525978
1,3,3,31450,103074.70617752486
1,3,3,31500,102911.09553279866
1,3,3,31550,102748.00346380846
1,3,3,31600,102585.42750896073
1,3,3,31650,102423.36522221667
1,3,3,31700,102261.8141729703
1,3,3,31750,102100.77194592624
1,3,3,31800,101940.23614097986
1,3,3,31850,101780.20437309763
1,3,3,31900,101620.67427219926
1,3,3,31950,101461.64348304091
1,3,3,32000,101303.1096650987
1,3,3,32050,101145.0704924542
1,3,3,32100,100987.52365368092
1,3,3,32150,100830.46685173118
1,3,3,32200,100673.89780382477
1,3,3,32250,100517.81424133823
1,3,3,32300,100362.21390969527
1,3,3,32350,100207.0945682584
1,3,3,32400,100052.45399022097
1,3,3,32450,99898.289962501
1,3,3,32500,99744.60028563562
1,3,3,32550,99591.38277367617
1,3,3,32600,99438.6352540846
1,3,3,32650,99286.3555676312
1,3,3,32700,99134.54156829229
1,3,3,32750,98983.19112314982
1,3,3,32800,98832.3021122914
1,3,3,32850,98681.87242871104
1,3,3,32900,98531.89997821147
1,3,3,32950,98382.38267930673
1,3,3,33000,98233.31846312598
1,3,3,33050,98084.70527331794
1,3,3,33100,97936.54106595642
1,3,3,33150,97788.82380944664
1,3,3,33200,97641.55148443246
1,3,3,33250,97494.72208370402
1,3,3,33300,97348.33361210683
1,3,3,33350,97202.3840864515
1,3,3,33400,97056.87153542391
1,3,3,33450,96911.79399949648
1,3,3,33500,96767.1495308405
1,3,3,33550,96622.93619323871
1,3,3,33600,96479.15206199877
1,3,3,33650,96335.79522386797
1,3,3,33700,96192.86377694833
1,3,3,33750,96050.35583061205
1,3,3,33800,95908.26950541887
1,3,3,33850,95766.60293303271
1,3,3,33900,95625.35425614039
1,3,3,33950,95484.52162836994
1,3,3,34000,95344.10321421048
1,3,3,34050,95204.09718893266
1,3,3,34100,95064.50173850905
1,3,3,34150,94925.31505953605
1,3,3,34200,94786.53535915662
1,3,3,34250,94648.16085498275
1,3,3,34300,94510.18977501917
1,3,3,34350,94372.6203575883
1,3,3,34400,94235.45085125462
1,3,3,34450,94098.67951475056
1,3,3,34500,93962.30461690313
1,3,3,34550,93826.32443656023
1,3,3,34600,93690.737262519
1,3,3,34650,93555.54139345331
1,3,3,34700,93420.73513784319
1,3,3,34750,93286.31681390379
1,3,3,34800,93152.28474951605
1,3,3,34850,93018.63728215668
1,3,3,34900,92885.37275882976
1,3,3,34950,92752.48953599879
1,3,3,35000,92619.98597951881
1,3,3,35050,92487.86046456946
1,3,3,35100,92356.11137558855
1,3,3,35150,92224.73710620646
1,3,3,35200,92093.7360591806
1,3,3,35250,91963.10664633068
1,3,3,35300,91832.84728847472
1,3,3,35350,91702.95641536519
1,3,3,35400,91573.43246562582
1,3,3,35450,91444.27388668987
1,3,3,35500,91315.47913473686
1,3,3,35550,91187.04667463174
1,3,3,35600,91058.97497986398
1,3,3,35650,90931.26253248689
1,3,3,35700,90803.90782305764
1,3,3,35750,90676.90935057784
1,3,3,35800,90550.26562243458
1,3,3,35850,90423.97515434193
1,3,3,35900,90298.03647028295
1,3,3,35950,90172.44810245218
1,3,3,36000,90047.20859119881
1,3,3,36050,89922.3164849697
1,3,3,36100,89797.77034025366
1,3,3,36150,89673.56872152581
1,3,3,36200,89549.71020119217
1,3,3,36250,89426.19335953538
1,3,3,36300,89303.01678466
1,3,3,36350,89180.17907243902
1,3,3,36400,89057.67882646035
1,3,3,36450,88935.51465797416
1,3,3,36500,88813.68518583996
1,3,3,36550,88692.1890364749
1,3,3,36600,88571.02484380212
1,3,3,36650,88450.19124919936
1,3,3,36700,88329.68690144841
1,3,3,36750,88209.51045668458
1,3,3,36800,88089.6605783467
1,3,3,36850,87970.13593712778
1,3,3,36900,87850.93521092569
1,3,3,36950,87732.05708479456
1,3,3,37000,87613.5002508962
1,3,3,37050,87495.2634084523
1,3,3,37100,87377.34526369699
1,3,3,37150,87259.74452982927
1,3,3,37200,87142.45992696659
1,3,3,37250,87025.4901820982
1,3,3,37300,86908.83402903909
1,3,3,37350,86792.49020838442
1,3,3,37400,86676.45746746413
1,3,3,37450,86560.73456029793
1,3,3,37500,86445.32024755089
1,3,3,37550,86330.21329648887
1,3,3,37600,86215.41248093505
1,3,3,37650,86100.91658122597
1,3,3,37700,85986.72438416863
1,3,3,37750,85872.83468299753
1,3,3,37800,85759.24627733225
1,3,3,37850,85645.95797313492
1,3,3,37900,85532.96858266904
1,3,3,37950,85420.27692445739
1,3,3,38000,85307.88182324103
1,3,3,38050,85195.78210993843
1,3,3,38100,85083.9766216052
1,3,3,38150,84972.46420139336
1,3,3,38200,84861.24369851199
1,3,3,38250,84750.3139681871
1,3,3,38300,84639.67387162293
1,3,3,38350,84529.32227596239
1,3,3,38400,84419.25805424892
1,3,3,38450,84309.48008538774
1,3,3,38500,84199.98725410798
1,3,3,38550,84090.77845092498
1,3,3,38600,83981.85257210252
1,3,3,38650,83873.20851961598
1,3,3,38700,83764.84520111523
1,3,3,38750,83656.76152988795
1,3,3,38800,83548.95642482367
1,3,3,38850,83441.42881037731
1,3,3,38900,83334.17761653362
1,3,3,38950,83227.20177877169
1,3,3,39000,83120.5002380297
1,3,3,39050,83014.07194066988
1,3,3,39100,82907.91583844394
1,3,3,39150,82802.03088845873
1,3,3,39200,82696.41605314177
1,3,3,39250,82591.0703002079
1,3,3,39300,82485.99260262484
1,3,3,39350,82381.18193858088
1,3,3,39400,82276.63729145068
1,3,3,39450,82172.3576497632
1,3,3,39500,82068.34200716855
1,3,3,39550,81964.58936240598
1,3,3,39600,81861.09871927164
1,3,3,39650,81757.86908658658
1,3,3,39700,81654.89947816521
1,3,3,39750,81552.18891278387
1,3,3,39800,81449.73641414975
1,3,3,39850,81347.5410108697
1,3,3,39900,81245.60173642004
1,3,3,39950,81143.91762911539
1,3,3,40000,81042.48773207891
1,3,3,40050,80941.31109321247
1,3,3,40100,80840.38676516604
1,3,3,40150,80739.71380530903
1,3,3,40200,80639.29127570042
1,3,3,40250,80539.11824305981
1,3,3,40300,80439.19377873838
1,3,3,40350,80339.51695869042
1,3,3,40400,80240.08686344448
1,3,3,40450,80140.90257807558
1,3,3,40500,80041.96319217676
1,3,3,40550,79943.26779983127
1,3,3,40600,79844.81549958518
1,3,3,40650,79746.60539441962
1,3,3,40700,79648.63659172374
1,3,3,40750,79550.90820326767
1,3,3,40800,79453.41934517544
1,3,3,40850,79356.16913789859
1,3,3,40900,79259.15670618968
1,3,3,40950,79162.38117907588
1,3,3,41000,79065.84168983313
1,3,3,41050,78969.53737595998
1,3,3,41100,78873.46737915228
1,3,3,41150,78777.6308452772
1,3,3,41200,78682.0269243485
1,3,3,41250,78586.65477050075
1,3,3,41300,78491.5135419651
1,3,3,41350,78396.60240104374
1,3,3,41400,78301.92051408594
1,3,3,41450,78207.46705146339
1,3,3,41500,78113.24118754601
1,3,3,41550,78019.24210067769
1,3,3,41600,77925.46897315283
1,3,3,41650,77831.92099119225
1,3,3,41700,77738.59734491986
1,3,3,41750,77645.49722833913
1,3,3,41800,77552.61983931
1,3,3,41850,77459.96437952586
1,3,3,41900,77367.53005449062
1,3,3,41950,77275.31607349605
1,3,3,42000,77183.321649599
1,3,3,42050,77091.54599959948
1,3,3,42100,76999.98834401803
1,3,3,42150,76908.64790707374
1,3,3,42200,76817.52391666248
1,3,3,42250,76726.6156043351
1,3,3,42300,76635.92220527555
1,3,3,42350,76545.44295828005
1,3,3,42400,76455.17710573484
1,3,3,42450,76365.12389359619
1,3,3,42500,76275.28257136841
1,3,3,42550,76185.65239208363
1,3,3,42600,76096.23261228073
1,3,3,42650,76007.02249198487
1,3,3,42700,75918.02129468753
1,3,3,42750,75829.22828732537
1,3,3,42800,75740.64274026071
1,3,3,42850,75652.26392726158
1,3,3,42900,75564.09112548156
1,3,3,42950,75476.12361544021
1,3,3,43000,75388.3606810037
1,3,3,43050,75300.80160936489
1,3,3,43100,75213.44569102455
1,3,3,43150,75126.29221977193
1,3,3,43200,75039.34049266565
1,3,3,43250,74952.5898100152
1,3,3,43300,74866.0394753616
1,3,3,43350,74779.68879545924
1,3,3,43400,74693.53708025704
1,3,3,43450,74607.58364288048
1,3,3,43500,74521.8277996128
1,3,3,43550,74436.26886987734
1,3,3,43600,74350.90617621923
1,3,3,43650,74265.73904428766
1,3,3,43700,74180.76680281827
1,3,3,43750,74095.98878361503
1,3,3,43800,74011.40432153332
1,3,3,43850,73927.01275446198
1,3,3,43900,73842.81342330656
1,3,3,43950,73758.8056719717
1,3,3,44000,73674.98884734456
1,3,3,44050,73591.36229927713
1,3,3,44100,73507.92538057048
1,3,3,44150,73424.67744695715
1,3,3,44200,73341.617857085
1,3,3,44250,73258.74597250072
1,3,3,44300,73176.06115763333
1,3,3,44350,73093.56277977809
1,3,3,44400,73011.25020908013
1,3,3,44450,72929.1228185187
1,3,3,44500,72847.17998389117
1,3,3,44550,72765.421083797
1,3,3,44600,72683.8454996224
1,3,3,44650,72602.45261552428
1,3,3,44700,72521.24181841519
1,3,3,44750,72440.21249794768
1,3,3,44800,72359.364046499
1,3,3,44850,72278.69585915627
1,3,3,44900,72198.2073337007
1,3,3,44950,72117.89787059303
1,3,3,45000,72037.76687295905
1,3,3,45050,71957.81374657404
1,3,3,45100,71878.03789984829
1,3,3,45150,71798.43874381302
1,3,3,45200,71719.01569210527
1,3,3,45250,71639.76816095377
1,3,3,45300,71560.69556916463
1,3,3,45350,71481.79733810708
1,3,3,45400,71403.07289169951
1,3,3,45450,71324.52165639511
1,3,3,45500,71246.14306116832
1,3,3,45550,71167.9365375007
1,3,3,45600,71089.90151936749
1,3,3,45650,71012.03744322358
1,3,3,45700,70934.34374799034
1,3,3,45750,70856.81987504168
1,3,3,45800,70779.46526819118
1,3,3,45850,70702.27937367851
1,3,3,45900,70625.26164015594
1,3,3,45950,70548.4115186759
1,3,3,46000,70471.72846267736
1,3,3,46050,70395.21192797298
1,3,3,46100,70318.86137273663
1,3,3,46150,70242.67625748989
1,3,3,46200,70166.65604509
1,3,3,46250,70090.80020071691
1,3,3,46300,70015.10819186081
1,3,3,46350,69939.5794883098
1,3,3,46400,69864.21356213705
1,3,3,46450,69789.00988768908
1,3,3,46500,69713.96794157327
1,3,3,46550,69639.0872026457
1,3,3,46600,69564.36715199913
1,3,3,46650,69489.80727295089
1,3,3,46700,69415.40705103123
1,3,3,46750,69341.1659739713
1,3,3,46800,69267.08353169142
1,3,3,46850,69193.15921628936
1,3,3,46900,69119.392522029
1,3,3,46950,69045.78294532817
1,3,3,47000,68972.32998474807
1,3,3,47050,68899.033140981
1,3,3,47100,68825.89191683984
1,3,3,47150,68752.90581724627
1,3,3,47200,68680.07434921946
1,3,3,47250,68607.39702186579
1,3,3,47300,68534.87334636695
1,3,3,47350,68462.50283596954
1,3,3,47400,68390.28500597383
1,3,3,47450,68318.21937372304
1,3,3,47500,68246.30545859277
1,3,3,47550,68174.54278198017
1,3,3,47600,68102.93086729324
1,3,3,47650,68031.46923994034
1,3,3,47700,67960.15742731983
1,3,3,47750,67888.9949588096
1,3,3,47800,67817.98136575647
1,3,3,47850,67747.11618146619
1,3,3,47900,67676.39894119327
1,3,3,47950,67605.82918213052
1,3,3,48000,67535.40644339914
1,3,3,48050,67465.13026603869
1,3,3,48100,67395.00019299703
1,3,3,48150,67325.01576912063
1,3,3,48200,67255.17654114436
1,3,3,48250,67185.48205768202
1,3,3,48300,67115.93186921651
1,3,3,48350,67046.52552809013
1,3,3,48400,66977.26258849502
1,3,3,48450,66908.14260646347
1,3,3,48500,66839.16513985895
1,3,3,48550,66770.32974836578
1,3,3,48600,66701.63599348062
1,3,3,48650,66633.08343850271
1,3,3,48700,66564.67164852476
1,3,3,48750,66496.40019042374
1,3,3,48800,66428.26863285161
1,3,3,48850,66360.27654622636
1,3,3,48900,66292.42350272309
1,3,3,48950,66224.70907626471
1,3,3,49000,66157.13284251343
1,3,3,49050,66089.69437886153
1,3,3,49100,66022.39326442279
1,3,3,49150,65955.22908002355
1,3,3,49200,65888.20140819432
1,3,3,49250,65821.30983316059
1,3,3,49300,65754.55394083483
1,3,3,49350,65687.93331880769
1,3,3,49400,65621.44755633922
1,3,3,49450,65555.09624435104
1,3,3,49500,65488.878975417334
1,3,3,49550,65422.795343756974
1,3,3,49600,65356.84494522493
1,3,3,49650,65291.02737730429
1,3,3,49700,65225.34223909774
1,3,3,49750,65159.789131319754
1,3,3,49800,65094.36765628831
1,3,3,49850,65029.07741791688
1,3,3,49900,64963.91802170656
1,3,3,49950,64898.88907473787
1,3,3,50000,64833.99018566315
