3,1,1,50,7.357415762400313E7
3,1,1,100,3.678707881200156E7
3,1,1,150,2.4524719208001044E7
3,1,1,200,1.839353940600078E7
3,1,1,250,1.471483152480063E7
3,1,1,300,1.2262359604000522E7
3,1,1,350,1.051059394628617E7
3,1,1,400,9196769.70300039
3,1,1,450,8174906.402667014
3,1,1,500,7357415.762400316
3,1,1,550,6688559.784000284
3,1,1,600,6131179.802000261
3,1,1,650,5659550.586461781
3,1,1,700,5255296.973143085
3,1,1,750,4904943.84160021
3,1,1,800,4598384.851500195
3,1,1,850,4327891.624941362
3,1,1,900,4087453.201333506
3,1,1,950,3872324.085473849
3,1,1,1000,3678707.8812001576
3,1,1,1050,3503531.315428724
3,1,1,1100,3344279.892000142
3,1,1,1150,3198876.4184349203
3,1,1,1200,3065589.9010001305
3,1,1,1250,2942966.304960128
3,1,1,1300,2829775.29323089
3,1,1,1350,2724968.8008890036
3,1,1,1400,2627648.4865715425
3,1,1,1450,2537039.9180690744
3,1,1,1500,2452471.920800105
3,1,1,1550,2373359.923354941
3,1,1,1600,2299192.4257500977
3,1,1,1650,2229519.9280000967
3,1,1,1700,2163945.8124706815
3,1,1,1750,2102118.7892572335
3,1,1,1800,2043726.600666753
3,1,1,1850,1988490.746594679
3,1,1,1900,1936162.0427369245
3,1,1,1950,1886516.862153928
3,1,1,2000,1839353.940600079
3,1,1,2050,1794491.6493659304
3,1,1,2100,1751765.657714362
3,1,1,2150,1711026.9214884455
3,1,1,2200,1672139.946000071
3,1,1,2250,1634981.2805334036
3,1,1,2300,1599438.2092174601
3,1,1,2350,1565407.6090213445
3,1,1,2400,1532794.9505000652
3,1,1,2450,1501513.4208980235
3,1,1,2500,1471483.1524800642
3,1,1,2550,1442630.5416471215
3,1,1,2600,1414887.646615445
3,1,1,2650,1388191.6532830787
3,1,1,2700,1362484.400444502
3,1,1,2750,1337711.9568000583
3,1,1,2800,1313824.2432857712
3,1,1,2850,1290774.69515795
3,1,1,2900,1268519.959034537
3,1,1,2950,1247019.620745817
3,1,1,3000,1226235.9604000526
3,1,1,3050,1206133.7315410355
3,1,1,3100,1186679.9616774705
3,1,1,3150,1167843.7718095738
3,1,1,3200,1149596.2128750489
3,1,1,3250,1131910.1172923562
3,1,1,3300,1114759.9640000483
3,1,1,3350,1098121.7555821366
3,1,1,3400,1081972.9062353407
3,1,1,3450,1066292.139478307
3,1,1,3500,1051059.3946286167
3,1,1,3550,1036255.7411831426
3,1,1,3600,1021863.3003333767
3,1,1,3650,1007865.17293155
3,1,1,3700,994245.3732973395
3,1,1,3750,980988.768320042
3,1,1,3800,968081.0213684622
3,1,1,3850,955508.5405714691
3,1,1,3900,943258.431076964
3,1,1,3950,931318.4509367484
3,1,1,4000,919676.9703000395
3,1,1,4050,908322.9336296688
3,1,1,4100,897245.8246829652
3,1,1,4150,886435.6340241343
3,1,1,4200,875882.828857181
3,1,1,4250,865578.3249882723
3,1,1,4300,855513.4607442227
3,1,1,4350,845679.9726896915
3,1,1,4400,836069.9730000356
3,1,1,4450,826675.9283595859
3,1,1,4500,817490.6402667018
3,1,1,4550,808507.2266373972
3,1,1,4600,799719.1046087301
3,1,1,4650,791119.9744516464
3,1,1,4700,782703.8045106722
3,1,1,4750,774464.8170947699
3,1,1,4800,766397.4752500326
3,1,1,4850,758496.4703505479
3,1,1,4900,750756.7104490118
3,1,1,4950,743173.3093333653
3,1,1,5000,735741.5762400321
3,1,1,5050,728457.0061782491
3,1,1,5100,721315.2708235608
3,1,1,5150,714312.2099417786
3,1,1,5200,707443.8233077225
3,1,1,5250,700706.2630857441
3,1,1,5300,694095.8266415393
3,1,1,5350,687608.9497570384
3,1,1,5400,681242.2002222509
3,1,1,5450,674992.2717798458
3,1,1,5500,668855.9784000291
3,1,1,5550,662830.2488648937
3,1,1,5600,656912.1216428856
3,1,1,5650,651098.7400354262
3,1,1,5700,645387.347578975
3,1,1,5750,639775.2836869839
3,1,1,5800,634259.9795172685
3,1,1,5850,628838.9540513091
3,1,1,5900,623509.8103729085
3,1,1,5950,618270.2321344806
3,1,1,6000,613117.9802000263
3,1,1,6050,608050.8894545718
3,1,1,6100,603066.8657705177
3,1,1,6150,598163.8831219771
3,1,1,6200,593339.9808387352
3,1,1,6250,588593.2609920253
3,1,1,6300,583921.8859047869
3,1,1,6350,579324.0757795526
3,1,1,6400,574798.1064375244
3,1,1,6450,570342.3071628154
3,1,1,6500,565955.0586461781
3,1,1,6550,561634.7910229252
3,1,1,6600,557379.982000024
3,1,1,6650,553189.1550676933
3,1,1,6700,549060.8777910683
3,1,1,6750,544993.7601778014
3,1,1,6800,540986.4531176704
3,1,1,6850,537037.6468905342
3,1,1,6900,533146.0697391535
3,1,1,6950,529310.4865036199
3,1,1,7000,525529.6973143084
3,1,1,7050,521802.5363404481
3,1,1,7100,518127.87059157144
3,1,1,7150,514504.5987692528
3,1,1,7200,510931.65016668837
3,1,1,7250,507407.9836138148
3,1,1,7300,503932.5864657751
3,1,1,7350,500504.4736326746
3,1,1,7400,497122.68664866977
3,1,1,7450,493786.2927785447
3,1,1,7500,490494.384160021
3,1,1,7550,487246.07698015345
3,1,1,7600,484040.5106842311
3,1,1,7650,480876.8472157071
3,1,1,7700,477754.27028573456
3,1,1,7750,474671.9846709878
3,1,1,7800,471629.2155384819
3,1,1,7850,468625.2077961983
3,1,1,7900,465659.2254683742
3,1,1,7950,462730.55109435937
3,1,1,8000,459838.48515001975
3,1,1,8050,456982.3454907028
3,1,1,8100,454161.4668148344
3,1,1,8150,451375.2001472586
3,1,1,8200,448622.9123414826
3,1,1,8250,445903.9856000191
3,1,1,8300,443217.8170120671
3,1,1,8350,440563.8181078033
3,1,1,8400,437941.4144285905
3,1,1,8450,435350.0451124446
3,1,1,8500,432789.16249413614
3,1,1,8550,430258.23171931674
3,1,1,8600,427756.7303721114
3,1,1,8650,425284.1481156253
3,1,1,8700,422839.98634484573
3,1,1,8750,420423.7578514465
3,1,1,8800,418034.9865000178
3,1,1,8850,415673.20691527217
3,1,1,8900,413337.96417979297
3,1,1,8950,411028.813541917
3,1,1,9000,408745.3201333509
3,1,1,9050,406487.05869614996
3,1,1,9100,404253.6133186986
3,1,1,9150,402044.57718034514
3,1,1,9200,399859.55230436503
3,1,1,9250,397698.1493189359
3,1,1,9300,395559.98722582316
3,1,1,9350,393444.6931764874
3,1,1,9400,391351.9022553361
3,1,1,9450,389281.2572698578
3,1,1,9500,387232.40854738496
3,1,1,9550,385205.01373823645
3,1,1,9600,383198.7376250163
3,1,1,9650,381213.2519378402
3,1,1,9700,379248.23517527396
3,1,1,9750,377303.3724307852
3,1,1,9800,375378.35522450577
3,1,1,9850,373472.8813401175
3,1,1,9900,371586.65466668265
3,1,1,9950,369719.3850452419
3,1,1,10000,367870.78812001605
3,1,1,10050,366040.58519404544
3,1,1,10100,364228.50308912457
3,1,1,10150,362434.2740098677
3,1,1,10200,360657.6354117804
3,1,1,10250,358898.3298731861
3,1,1,10300,357156.1049708893
3,1,1,10350,355430.71315943566
3,1,1,10400,353721.9116538612
3,1,1,10450,352029.4623158048
3,1,1,10500,350353.13154287206
3,1,1,10550,348692.69016115234
3,1,1,10600,347047.9133207696
3,1,1,10650,345418.580394381
3,1,1,10700,343804.4748785192
3,1,1,10750,342205.3842976892
3,1,1,10800,340621.10011112544
3,1,1,10850,339051.4176221344
3,1,1,10900,337496.13588992285
3,1,1,10950,335955.05764384987
3,1,1,11000,334427.9892000146
3,1,1,11050,332914.7403801046
3,1,1,11100,331415.12443244684
3,1,1,11150,329928.95795517124
3,1,1,11200,328456.0608214428
3,1,1,11250,326996.2561066808
3,1,1,11300,325549.3700177131
3,1,1,11350,324115.2318238025
3,1,1,11400,322693.6737894875
3,1,1,11450,321284.531109184
3,1,1,11500,319887.64184349193
3,1,1,11550,318502.8468571565
3,1,1,11600,317129.98975863424
3,1,1,11650,315768.91684121516
3,1,1,11700,314419.4770256546
3,1,1,11750,313081.5218042689
3,1,1,11800,311754.90518645424
3,1,1,11850,310439.48364558304
3,1,1,11900,309135.1160672403
3,1,1,11950,307841.66369875806
3,1,1,12000,306558.99010001315
3,1,1,12050,305286.9610954488
3,1,1,12100,304025.4447272859
3,1,1,12150,302774.3112098894
3,1,1,12200,301533.43288525887
3,1,1,12250,300302.6841796048
3,1,1,12300,299081.94156098855
3,1,1,12350,297871.08349798864
3,1,1,12400,296669.9904193677
3,1,1,12450,295478.54467471153
3,1,1,12500,294296.6304960126
3,1,1,12550,293124.133960172
3,1,1,12600,291960.9429523933
3,1,1,12650,290806.9471304474
3,1,1,12700,289662.0378897763
3,1,1,12750,288526.1083294241
3,1,1,12800,287399.0532187622
3,1,1,12850,286280.76896499284
3,1,1,12900,285171.1535814077
3,1,1,12950,284070.10665638297
3,1,1,13000,282977.52932308905
3,1,1,13050,281893.3242298973
3,1,1,13100,280817.3955114626
3,1,1,13150,279749.6487604684
3,1,1,13200,278689.9910000121
3,1,1,13250,277638.33065661567
3,1,1,13300,276594.5775338466
3,1,1,13350,275558.6427865288
3,1,1,13400,274530.43889553414
3,1,1,13450,273509.8796431344
3,1,1,13500,272496.8800889007
3,1,1,13550,271491.3565461372
3,1,1,13600,270493.2265588352
3,1,1,13650,269502.4088791326
3,1,1,13700,268518.82344526704
3,1,1,13750,267542.39136001153
3,1,1,13800,266573.0348695767
3,1,1,13850,265610.6773429718
3,1,1,13900,264655.24325180997
3,1,1,13950,263706.6581505491
3,1,1,14000,262764.8486571542
3,1,1,14050,261829.7424341749
3,1,1,14100,260901.26817022398
3,1,1,14150,259979.35556184856
3,1,1,14200,259063.93529578572
3,1,1,14250,258154.93903159004
3,1,1,14300,257252.2993846264
3,1,1,14350,256355.94990941862
3,1,1,14400,255465.82508334419
3,1,1,14450,254581.8602906685
3,1,1,14500,253703.9918069074
3,1,1,14550,252832.15678351617
3,1,1,14600,251966.29323288755
3,1,1,14650,251106.34001366262
3,1,1,14700,250252.2368163373
3,1,1,14750,249403.92414916327
3,1,1,14800,248561.34332433494
3,1,1,14850,247724.43644445512
3,1,1,14900,246893.14638927236
3,1,1,14950,246067.41680268614
3,1,1,15000,245247.1920800105
3,1,1,15050,244432.4173554922
3,1,1,15100,243623.03849007672
3,1,1,15150,242819.00205941632
3,1,1,15200,242020.2553421155
3,1,1,15250,241226.74630820696
3,1,1,15300,240438.42360785356
3,1,1,15350,239655.23656027086
3,1,1,15400,238877.13514286728
3,1,1,15450,238104.0699805926
3,1,1,15500,237335.99233549397
3,1,1,15550,236572.85409647317
3,1,1,15600,235814.60776924095
3,1,1,15650,235061.20646646374
3,1,1,15700,234312.60389809916
3,1,1,15750,233568.75436191485
3,1,1,15800,232829.6127341871
3,1,1,15850,232095.1344605778
3,1,1,15900,231365.27554717968
3,1,1,15950,230639.99255173403
3,1,1,16000,229919.24257500988
3,1,1,16050,229202.9832523462
3,1,1,16100,228491.1727453514
3,1,1,16150,227783.76973375582
3,1,1,16200,227080.73340741722
3,1,1,16250,226382.02345847123
3,1,1,16300,225687.6000736293
3,1,1,16350,224997.42392661507
3,1,1,16400,224311.4561707413
3,1,1,16450,223629.65843162054
3,1,1,16500,222951.99280000955
3,1,1,16550,222278.42182478297
3,1,1,16600,221608.9085060336
3,1,1,16650,220943.41628829783
3,1,1,16700,220281.90905390165
3,1,1,16750,219624.35111642734
3,1,1,16800,218970.70721429525
3,1,1,16850,218320.94250446037
3,1,1,16900,217675.0225562223
3,1,1,16950,217032.913345142
3,1,1,17000,216394.58124706807
3,1,1,17050,215759.99303226738
3,1,1,17100,215129.11585965837
3,1,1,17150,214501.9172711462
3,1,1,17200,213878.3651860557
3,1,1,17250,213258.42789566136
3,1,1,17300,212642.07405781266
3,1,1,17350,212029.27269165177
3,1,1,17400,211419.99317242287
3,1,1,17450,210814.2052263701
3,1,1,17500,210211.8789257233
3,1,1,17550,209612.98468376964
3,1,1,17600,209017.4932500089
3,1,1,17650,208425.37570539134
3,1,1,17700,207836.60345763608
3,1,1,17750,207251.14823662868
3,1,1,17800,206668.98208989648
3,1,1,17850,206090.07737816006
3,1,1,17900,205514.4067709585
3,1,1,17950,204941.94324234859
3,1,1,18000,204372.66006667545
3,1,1,18050,203806.53081441313
3,1,1,18100,203243.52934807492
3,1,1,18150,202683.62981819047
3,1,1,18200,202126.8066593493
3,1,1,18250,201573.03458630995
3,1,1,18300,201022.28859017257
3,1,1,18350,200474.54393461352
3,1,1,18400,199929.77615218252
3,1,1,18450,199387.96104065896
3,1,1,18500,198849.07465946797
3,1,1,18550,198313.09332615408
3,1,1,18600,197779.99361291158
3,1,1,18650,197249.7523431721
3,1,1,18700,196722.3465882437
3,1,1,18750,196197.75366400852
3,1,1,18800,195675.95112766806
3,1,1,18850,195156.9167745442
3,1,1,18900,194640.6286349289
3,1,1,18950,194127.0649709845
3,1,1,19000,193616.20427369248
3,1,1,19050,193108.02525985072
3,1,1,19100,192602.50686911822
3,1,1,19150,192099.62826110484
3,1,1,19200,191599.36881250815
3,1,1,19250,191101.7081142938
3,1,1,19300,190606.62596892013
3,1,1,19350,190114.10238760512
3,1,1,19400,189624.11758763698
3,1,1,19450,189136.65198972533
3,1,1,19500,188651.6862153926
3,1,1,19550,188169.201084407
3,1,1,19600,187689.17761225294
3,1,1,19650,187211.59700764169
3,1,1,19700,186736.44067005874
3,1,1,19750,186263.6901873498
3,1,1,19800,185793.32733334132
3,1,1,19850,185325.3340654991
3,1,1,19900,184859.692522621
3,1,1,19950,184396.3850225643
3,1,1,20000,183935.394060008
3,1,1,20050,183476.70230424733
3,1,1,20100,183020.29259702272
3,1,1,20150,182566.14795038002
3,1,1,20200,182114.25154456228
3,1,1,20250,181664.58672593365
3,1,1,20300,181217.1370049339
3,1,1,20350,180771.88605406182
3,1,1,20400,180328.8177058902
3,1,1,20450,179887.915951108
3,1,1,20500,179449.16493659306
3,1,1,20550,179012.54896351128
3,1,1,20600,178578.05248544464
3,1,1,20650,178145.6601065452
3,1,1,20700,177715.35657971783
3,1,1,20750,177287.12680482678
3,1,1,20800,176860.95582693064
3,1,1,20850,176436.82883454004
3,1,1,20900,176014.7311579024
3,1,1,20950,175594.64826731067
3,1,1,21000,175176.56577143603
3,1,1,21050,174760.46941568455
3,1,1,21100,174346.3450805762
3,1,1,21150,173934.17878014926
3,1,1,21200,173523.95666038484
3,1,1,21250,173115.66499765438
3,1,1,21300,172709.2901971905
3,1,1,21350,172304.81879157652
3,1,1,21400,171902.2374392596
3,1,1,21450,171501.53292308425
3,1,1,21500,171102.69214884457
3,1,1,21550,170705.70214385883
3,1,1,21600,170310.55005556275
3,1,1,21650,169917.22315012277
3,1,1,21700,169525.7088110672
3,1,1,21750,169135.99453793842
3,1,1,21800,168748.06794496143
3,1,1,21850,168361.91675973262
3,1,1,21900,167977.52882192493
3,1,1,21950,167594.89208201176
3,1,1,22000,167213.99460000728
3,1,1,22050,166834.8245442249
3,1,1,22100,166457.37019005234
3,1,1,22150,166081.619918743
3,1,1,22200,165707.5622162234
3,1,1,22250,165335.1856719172
3,1,1,22300,164964.47897758562
3,1,1,22350,164595.43092618175
3,1,1,22400,164228.0304107214
3,1,1,22450,163862.2664231696
3,1,1,22500,163498.1280533404
3,1,1,22550,163135.60448781186
3,1,1,22600,162774.68500885656
3,1,1,22650,162415.35899338443
3,1,1,22700,162057.61591190123
3,1,1,22750,161701.4453274795
3,1,1,22800,161346.83689474376
3,1,1,22850,160993.78035886906
3,1,1,22900,160642.265554592
3,1,1,22950,160292.28240523566
3,1,1,23000,159943.82092174597
3,1,1,23050,159596.8712017422
3,1,1,23100,159251.42342857824
3,1,1,23150,158907.46787041714
3,1,1,23200,158564.99487931712
3,1,1,23250,158223.9948903294
3,1,1,23300,157884.45842060758
3,1,1,23350,157546.37606852924
3,1,1,23400,157209.7385128273
3,1,1,23450,156874.5365117339
3,1,1,23500,156540.7609021344
3,1,1,23550,156208.4025987328
3,1,1,23600,155877.4525932271
3,1,1,23650,155547.901953495
3,1,1,23700,155219.74182279152
3,1,1,23750,154892.96341895402
3,1,1,23800,154567.55803362015
3,1,1,23850,154243.51703145317
3,1,1,23900,153920.83184937903
3,1,1,23950,153599.49399583126
3,1,1,24000,153279.49505000658
3,1,1,24050,152960.82666112925
3,1,1,24100,152643.4805477244
3,1,1,24150,152327.448496901
3,1,1,24200,152012.72236364294
3,1,1,24250,151699.29407010964
3,1,1,24300,151387.1556049447
3,1,1,24350,151076.29902259377
3,1,1,24400,150766.71644262943
3,1,1,24450,150458.40004908625
3,1,1,24500,150151.3420898024
3,1,1,24550,149845.53487577016
3,1,1,24600,149540.97078049427
3,1,1,24650,149237.64223935734
3,1,1,24700,148935.5417489943
3,1,1,24750,148634.66186667312
3,1,1,24800,148334.99520968387
3,1,1,24850,148036.5344547348
3,1,1,24900,147739.27233735577
3,1,1,24950,147443.20165130898
3,1,1,25000,147148.3152480063
3,1,1,25050,146854.6060359345
3,1,1,25100,146562.066980086
3,1,1,25150,146270.69110139788
3,1,1,25200,145980.47147619672
3,1,1,25250,145691.40123564986
3,1,1,25300,145403.4735652237
3,1,1,25350,145116.68170414827
3,1,1,25400,144831.01894488814
3,1,1,25450,144546.4786326192
3,1,1,25500,144263.05416471208
3,1,1,25550,143980.73899022146
3,1,1,25600,143699.5266093811
3,1,1,25650,143419.4105731056
3,1,1,25700,143140.38448249642
3,1,1,25750,142862.44198835568
3,1,1,25800,142585.57679070384
3,1,1,25850,142309.78263830396
3,1,1,25900,142035.0533281915
3,1,1,25950,141761.3827052084
3,1,1,26000,141488.76466154453
3,1,1,26050,141217.1931362825
3,1,1,26100,140946.66211494865
3,1,1,26150,140677.16562906915
3,1,1,26200,140408.6977557313
3,1,1,26250,140141.25261714886
3,1,1,26300,139874.8243802342
3,1,1,26350,139609.40725617294
3,1,1,26400,139344.99550000604
3,1,1,26450,139081.5834102139
3,1,1,26500,138819.16532830786
3,1,1,26550,138557.73563842406
3,1,1,26600,138297.28876692333
3,1,1,26650,138037.81918199468
3,1,1,26700,137779.3213932644
3,1,1,26750,137521.78995140776
3,1,1,26800,137265.21944776707
3,1,1,26850,137009.60451397242
3,1,1,26900,136754.9398215672
3,1,1,26950,136501.22008163852
3,1,1,27000,136248.44004445034
3,1,1,27050,135996.5944990816
3,1,1,27100,135745.6782730686
3,1,1,27150,135495.68623205004
3,1,1,27200,135246.6132794176
3,1,1,27250,134998.45435596912
3,1,1,27300,134751.20443956624
3,1,1,27350,134504.85854479554
3,1,1,27400,134259.41172263355
3,1,1,27450,134014.85906011506
3,1,1,27500,133771.19568000577
3,1,1,27550,133528.41674047764
3,1,1,27600,133286.51743478831
3,1,1,27650,133045.49299096415
3,1,1,27700,132805.33867148586
3,1,1,27750,132566.04977297861
3,1,1,27800,132327.62162590498
3,1,1,27850,132090.04959426064
3,1,1,27900,131853.32907527452
3,1,1,27950,131617.45549911124
3,1,1,28000,131382.4243285771
3,1,1,28050,131148.2310588292
3,1,1,28100,130914.87121708745
3,1,1,28150,130682.34036235021
3,1,1,28200,130450.63408511199
3,1,1,28250,130219.74800708522
3,1,1,28300,129989.67778092428
3,1,1,28350,129760.4190899526
3,1,1,28400,129531.96764789286
3,1,1,28450,129304.3191985996
3,1,1,28500,129077.46951579502
3,1,1,28550,128851.41440280767
3,1,1,28600,128626.1496923132
3,1,1,28650,128401.67124607881
3,1,1,28700,128177.97495470931
3,1,1,28750,127955.05673739681
3,1,1,28800,127732.91254167209
3,1,1,28850,127511.5383431597
3,1,1,28900,127290.93014533425
3,1,1,28950,127071.08397928007
3,1,1,29000,126851.9959034537
3,1,1,29050,126633.66200344781
3,1,1,29100,126416.07839175808
3,1,1,29150,126199.2412075525
3,1,1,29200,125983.14661644374
3,1,1,29250,125767.79081026181
3,1,1,29300,125553.17000683131
3,1,1,29350,125339.28044974986
3,1,1,29400,125126.11840816865
3,1,1,29450,124913.68017657584
3,1,1,29500,124701.96207458164
3,1,1,29550,124490.96044670577
3,1,1,29600,124280.67166216744
3,1,1,29650,124071.09211467642
3,1,1,29700,123862.21822222756
3,1,1,29750,123654.04642689606
3,1,1,29800,123446.5731946362
3,1,1,29850,123239.7950150806
3,1,1,29900,123033.70840134307
3,1,1,29950,122828.30988982164
3,1,1,30000,122623.59604000526
3,1,1,30050,122419.56343428146
3,1,1,30100,122216.2086777461
3,1,1,30150,122013.52839801517
3,1,1,30200,121811.51924503836
3,1,1,30250,121610.17789091432
3,1,1,30300,121409.50102970816
3,1,1,30350,121209.48537727051
3,1,1,30400,121010.12767105775
3,1,1,30450,120811.42466995592
3,1,1,30500,120613.37315410348
3,1,1,30550,120415.96992471878
3,1,1,30600,120219.21180392678
3,1,1,30650,120023.09563458916
3,1,1,30700,119827.61828013543
3,1,1,30750,119632.77662439537
3,1,1,30800,119438.56757143364
3,1,1,30850,119244.98804538597
3,1,1,30900,119052.0349902963
3,1,1,30950,118859.70536995663
3,1,1,31000,118667.99616774698
3,1,1,31050,118476.90438647845
3,1,1,31100,118286.42704823655
3,1,1,31150,118096.56119422657
3,1,1,31200,117907.3038846205
3,1,1,31250,117718.65219840506
3,1,1,31300,117530.60323323187
3,1,1,31350,117343.15410526824
3,1,1,31400,117156.30194904958
3,1,1,31450,116970.04391733409
3,1,1,31500,116784.37718095742
3,1,1,31550,116599.29892868959
3,1,1,31600,116414.80636709355
3,1,1,31650,116230.89672038409
3,1,1,31700,116047.5672302889
3,1,1,31750,115864.81515591052
3,1,1,31800,115682.63777358983
3,1,1,31850,115501.03237677104
3,1,1,31900,115319.99627586702
3,1,1,31950,115139.526798127
3,1,1,32000,114959.62128750494
3,1,1,32050,114780.27710452906
3,1,1,32100,114601.49162617311
3,1,1,32150,114423.26224572807
3,1,1,32200,114245.58637267572
3,1,1,32250,114068.46143256308
3,1,1,32300,113891.88486687791
3,1,1,32350,113715.85413292606
3,1,1,32400,113540.3667037086
3,1,1,32450,113365.42006780142
3,1,1,32500,113191.01172923562
3,1,1,32550,113017.1392073781
3,1,1,32600,112843.80003681465
3,1,1,32650,112670.99176723305
3,1,1,32700,112498.71196330753
3,1,1,32750,112326.95820458494
3,1,1,32800,112155.72808537065
3,1,1,32850,111985.0192146167
3,1,1,32900,111814.82921581027
3,1,1,32950,111645.1557268637
3,1,1,33000,111475.99640000478
3,1,1,33050,111307.34890166893
3,1,1,33100,111139.21091239149
3,1,1,33150,110971.5801267016
3,1,1,33200,110804.45425301678
3,1,1,33250,110637.83101353861
3,1,1,33300,110471.7081441489
3,1,1,33350,110306.08339430756
3,1,1,33400,110140.95452695082
3,1,1,33450,109976.31931839038
3,1,1,33500,109812.17555821368
3,1,1,33550,109648.52104918502
3,1,1,33600,109485.35360714763
3,1,1,33650,109322.67106092589
3,1,1,33700,109160.4712522302
3,1,1,33750,108998.7520355602
3,1,1,33800,108837.51127811115
3,1,1,33850,108676.7468596797
3,1,1,33900,108516.45667257097
3,1,1,33950,108356.63862150685
3,1,1,34000,108197.29062353403
3,1,1,34050,108038.4106079341
3,1,1,34100,107879.99651613372
3,1,1,34150,107722.04630161518
3,1,1,34200,107564.55792982919
3,1,1,34250,107407.52937810683
3,1,1,34300,107250.9586355731
3,1,1,34350,107094.84370306144
3,1,1,34400,106939.18259302784
3,1,1,34450,106783.97332946752
3,1,1,34500,106629.21394783068
3,1,1,34550,106474.90249493945
3,1,1,34600,106321.03702890636
3,1,1,34650,106167.6156190522
3,1,1,34700,106014.63634582587
3,1,1,34750,105862.097300724
3,1,1,34800,105709.99658621143
3,1,1,34850,105558.33231564298
3,1,1,34900,105407.10261318505
3,1,1,34950,105256.30561373838
3,1,1,35000,105105.93946286163
3,1,1,35050,104956.00231669495
3,1,1,35100,104806.49234188482
3,1,1,35150,104657.4077155095
3,1,1,35200,104508.74662500445
3,1,1,35250,104360.50726808963
3,1,1,35300,104212.68785269567
3,1,1,35350,104065.28659689265
3,1,1,35400,103918.30172881804
3,1,1,35450,103771.73148660529
3,1,1,35500,103625.57411831434
3,1,1,35550,103479.82788186098
3,1,1,35600,103334.49104494823
3,1,1,35650,103189.56188499746
3,1,1,35700,103045.03868908003
3,1,1,35750,102900.91975385057
3,1,1,35800,102757.20338547924
3,1,1,35850,102613.88789958596
3,1,1,35900,102470.97162117429
3,1,1,35950,102328.45288456626
3,1,1,36000,102186.33003333773
3,1,1,36050,102044.60142025394
3,1,1,36100,101903.26540720656
3,1,1,36150,101762.32036514959
3,1,1,36200,101621.76467403746
3,1,1,36250,101481.59672276296
3,1,1,36300,101341.81490909525
3,1,1,36350,101202.41763961916
3,1,1,36400,101063.40332967465
3,1,1,36450,100924.7704032965
3,1,1,36500,100786.51729315498
3,1,1,36550,100648.64244049681
3,1,1,36600,100511.14429508628
3,1,1,36650,100374.02131514759
3,1,1,36700,100237.27196730676
3,1,1,36750,100100.89472653497
3,1,1,36800,99964.88807609126
3,1,1,36850,99829.25050746692
3,1,1,36900,99693.98052032951
3,1,1,36950,99559.07662246707
3,1,1,37000,99424.53732973398
3,1,1,37050,99290.36116599618
3,1,1,37100,99156.54666307704
3,1,1,37150,99023.09236070412
3,1,1,37200,98889.9968064558
3,1,1,37250,98757.25855570893
3,1,1,37300,98624.87617158609
3,1,1,37350,98492.84822490379
3,1,1,37400,98361.17329412185
3,1,1,37450,98229.84996529129
3,1,1,37500,98098.87683200426
3,1,1,37550,97968.25249534374
3,1,1,37600,97837.97556383403
3,1,1,37650,97708.04465339071
3,1,1,37700,97578.4583872721
3,1,1,37750,97449.21539603068
3,1,1,37800,97320.31431746445
3,1,1,37850,97191.75379656952
3,1,1,37900,97063.53248549227
3,1,1,37950,96935.64904348242
3,1,1,38000,96808.10213684624
3,1,1,38050,96680.89043890031
3,1,1,38100,96554.01262992536
3,1,1,38150,96427.46739712074
3,1,1,38200,96301.25343455913
3,1,1,38250,96175.36944314138
3,1,1,38300,96049.8141305524
3,1,1,38350,95924.58621121667
3,1,1,38400,95799.68440625408
3,1,1,38450,95675.10744343711
3,1,1,38500,95550.8540571469
3,1,1,38550,95426.92298833099
3,1,1,38600,95303.31298446006
3,1,1,38650,95180.02279948664
3,1,1,38700,95057.05119380256
3,1,1,38750,94934.3969341976
3,1,1,38800,94812.05879381849
3,1,1,38850,94690.03555212759
3,1,1,38900,94568.32599486265
3,1,1,38950,94446.92891399632
3,1,1,39000,94325.8431076963
3,1,1,39050,94205.06738028576
3,1,1,39100,94084.6005422035
3,1,1,39150,93964.44140996572
3,1,1,39200,93844.58880612644
3,1,1,39250,93725.0415592397
3,1,1,39300,93605.79850382084
3,1,1,39350,93486.85848030899
3,1,1,39400,93368.22033502937
3,1,1,39450,93249.8829201561
3,1,1,39500,93131.8450936749
3,1,1,39550,93014.1057193466
3,1,1,39600,92896.66366667065
3,1,1,39650,92779.51781084886
3,1,1,39700,92662.66703274955
3,1,1,39750,92546.11021887188
3,1,1,39800,92429.8462613105
3,1,1,39850,92313.87405772042
3,1,1,39900,92198.19251128216
3,1,1,39950,92082.80053066729
3,1,1,40000,91967.69703000401
3,1,1,40050,91852.8809288429
3,1,1,40100,91738.35115212368
3,1,1,40150,91624.10663014087
3,1,1,40200,91510.14629851136
3,1,1,40250,91396.46909814053
3,1,1,40300,91283.07397519
3,1,1,40350,91169.95988104487
3,1,1,40400,91057.12577228114
3,1,1,40450,90944.57061063433
3,1,1,40500,90832.29336296683
3,1,1,40550,90720.29300123695
3,1,1,40600,90608.56850246695
3,1,1,40650,90497.11884871239
3,1,1,40700,90385.94302703091
3,1,1,40750,90275.0400294517
3,1,1,40800,90164.4088529451
3,1,1,40850,90054.0484993918
3,1,1,40900,89943.95797555402
3,1,1,40950,89834.13629304414
3,1,1,41000,89724.58246829652
3,1,1,41050,89615.29552253732
3,1,1,41100,89506.27448175562
3,1,1,41150,89397.5183766745
3,1,1,41200,89289.02624272232
3,1,1,41250,89180.7971200038
3,1,1,41300,89072.8300532726
3,1,1,41350,88965.12409190225
3,1,1,41400,88857.67828985892
3,1,1,41450,88750.49170567328
3,1,1,41500,88643.56340241339
3,1,1,41550,88536.89244765727
3,1,1,41600,88430.4779134653
3,1,1,41650,88324.31887635433
3,1,1,41700,88218.41441727002
3,1,1,41750,88112.76362156069
3,1,1,41800,88007.3655789512
3,1,1,41850,87902.2193835163
3,1,1,41900,87797.32413365533
3,1,1,41950,87692.67893206576
3,1,1,42000,87588.28288571801
3,1,1,42050,87484.13510583017
3,1,1,42100,87380.23470784228
3,1,1,42150,87276.5808113916
3,1,1,42200,87173.1725402881
3,1,1,42250,87070.00902248893
3,1,1,42300,86967.08939007465
3,1,1,42350,86864.4127792245
3,1,1,42400,86761.9783301924
3,1,1,42450,86659.78518728285
3,1,1,42500,86557.83249882719
3,1,1,42550,86456.11941716002
3,1,1,42600,86354.64509859525
3,1,1,42650,86253.40870340349
3,1,1,42700,86152.40939578824
3,1,1,42750,86051.64634386344
3,1,1,42800,85951.1187196298
3,1,1,42850,85850.82569895351
3,1,1,42900,85750.76646154215
3,1,1,42950,85650.9401909234
3,1,1,43000,85551.34607442228
3,1,1,43050,85451.98330313952
3,1,1,43100,85352.8510719294
3,1,1,43150,85253.94857937793
3,1,1,43200,85155.27502778138
3,1,1,43250,85056.82962312506
3,1,1,43300,84958.61157506138
3,1,1,43350,84860.62009688951
3,1,1,43400,84762.8544055336
3,1,1,43450,84665.31372152257
3,1,1,43500,84567.99726896921
3,1,1,43550,84470.90427554896
3,1,1,43600,84374.03397248071
3,1,1,43650,84277.38559450534
3,1,1,43700,84180.95837986632
3,1,1,43750,84084.75157028937
3,1,1,43800,83988.76441096247
3,1,1,43850,83892.99615051674
3,1,1,43900,83797.44604100588
3,1,1,43950,83702.11333788754
3,1,1,44000,83606.99730000364
3,1,1,44050,83512.09718956094
3,1,1,44100,83417.41227211244
3,1,1,44150,83322.94181653809
3,1,1,44200,83228.68509502617
3,1,1,44250,83134.64138305438
3,1,1,44300,83040.8099593715
3,1,1,44350,82947.19010597873
3,1,1,44400,82853.7811081117
3,1,1,44450,82760.5822542218
3,1,1,44500,82667.5928359586
3,1,1,44550,82574.8121481517
3,1,1,44600,82482.23948879281
3,1,1,44650,82389.87415901812
3,1,1,44700,82297.71546309088
3,1,1,44750,82205.76270838344
3,1,1,44800,82114.0152053607
3,1,1,44850,82022.47226756209
3,1,1,44900,81931.13321158479
3,1,1,44950,81839.9973570669
3,1,1,45000,81749.0640266702
3,1,1,45050,81658.33254606344
3,1,1,45100,81567.80224390593
3,1,1,45150,81477.47245183072
3,1,1,45200,81387.34250442828
3,1,1,45250,81297.41173923001
3,1,1,45300,81207.67949669222
3,1,1,45350,81118.14512017992
3,1,1,45400,81028.80795595061
3,1,1,45450,80939.66735313881
3,1,1,45500,80850.72266373975
3,1,1,45550,80761.97324259403
3,1,1,45600,80673.41844737188
3,1,1,45650,80585.0576385577
3,1,1,45700,80496.89017943453
3,1,1,45750,80408.91543606897
3,1,1,45800,80321.132777296
3,1,1,45850,80233.54157470357
3,1,1,45900,80146.14120261783
3,1,1,45950,80058.93103808833
3,1,1,46000,79971.91046087298
3,1,1,46050,79885.07885342363
3,1,1,46100,79798.43560087109
3,1,1,46150,79711.98009101095
3,1,1,46200,79625.71171428912
3,1,1,46250,79539.62986378721
3,1,1,46300,79453.73393520857
3,1,1,46350,79368.02332686425
3,1,1,46400,79282.49743965856
3,1,1,46450,79197.15567707554
3,1,1,46500,79111.9974451647
3,1,1,46550,79027.02215252756
3,1,1,46600,78942.22921030379
3,1,1,46650,78857.61803215768
3,1,1,46700,78773.18803426462
3,1,1,46750,78688.93863529747
3,1,1,46800,78604.86925641364
3,1,1,46850,78520.97932124136
3,1,1,46900,78437.26825586695
3,1,1,46950,78353.73548882123
3,1,1,47000,78270.3804510672
3,1,1,47050,78187.2025759863
3,1,1,47100,78104.2012993664
3,1,1,47150,78021.37605938833
3,1,1,47200,77938.72629661356
3,1,1,47250,77856.25145397162
3,1,1,47300,77773.9509767475
3,1,1,47350,77691.82431256928
3,1,1,47400,77609.87091139576
3,1,1,47450,77528.09022550382
3,1,1,47500,77446.48170947701
3,1,1,47550,77365.04482019265
3,1,1,47600,77283.77901681008
3,1,1,47650,77202.68376075882
3,1,1,47700,77121.75851572659
3,1,1,47750,77041.00274764728
3,1,1,47800,76960.41592468951
3,1,1,47850,76879.9975172447
3,1,1,47900,76799.74699791563
3,1,1,47950,76719.66384150488
3,1,1,48000,76639.74752500329
3,1,1,48050,76559.99752757874
3,1,1,48100,76480.41333056462
3,1,1,48150,76400.99441744875
3,1,1,48200,76321.7402738622
3,1,1,48250,76242.65038756802
3,1,1,48300,76163.7242484505
3,1,1,48350,76084.96134850377
3,1,1,48400,76006.36118182147
3,1,1,48450,75927.92324458531
3,1,1,48500,75849.64703505485
3,1,1,48550,75771.53205355625
3,1,1,48600,75693.57780247235
3,1,1,48650,75615.7837862314
3,1,1,48700,75538.14951129688
3,1,1,48750,75460.67448615708
3,1,1,48800,75383.35822131472
3,1,1,48850,75306.20022927655
3,1,1,48900,75229.20002454311
3,1,1,48950,75152.35712359873
3,1,1,49000,75075.67104490122
3,1,1,49050,74999.14130887174
3,1,1,49100,74922.76743788506
3,1,1,49150,74846.54895625958
3,1,1,49200,74770.48539024714
3,1,1,49250,74694.57626802353
3,1,1,49300,74618.82111967867
3,1,1,49350,74543.21947720683
3,1,1,49400,74467.77087449716
3,1,1,49450,74392.47484732371
3,1,1,49500,74317.33093333656
3,1,1,49550,74242.33867205164
3,1,1,49600,74167.49760484193
3,1,1,49650,74092.80727492766
3,1,1,49700,74018.26722736738
3,1,1,49750,73943.87700904837
3,1,1,49800,73869.63616867788
3,1,1,49850,73795.54425677349
3,1,1,49900,73721.60082565449
3,1,1,49950,73647.80542943257
3,1,1,50000,73574.15762400316
