3,3,3,50,6.483399018566315E7
3,3,3,100,3.2416995092831567E7
3,3,3,150,2.1611330061887722E7
3,3,3,200,1.6208497546415783E7
3,3,3,250,1.296679803713263E7
3,3,3,300,1.0805665030943861E7
3,3,3,350,9261998.597951874
3,3,3,400,8104248.773207892
3,3,3,450,7203776.687295905
3,3,3,500,6483399.018566315
3,3,3,550,5893999.107787559
3,3,3,600,5402832.515471931
3,3,3,650,4987230.0142817795
3,3,3,700,4630999.298975937
3,3,3,750,4322266.012377544
3,3,3,800,4052124.386603946
3,3,3,850,3813764.1285684234
3,3,3,900,3601888.343647953
3,3,3,950,3412315.272929639
3,3,3,1000,3241699.5092831575
3,3,3,1050,3087332.8659839607
3,3,3,1100,2946999.5538937794
3,3,3,1150,2818869.1385070942
3,3,3,1200,2701416.2577359653
3,3,3,1250,2593359.6074265256
3,3,3,1300,2493615.00714089
3,3,3,1350,2401258.895765301
3,3,3,1400,2315499.6494879685
3,3,3,1450,2235654.8339883857
3,3,3,1500,2161133.006188772
3,3,3,1550,2091419.0382471983
3,3,3,1600,2026062.193301973
3,3,3,1650,1964666.3692625198
3,3,3,1700,1906882.0642842113
3,3,3,1750,1852399.7195903757
3,3,3,1800,1800944.1718239763
3,3,3,1850,1752270.0050179244
3,3,3,1900,1706157.6364648195
3,3,3,1950,1662410.0047605936
3,3,3,2000,1620849.7546415792
3,3,3,2050,1581316.8337966625
3,3,3,2100,1543666.4329919803
3,3,3,2150,1507767.2136200736
3,3,3,2200,1473499.7769468897
3,3,3,2250,1440755.337459181
3,3,3,2300,1409434.5692535471
3,3,3,2350,1379446.5996949612
3,3,3,2400,1350708.1288679827
3,3,3,2450,1323142.6568502681
3,3,3,2500,1296679.8037132628
3,3,3,2550,1271254.709522807
3,3,3,2600,1246807.503570445
3,3,3,2650,1223282.8336917576
3,3,3,2700,1200629.4478826504
3,3,3,2750,1178799.8215575132
3,3,3,2800,1157749.8247439843
3,3,3,2850,1137438.42430988
3,3,3,2900,1117827.4169941929
3,3,3,2950,1098881.1895875114
3,3,3,3000,1080566.503094386
3,3,3,3050,1062852.2981256258
3,3,3,3100,1045709.5191235989
3,3,3,3150,1029110.9553279863
3,3,3,3200,1013031.0966509867
3,3,3,3250,997446.0028563564
3,3,3,3300,982333.1846312599
3,3,3,3350,967671.4953084047
3,3,3,3400,953441.0321421056
3,3,3,3450,939623.0461690311
3,3,3,3500,926199.8597951878
3,3,3,3550,913154.7913473683
3,3,3,3600,900472.0859119882
3,3,3,3650,888136.8518583995
3,3,3,3700,876135.002508962
3,3,3,3750,864453.2024755086
3,3,3,3800,853078.8182324098
3,3,3,3850,841999.8725410796
3,3,3,3900,831205.0023802968
3,3,3,3950,820683.4200716858
3,3,3,4000,810424.8773207896
3,3,3,4050,800419.6319217676
3,3,3,4100,790658.4168983313
3,3,3,4150,781132.4118754597
3,3,3,4200,771833.2164959902
3,3,3,4250,762752.825713684
3,3,3,4300,753883.6068100368
3,3,3,4350,745218.2779961283
3,3,3,4400,736749.8884734449
3,3,3,4450,728471.7998389119
3,3,3,4500,720377.6687295905
3,3,3,4550,712461.4306116828
3,3,3,4600,704717.2846267736
3,3,3,4650,697139.679415733
3,3,3,4700,689723.2998474806
3,3,3,4750,682463.0545859282
3,3,3,4800,675354.0644339913
3,3,3,4850,668391.6513985894
3,3,3,4900,661571.3284251342
3,3,3,4950,654888.7897541733
3,3,3,5000,648339.9018566314
3,3,3,5050,641920.6949075557
3,3,3,5100,635627.3547614035
3,3,3,5150,629456.215394788
3,3,3,5200,623403.7517852224
3,3,3,5250,617466.573196792
3,3,3,5300,611641.4168458788
3,3,3,5350,605925.1419220857
3,3,3,5400,600314.7239413252
3,3,3,5450,594807.2494097538
3,3,3,5500,589399.9107787566
3,3,3,5550,584090.001672641
3,3,3,5600,578874.9123719921
3,3,3,5650,573752.1255368422
3,3,3,5700,568719.21215494
3,3,3,5750,563773.827701419
3,3,3,5800,558913.7084970964
3,3,3,5850,554136.6682535311
3,3,3,5900,549440.5947937557
3,3,3,5950,544823.4469383459
3,3,3,6000,540283.251547193
3,3,3,6050,535818.1007079603
3,3,3,6100,531426.1490628129
3,3,3,6150,527105.6112655546
3,3,3,6200,522854.7595617996
3,3,3,6250,518671.9214853053
3,3,3,6300,514555.47766399314
3,3,3,6350,510503.859729631
3,3,3,6400,506515.54832549323
3,3,3,6450,502589.071206691
3,3,3,6500,498723.0014281782
3,3,3,6550,494915.95561574935
3,3,3,6600,491166.59231562994
3,3,3,6650,487473.61041851994
3,3,3,6700,483835.74765420234
3,3,3,6750,480251.7791530606
3,3,3,6800,476720.5160710528
3,3,3,6850,473240.8042749133
3,3,3,6900,469811.52308451553
3,3,3,6950,466431.58406951884
3,3,3,7000,463099.929897594
3,3,3,7050,459815.5332316535
3,3,3,7100,456577.39567368414
3,3,3,7150,453384.54675288923
3,3,3,7200,450236.0429559941
3,3,3,7250,447130.96679767687
3,3,3,7300,444068.4259291998
3,3,3,7350,441047.552283423
3,3,3,7400,438067.5012544811
3,3,3,7450,435127.450910491
3,3,3,7500,432226.60123775434
3,3,3,7550,429364.173414988
3,3,3,7600,426539.40911620494
3,3,3,7650,423751.5698409357
3,3,3,7700,420999.9362705398
3,3,3,7750,418283.80764943955
3,3,3,7800,415602.5011901484
3,3,3,7850,412955.3515010391
3,3,3,7900,410341.7100358429
3,3,3,7950,407760.94456391945
3,3,3,8000,405212.4386603948
3,3,3,8050,402695.5912152991
3,3,3,8100,400209.8159608838
3,3,3,8150,397754.5410163384
3,3,3,8200,395329.2084491656
3,3,3,8250,392933.2738525039
3,3,3,8300,390566.20593772986
3,3,3,8350,388227.48614169564
3,3,3,8400,385916.6082479951
3,3,3,8450,383633.07802167546
3,3,3,8500,381376.4128568419
3,3,3,8550,379146.1414366265
3,3,3,8600,376941.8034050184
3,3,3,8650,374762.949050076
3,3,3,8700,372609.1389980642
3,3,3,8750,370479.9439180752
3,3,3,8800,368374.9442367224
3,3,3,8850,366293.72986250336
3,3,3,8900,364235.89991945593
3,3,3,8950,362201.06248973834
3,3,3,9000,360188.83436479524
3,3,3,9050,358198.8408047687
3,3,3,9100,356230.7153058414
3,3,3,9150,354284.09937520855
3,3,3,9200,352358.6423133868
3,3,3,9250,350454.00100358477
3,3,3,9300,348569.8397078665
3,3,3,9350,346705.82986985653
3,3,3,9400,344861.6499237402
3,3,3,9450,343036.98510932893
3,3,3,9500,341231.5272929641
3,3,3,9550,339444.97479404794
3,3,3,9600,337677.0322169956
3,3,3,9650,335927.4102884101
3,3,3,9700,334195.8256992947
3,3,3,9750,332482.0009521187
3,3,3,9800,330785.6642125671
3,3,3,9850,329106.5491658027
3,3,3,9900,327444.3948770866
3,3,3,9950,325798.945656599
3,3,3,10000,324169.9509283157
3,3,3,10050,322557.1651028018
3,3,3,10100,320960.34745377785
3,3,3,10150,319379.2619983407
3,3,3,10200,317813.67738070176
3,3,3,10250,316263.36675933254
3,3,3,10300,314728.107697394
3,3,3,10350,313207.68205634376
3,3,3,10400,311701.8758926112
3,3,3,10450,310210.47935724
3,3,3,10500,308733.286598396
3,3,3,10550,307270.0956666499
3,3,3,10600,305820.7084229394
3,3,3,10650,304384.9304491229
3,3,3,10700,302962.57096104283
3,3,3,10750,301553.4427240148
3,3,3,10800,300157.3619706626
3,3,3,10850,298774.14832102816
3,3,3,10900,297403.6247048769
3,3,3,10950,296045.6172861333
3,3,3,11000,294699.9553893783
3,3,3,11050,293366.47142833995
3,3,3,11100,292045.00083632045
3,3,3,11150,290735.3819984896
3,3,3,11200,289437.456185996
3,3,3,11250,288151.06749183626
3,3,3,11300,286876.06276842114
3,3,3,11350,285612.29156679806
3,3,3,11400,284359.60607747
3,3,3,11450,283117.86107276473
3,3,3,11500,281886.9138507095
3,3,3,11550,280666.62418035994
3,3,3,11600,279456.8542485482
3,3,3,11650,278257.46860799653
3,3,3,11700,277068.3341267656
3,3,3,11750,275889.3199389922
3,3,3,11800,274720.29739687784
3,3,3,11850,273561.1400238953
3,3,3,11900,272411.72346917295
3,3,3,11950,271271.9254630259
3,3,3,12000,270141.6257735966
3,3,3,12050,269020.70616457745
3,3,3,12100,267909.0503539801
3,3,3,12150,266806.5439739225
3,3,3,12200,265713.07453140646
3,3,3,12250,264628.5313700537
3,3,3,12300,263552.8056327773
3,3,3,12350,262485.79022535693
3,3,3,12400,261427.3797808998
3,3,3,12450,260377.47062515325
3,3,3,12500,259335.96074265265
3,3,3,12550,258302.7497436778
3,3,3,12600,257277.73883199657
3,3,3,12650,256260.83077337217
3,3,3,12700,255251.9298648155
3,3,3,12750,254250.94190456136
3,3,3,12800,253257.77416274662
3,3,3,12850,252272.33535277483
3,3,3,12900,251294.5356033455
3,3,3,12950,250324.28643113188
3,3,3,13000,249361.5007140891
3,3,3,13050,248406.0926653762
3,3,3,13100,247457.97780787462
3,3,3,13150,246517.07294928964
3,3,3,13200,245583.29615781497
3,3,3,13250,244656.56673835154
3,3,3,13300,243736.80520925997
3,3,3,13350,242823.93327963722
3,3,3,13400,241917.87382710114
3,3,3,13450,241018.55087607124
3,3,3,13500,240125.8895765303
3,3,3,13550,239239.8161832589
3,3,3,13600,238360.2580355264
3,3,3,13650,237487.14353722776
3,3,3,13700,236620.40213745664
3,3,3,13750,235759.96431150255
3,3,3,13800,234905.76154225777
3,3,3,13850,234057.726302033
3,3,3,13900,233215.79203475942
3,3,3,13950,232379.89313857764
3,3,3,14000,231549.96494879696
3,3,3,14050,230725.94372122124
3,3,3,14100,229907.76661582675
3,3,3,14150,229095.37168078858
3,3,3,14200,228288.6978368421
3,3,3,14250,227487.684861976
3,3,3,14300,226692.27337644456
3,3,3,14350,225902.40482809473
3,3,3,14400,225118.02147799704
3,3,3,14450,224339.0663863779
3,3,3,14500,223565.48339883843
3,3,3,14550,222797.21713286312
3,3,3,14600,222034.21296459986
3,3,3,14650,221276.41701591527
3,3,3,14700,220523.77614171148
3,3,3,14750,219776.2379175022
3,3,3,14800,219033.7506272405
3,3,3,14850,218296.26325139112
3,3,3,14900,217563.7254552455
3,3,3,14950,216836.08757746872
3,3,3,15000,216113.30061887717
3,3,3,15050,215395.31623143906
3,3,3,15100,214682.086707494
3,3,3,15150,213973.5649691853
3,3,3,15200,213269.70455810244
3,3,3,15250,212570.4596251251
3,3,3,15300,211875.78492046785
3,3,3,15350,211185.6357839191
3,3,3,15400,210499.96813526994
3,3,3,15450,209818.73846492928
3,3,3,15500,209141.90382471978
3,3,3,15550,208469.42181885257
3,3,3,15600,207801.2505950742
3,3,3,15650,207137.34883598454
3,3,3,15700,206477.67575051956
3,3,3,15750,205822.19106559732
3,3,3,15800,205170.85501792145
3,3,3,15850,204523.62834594055
3,3,3,15900,203880.47228195972
3,3,3,15950,203241.34854439853
3,3,3,16000,202606.2193301974
3,3,3,16050,201975.04730736185
3,3,3,16100,201347.79560764955
3,3,3,16150,200724.42781939055
3,3,3,16200,200104.90798044196
3,3,3,16250,199489.20057127127
3,3,3,16300,198877.27050816917
3,3,3,16350,198269.08313658458
3,3,3,16400,197664.6042245828
3,3,3,16450,197063.7999564229
3,3,3,16500,196466.63692625196
3,3,3,16550,195873.08213191284
3,3,3,16600,195283.10296886493
3,3,3,16650,194696.66722421366
3,3,3,16700,194113.74307084782
3,3,3,16750,193534.299061681
3,3,3,16800,192958.30412399754
3,3,3,16850,192385.72755389666
3,3,3,16900,191816.53901083773
3,3,3,16950,191250.70851228078
3,3,3,17000,190688.20642842096
3,3,3,17050,190129.0034770181
3,3,3,17100,189573.07071831325
3,3,3,17150,189020.37955003834
3,3,3,17200,188470.9017025092
3,3,3,17250,187924.60923380632
3,3,3,17300,187381.474525038
3,3,3,17350,186841.47027568638
3,3,3,17400,186304.5694990321
3,3,3,17450,185770.74551765952
3,3,3,17500,185239.9719590376
3,3,3,17550,184712.2227511771
3,3,3,17600,184187.4721183612
3,3,3,17650,183665.69457694946
3,3,3,17700,183146.86493125168
3,3,3,17750,182630.95826947372
3,3,3,17800,182117.94995972796
3,3,3,17850,181607.81564611525
3,3,3,17900,181100.53124486914
3,3,3,17950,180596.0729405659
3,3,3,18000,180094.41718239762
3,3,3,18050,179595.54068050729
3,3,3,18100,179099.42040238433
3,3,3,18150,178606.03356932
3,3,3,18200,178115.3576529207
3,3,3,18250,177627.37037167992
3,3,3,18300,177142.04968760427
3,3,3,18350,176659.37380289685
3,3,3,18400,176179.3211566934
3,3,3,18450,175701.8704218514
3,3,3,18500,175227.00050179238
3,3,3,18550,174754.69052739398
3,3,3,18600,174284.91985393324
3,3,3,18650,173817.66805807812
3,3,3,18700,173352.91493492827
3,3,3,18750,172890.64049510178
3,3,3,18800,172430.8249618701
3,3,3,18850,171973.44876833726
3,3,3,18900,171518.49255466447
3,3,3,18950,171065.93716533808
3,3,3,19000,170615.76364648205
3,3,3,19050,170167.9532432104
3,3,3,19100,169722.48739702397
3,3,3,19150,169279.34774324586
3,3,3,19200,168838.5161084978
3,3,3,19250,168399.97450821596
3,3,3,19300,167963.70514420504
3,3,3,19350,167529.69040223045
3,3,3,19400,167097.91284964734
3,3,3,19450,166668.35523306724
3,3,3,19500,166241.0004760594
3,3,3,19550,165815.8316768879
3,3,3,19600,165392.83210628355
3,3,3,19650,164971.98520524966
3,3,3,19700,164553.2745829014
3,3,3,19750,164136.6840143371
3,3,3,19800,163722.19743854328
3,3,3,19850,163309.79895633043
3,3,3,19900,162899.4728282995
3,3,3,19950,162491.20347284008
3,3,3,20000,162084.97546415785
3,3,3,20050,161680.77353033208
3,3,3,20100,161278.58255140088
3,3,3,20150,160878.38755747676
3,3,3,20200,160480.17372688893
3,3,3,20250,160083.92638435352
3,3,3,20300,159689.63099917033
3,3,3,20350,159297.27318344748
3,3,3,20400,158906.83869035088
3,3,3,20450,158518.31341237933
3,3,3,20500,158131.68337966627
3,3,3,20550,157746.93475830456
3,3,3,20600,157364.053848697
3,3,3,20650,156983.0270839302
3,3,3,20700,156603.84102817188
3,3,3,20750,156226.48237509202
3,3,3,20800,155850.93794630564
3,3,3,20850,155477.19468983976
3,3,3,20900,155105.23967862
3,3,3,20950,154735.06010898124
3,3,3,21000,154366.643299198
3,3,3,21050,153999.97668803605
3,3,3,21100,153635.047833325
3,3,3,21150,153271.8444105511
3,3,3,21200,152910.35421146968
3,3,3,21250,152550.56514273683
3,3,3,21300,152192.46522456146
3,3,3,21350,151836.04258937508
3,3,3,21400,151481.28548052142
3,3,3,21450,151128.18225096315
3,3,3,21500,150776.7213620074
3,3,3,21550,150426.8913820491
3,3,3,21600,150078.6809853313
3,3,3,21650,149732.0789507232
3,3,3,21700,149387.07416051408
3,3,3,21750,149043.6555992256
3,3,3,21800,148701.81235243846
3,3,3,21850,148361.5336056365
3,3,3,21900,148022.80864306664
3,3,3,21950,147685.62684661316
3,3,3,22000,147349.97769468915
3,3,3,22050,147015.85076114096
3,3,3,22100,146683.23571416998
3,3,3,22150,146352.12231526666
3,3,3,22200,146022.50041816023
3,3,3,22250,145694.35996778234
3,3,3,22300,145367.6909992448
3,3,3,22350,145042.48363683038
3,3,3,22400,144718.72809299803
3,3,3,22450,144396.41466740138
3,3,3,22500,144075.53374591813
3,3,3,22550,143756.0757996966
3,3,3,22600,143438.03138421057
3,3,3,22650,143121.39113832926
3,3,3,22700,142806.14578339903
3,3,3,22750,142492.28612233663
3,3,3,22800,142179.80303873497
3,3,3,22850,141868.68749598067
3,3,3,22900,141558.93053638237
3,3,3,22950,141250.52328031184
3,3,3,23000,140943.45692535472
3,3,3,23050,140637.72274547326
3,3,3,23100,140333.31209017997
3,3,3,23150,140030.21638372162
3,3,3,23200,139728.4271242741
3,3,3,23250,139427.93588314657
3,3,3,23300,139128.73430399827
3,3,3,23350,138830.8141020625
3,3,3,23400,138534.1670633828
3,3,3,23450,138238.785044058
3,3,3,23500,137944.6599694961
3,3,3,23550,137651.7838336797
3,3,3,23600,137360.14869843892
3,3,3,23650,137069.74669273387
3,3,3,23700,136780.57001194765
3,3,3,23750,136492.61091718555
3,3,3,23800,136205.8617345865
3,3,3,23850,135920.31485463967
3,3,3,23900,135635.96273151293
3,3,3,23950,135352.79788238657
3,3,3,24000,135070.8128867983
3,3,3,24050,134790.00038599412
3,3,3,24100,134510.35308228873
3,3,3,24150,134231.86373843302
3,3,3,24200,133954.52517699008
3,3,3,24250,133678.33027971786
3,3,3,24300,133403.27198696125
3,3,3,24350,133129.34329704952
3,3,3,24400,132856.53726570323
3,3,3,24450,132584.84700544618
3,3,3,24500,132314.26568502685
3,3,3,24550,132044.78652884555
3,3,3,24600,131776.40281638864
3,3,3,24650,131509.10788166965
3,3,3,24700,131242.89511267844
3,3,3,24750,130977.75795083467
3,3,3,24800,130713.6898904499
3,3,3,24850,130450.68447819546
3,3,3,24900,130188.73531257662
3,3,3,24950,129927.83604341315
3,3,3,25000,129667.98037132632
3,3,3,25050,129409.16204723185
3,3,3,25100,129151.3748718389
3,3,3,25150,128894.61269515533
3,3,3,25200,128638.86941599828
3,3,3,25250,128384.13898151119
3,3,3,25300,128130.41538668606
3,3,3,25350,127877.69267389181
3,3,3,25400,127625.96493240775
3,3,3,25450,127375.22629796306
3,3,3,25500,127125.47095228068
3,3,3,25550,126876.69312262844
3,3,3,25600,126628.88708137334
3,3,3,25650,126382.04714554227
3,3,3,25700,126136.16767638741
3,3,3,25750,125891.24307895754
3,3,3,25800,125647.26780167274
3,3,3,25850,125404.23633590552
3,3,3,25900,125162.14321556597
3,3,3,25950,124920.983016692
3,3,3,26000,124680.75035704456
3,3,3,26050,124441.43989570672
3,3,3,26100,124203.0463326881
3,3,3,26150,123965.5644085337
3,3,3,26200,123728.98890393731
3,3,3,26250,123493.31463935829
3,3,3,26300,123258.53647464482
3,3,3,26350,123024.6493086588
3,3,3,26400,122791.64807890748
3,3,3,26450,122559.52776117799
3,3,3,26500,122328.28336917577
3,3,3,26550,122097.90995416796
3,3,3,26600,121868.40260462998
3,3,3,26650,121639.75644589703
3,3,3,26700,121411.96663981861
3,3,3,26750,121185.02838441718
3,3,3,26800,120958.93691355058
3,3,3,26850,120733.68749657941
3,3,3,26900,120509.27543803562
3,3,3,26950,120285.69607729708
3,3,3,27000,120062.94478826514
3,3,3,27050,119841.01697904461
3,3,3,27100,119619.90809162945
3,3,3,27150,119399.6136015896
3,3,3,27200,119180.12901776317
3,3,3,27250,118961.4498819507
3,3,3,27300,118743.57176861388
3,3,3,27350,118526.4902845762
3,3,3,27400,118310.20106872832
3,3,3,27450,118094.6997917362
3,3,3,27500,117879.98215575128
3,3,3,27550,117666.0438941255
3,3,3,27600,117452.88077112888
3,3,3,27650,117240.4885816693
3,3,3,27700,117028.8631510165
3,3,3,27750,116818.00033452825
3,3,3,27800,116607.89601737968
3,3,3,27850,116398.54611429654
3,3,3,27900,116189.9465692888
3,3,3,27950,115982.09335539026
3,3,3,28000,115774.98247439848
3,3,3,28050,115568.60995661882
3,3,3,28100,115362.97186061062
3,3,3,28150,115158.06427293636
3,3,3,28200,114953.88330791338
3,3,3,28250,114750.42510736847
3,3,3,28300,114547.68584039429
3,3,3,28350,114345.6617031096
3,3,3,28400,114144.348918421
3,3,3,28450,113943.74373578763
3,3,3,28500,113743.842430988
3,3,3,28550,113544.64130588989
3,3,3,28600,113346.13668822228
3,3,3,28650,113148.32493134926
3,3,3,28700,112951.20241404737
3,3,3,28750,112754.76554028373
3,3,3,28800,112559.01073899852
3,3,3,28850,112363.93446388755
3,3,3,28900,112169.53319318895
3,3,3,28950,111975.80342947002
3,3,3,29000,111782.74169941922
3,3,3,29050,111590.34455363706
3,3,3,29100,111398.60856643156
3,3,3,29150,111207.53033561425
3,3,3,29200,111017.10648229993
3,3,3,29250,110827.3336507062
3,3,3,29300,110638.20850795764
3,3,3,29350,110449.72774388947
3,3,3,29400,110261.88807085576
3,3,3,29450,110074.68622353677
3,3,3,29500,109888.1189587511
3,3,3,29550,109702.18305526763
3,3,3,29600,109516.87531362024
3,3,3,29650,109332.19255592437
3,3,3,29700,109148.13162569556
3,3,3,29750,108964.68938766913
3,3,3,29800,108781.86272762273
3,3,3,29850,108599.64855219967
3,3,3,29900,108418.04378873436
3,3,3,29950,108237.0453850804
3,3,3,30000,108056.65030943858
3,3,3,30050,107876.8555501883
3,3,3,30100,107697.65811571953
3,3,3,30150,107519.05503426722
3,3,3,30200,107341.04335374698
3,3,3,30250,107163.620141592
3,3,3,30300,106986.78248459265
3,3,3,30350,106810.52748873671
3,3,3,30400,106634.85227905124
3,3,3,30450,106459.75399944688
3,3,3,30500,106285.22981256254
3,3,3,30550,106111.27689961232
3,3,3,30600,105937.89246023394
3,3,3,30650,105765.07371233797
3,3,3,30700,105592.81789195955
3,3,3,30750,105421.12225311087
3,3,3,30800,105249.98406763497
3,3,3,30850,105079.40062506184
3,3,3,30900,104909.36923246464
3,3,3,30950,104739.8872143185
3,3,3,31000,104570.95191235989
3,3,3,31050,104402.5606854479
3,3,3,31100,104234.71090942629
3,3,3,31150,104067.39997698742
3,3,3,31200,103900.6252975371
3,3,3,31250,103734.38429706101
3,3,3,31300,103568.67441799225
3,3,3,31350,103403.49311907997
3,3,3,31400,103238.83787525978
3,3,3,31450,103074.70617752486
3,3,3,31500,102911.09553279866
3,3,3,31550,102748.00346380846
3,3,3,31600,102585.42750896073
3,3,3,31650,102423.36522221667
3,3,3,31700,102261.8141729703
3,3,3,31750,102100.77194592624
3,3,3,31800,101940.23614097986
3,3,3,31850,101780.20437309763
3,3,3,31900,101620.67427219928
3,3,3,31950,101461.64348304091
3,3,3,32000,101303.1096650987
3,3,3,32050,101145.0704924542
3,3,3,32100,100987.52365368092
3,3,3,32150,100830.46685173118
3,3,3,32200,100673.89780382477
3,3,3,32250,100517.81424133823
3,3,3,32300,100362.21390969529
3,3,3,32350,100207.0945682584
3,3,3,32400,100052.45399022098
3,3,3,32450,99898.289962501
3,3,3,32500,99744.60028563562
3,3,3,32550,99591.38277367617
3,3,3,32600,99438.6352540846
3,3,3,32650,99286.3555676312
3,3,3,32700,99134.54156829229
3,3,3,32750,98983.19112314982
3,3,3,32800,98832.3021122914
3,3,3,32850,98681.87242871104
3,3,3,32900,98531.89997821147
3,3,3,32950,98382.38267930673
3,3,3,33000,98233.31846312598
3,3,3,33050,98084.70527331794
3,3,3,33100,97936.54106595642
3,3,3,33150,97788.82380944664
3,3,3,33200,97641.55148443246
3,3,3,33250,97494.72208370404
3,3,3,33300,97348.33361210683
3,3,3,33350,97202.3840864515
3,3,3,33400,97056.87153542391
3,3,3,33450,96911.79399949648
3,3,3,33500,96767.1495308405
3,3,3,33550,96622.93619323871
3,3,3,33600,96479.15206199877
3,3,3,33650,96335.79522386797
3,3,3,33700,96192.86377694833
3,3,3,33750,96050.35583061205
3,3,3,33800,95908.26950541887
3,3,3,33850,95766.60293303271
3,3,3,33900,95625.35425614039
3,3,3,33950,95484.52162836994
3,3,3,34000,95344.1032142105
3,3,3,34050,95204.09718893266
3,3,3,34100,95064.50173850905
3,3,3,34150,94925.31505953605
3,3,3,34200,94786.53535915662
3,3,3,34250,94648.16085498274
3,3,3,34300,94510.18977501917
3,3,3,34350,94372.6203575883
3,3,3,34400,94235.45085125462
3,3,3,34450,94098.67951475056
3,3,3,34500,93962.30461690313
3,3,3,34550,93826.32443656023
3,3,3,34600,93690.737262519
3,3,3,34650,93555.54139345331
3,3,3,34700,93420.73513784319
3,3,3,34750,93286.31681390379
3,3,3,34800,93152.28474951605
3,3,3,34850,93018.63728215668
3,3,3,34900,92885.37275882976
3,3,3,34950,92752.48953599879
3,3,3,35000,92619.98597951881
3,3,3,35050,92487.86046456946
3,3,3,35100,92356.11137558853
3,3,3,35150,92224.73710620648
3,3,3,35200,92093.7360591806
3,3,3,35250,91963.10664633068
3,3,3,35300,91832.84728847472
3,3,3,35350,91702.95641536519
3,3,3,35400,91573.43246562582
3,3,3,35450,91444.27388668987
3,3,3,35500,91315.47913473686
3,3,3,35550,91187.04667463174
3,3,3,35600,91058.97497986397
3,3,3,35650,90931.26253248689
3,3,3,35700,90803.90782305764
3,3,3,35750,90676.90935057784
3,3,3,35800,90550.26562243458
3,3,3,35850,90423.97515434193
3,3,3,35900,90298.03647028295
3,3,3,35950,90172.44810245218
3,3,3,36000,90047.20859119881
3,3,3,36050,89922.3164849697
3,3,3,36100,89797.77034025364
3,3,3,36150,89673.56872152581
3,3,3,36200,89549.71020119217
3,3,3,36250,89426.19335953538
3,3,3,36300,89303.01678466
3,3,3,36350,89180.17907243902
3,3,3,36400,89057.67882646035
3,3,3,36450,88935.51465797416
3,3,3,36500,88813.68518583996
3,3,3,36550,88692.18903647491
3,3,3,36600,88571.02484380214
3,3,3,36650,88450.19124919936
3,3,3,36700,88329.68690144841
3,3,3,36750,88209.5104566846
3,3,3,36800,88089.66057834668
3,3,3,36850,87970.13593712778
3,3,3,36900,87850.93521092569
3,3,3,36950,87732.05708479456
3,3,3,37000,87613.5002508962
3,3,3,37050,87495.26340845229
3,3,3,37100,87377.34526369699
3,3,3,37150,87259.74452982927
3,3,3,37200,87142.45992696659
3,3,3,37250,87025.4901820982
3,3,3,37300,86908.83402903909
3,3,3,37350,86792.49020838442
3,3,3,37400,86676.45746746413
3,3,3,37450,86560.73456029792
3,3,3,37500,86445.32024755089
3,3,3,37550,86330.21329648887
3,3,3,37600,86215.41248093505
3,3,3,37650,86100.91658122599
3,3,3,37700,85986.72438416863
3,3,3,37750,85872.83468299753
3,3,3,37800,85759.24627733223
3,3,3,37850,85645.95797313492
3,3,3,37900,85532.96858266903
3,3,3,37950,85420.2769244574
3,3,3,38000,85307.88182324103
3,3,3,38050,85195.78210993843
3,3,3,38100,85083.9766216052
3,3,3,38150,84972.46420139336
3,3,3,38200,84861.24369851199
3,3,3,38250,84750.3139681871
3,3,3,38300,84639.67387162293
3,3,3,38350,84529.32227596239
3,3,3,38400,84419.2580542489
3,3,3,38450,84309.48008538772
3,3,3,38500,84199.98725410798
3,3,3,38550,84090.77845092498
3,3,3,38600,83981.85257210252
3,3,3,38650,83873.20851961595
3,3,3,38700,83764.84520111523
3,3,3,38750,83656.76152988795
3,3,3,38800,83548.95642482367
3,3,3,38850,83441.42881037731
3,3,3,38900,83334.17761653362
3,3,3,38950,83227.20177877169
3,3,3,39000,83120.5002380297
3,3,3,39050,83014.07194066989
3,3,3,39100,82907.91583844394
3,3,3,39150,82802.03088845873
3,3,3,39200,82696.41605314177
3,3,3,39250,82591.0703002079
3,3,3,39300,82485.99260262484
3,3,3,39350,82381.18193858088
3,3,3,39400,82276.63729145068
3,3,3,39450,82172.3576497632
3,3,3,39500,82068.34200716855
3,3,3,39550,81964.58936240598
3,3,3,39600,81861.09871927164
3,3,3,39650,81757.86908658658
3,3,3,39700,81654.89947816521
3,3,3,39750,81552.18891278388
3,3,3,39800,81449.73641414975
3,3,3,39850,81347.5410108697
3,3,3,39900,81245.60173642004
3,3,3,39950,81143.91762911539
3,3,3,40000,81042.48773207891
3,3,3,40050,80941.31109321245
3,3,3,40100,80840.38676516604
3,3,3,40150,80739.71380530903
3,3,3,40200,80639.29127570044
3,3,3,40250,80539.11824305981
3,3,3,40300,80439.19377873838
3,3,3,40350,80339.51695869042
3,3,3,40400,80240.08686344448
3,3,3,40450,80140.90257807558
3,3,3,40500,80041.96319217676
3,3,3,40550,79943.26779983127
3,3,3,40600,79844.81549958518
3,3,3,40650,79746.6053944196
3,3,3,40700,79648.63659172374
3,3,3,40750,79550.90820326767
3,3,3,40800,79453.41934517544
3,3,3,40850,79356.16913789859
3,3,3,40900,79259.15670618968
3,3,3,40950,79162.38117907588
3,3,3,41000,79065.84168983312
3,3,3,41050,78969.53737595998
3,3,3,41100,78873.46737915228
3,3,3,41150,78777.6308452772
3,3,3,41200,78682.0269243485
3,3,3,41250,78586.65477050075
3,3,3,41300,78491.5135419651
3,3,3,41350,78396.60240104374
3,3,3,41400,78301.92051408594
3,3,3,41450,78207.46705146339
3,3,3,41500,78113.24118754601
3,3,3,41550,78019.24210067769
3,3,3,41600,77925.46897315283
3,3,3,41650,77831.92099119225
3,3,3,41700,77738.59734491988
3,3,3,41750,77645.49722833913
3,3,3,41800,77552.61983931
3,3,3,41850,77459.96437952586
3,3,3,41900,77367.53005449062
3,3,3,41950,77275.31607349605
3,3,3,42000,77183.321649599
3,3,3,42050,77091.54599959945
3,3,3,42100,76999.98834401803
3,3,3,42150,76908.64790707374
3,3,3,42200,76817.52391666248
3,3,3,42250,76726.6156043351
3,3,3,42300,76635.92220527555
3,3,3,42350,76545.44295828005
3,3,3,42400,76455.17710573484
3,3,3,42450,76365.12389359619
3,3,3,42500,76275.28257136839
3,3,3,42550,76185.65239208363
3,3,3,42600,76096.23261228073
3,3,3,42650,76007.02249198487
3,3,3,42700,75918.02129468754
3,3,3,42750,75829.22828732537
3,3,3,42800,75740.64274026071
3,3,3,42850,75652.26392726156
3,3,3,42900,75564.09112548156
3,3,3,42950,75476.12361544023
3,3,3,43000,75388.3606810037
3,3,3,43050,75300.80160936489
3,3,3,43100,75213.44569102455
3,3,3,43150,75126.29221977193
3,3,3,43200,75039.34049266565
3,3,3,43250,74952.5898100152
3,3,3,43300,74866.0394753616
3,3,3,43350,74779.68879545925
3,3,3,43400,74693.53708025704
3,3,3,43450,74607.58364288048
3,3,3,43500,74521.82779961279
3,3,3,43550,74436.26886987734
3,3,3,43600,74350.90617621923
3,3,3,43650,74265.73904428766
3,3,3,43700,74180.76680281827
3,3,3,43750,74095.98878361503
3,3,3,43800,74011.40432153332
3,3,3,43850,73927.01275446198
3,3,3,43900,73842.81342330656
3,3,3,43950,73758.8056719717
3,3,3,44000,73674.98884734456
3,3,3,44050,73591.36229927713
3,3,3,44100,73507.92538057048
3,3,3,44150,73424.67744695715
3,3,3,44200,73341.617857085
3,3,3,44250,73258.74597250072
3,3,3,44300,73176.06115763333
3,3,3,44350,73093.56277977809
3,3,3,44400,73011.25020908013
3,3,3,44450,72929.12281851872
3,3,3,44500,72847.17998389117
3,3,3,44550,72765.421083797
3,3,3,44600,72683.84549962239
3,3,3,44650,72602.45261552428
3,3,3,44700,72521.24181841519
3,3,3,44750,72440.21249794768
3,3,3,44800,72359.364046499
3,3,3,44850,72278.69585915627
3,3,3,44900,72198.20733370067
3,3,3,44950,72117.89787059303
3,3,3,45000,72037.76687295905
3,3,3,45050,71957.81374657404
3,3,3,45100,71878.03789984829
3,3,3,45150,71798.43874381302
3,3,3,45200,71719.01569210527
3,3,3,45250,71639.76816095375
3,3,3,45300,71560.69556916463
3,3,3,45350,71481.79733810708
3,3,3,45400,71403.07289169953
3,3,3,45450,71324.52165639511
3,3,3,45500,71246.14306116832
3,3,3,45550,71167.9365375007
3,3,3,45600,71089.90151936749
3,3,3,45650,71012.03744322358
3,3,3,45700,70934.34374799034
3,3,3,45750,70856.81987504168
3,3,3,45800,70779.46526819118
3,3,3,45850,70702.2793736785
3,3,3,45900,70625.26164015592
3,3,3,45950,70548.41151867589
3,3,3,46000,70471.72846267738
3,3,3,46050,70395.21192797298
3,3,3,46100,70318.86137273663
3,3,3,46150,70242.67625748989
3,3,3,46200,70166.65604508999
3,3,3,46250,70090.80020071691
3,3,3,46300,70015.10819186081
3,3,3,46350,69939.5794883098
3,3,3,46400,69864.21356213705
3,3,3,46450,69789.00988768908
3,3,3,46500,69713.96794157327
3,3,3,46550,69639.0872026457
3,3,3,46600,69564.36715199913
3,3,3,46650,69489.80727295089
3,3,3,46700,69415.40705103123
3,3,3,46750,69341.1659739713
3,3,3,46800,69267.0835316914
3,3,3,46850,69193.15921628938
3,3,3,46900,69119.39252202898
3,3,3,46950,69045.78294532819
3,3,3,47000,68972.32998474805
3,3,3,47050,68899.033140981
3,3,3,47100,68825.89191683986
3,3,3,47150,68752.90581724627
3,3,3,47200,68680.07434921946
3,3,3,47250,68607.3970218658
3,3,3,47300,68534.87334636695
3,3,3,47350,68462.50283596954
3,3,3,47400,68390.28500597383
3,3,3,47450,68318.21937372304
3,3,3,47500,68246.30545859277
3,3,3,47550,68174.54278198017
3,3,3,47600,68102.93086729324
3,3,3,47650,68031.46923994034
3,3,3,47700,67960.15742731983
3,3,3,47750,67888.9949588096
3,3,3,47800,67817.98136575647
3,3,3,47850,67747.11618146619
3,3,3,47900,67676.39894119327
3,3,3,47950,67605.82918213052
3,3,3,48000,67535.40644339914
3,3,3,48050,67465.13026603869
3,3,3,48100,67395.00019299703
3,3,3,48150,67325.01576912063
3,3,3,48200,67255.17654114436
3,3,3,48250,67185.48205768202
3,3,3,48300,67115.93186921651
3,3,3,48350,67046.52552809013
3,3,3,48400,66977.26258849502
3,3,3,48450,66908.14260646347
3,3,3,48500,66839.16513985895
3,3,3,48550,66770.32974836578
3,3,3,48600,66701.63599348062
3,3,3,48650,66633.08343850271
3,3,3,48700,66564.67164852476
3,3,3,48750,66496.40019042374
3,3,3,48800,66428.26863285161
3,3,3,48850,66360.27654622636
3,3,3,48900,66292.42350272309
3,3,3,48950,66224.70907626471
3,3,3,49000,66157.13284251343
3,3,3,49050,66089.69437886153
3,3,3,49100,66022.39326442276
3,3,3,49150,65955.22908002355
3,3,3,49200,65888.20140819432
3,3,3,49250,65821.3098331606
3,3,3,49300,65754.55394083483
3,3,3,49350,65687.9333188077
3,3,3,49400,65621.44755633922
3,3,3,49450,65555.09624435104
3,3,3,49500,65488.878975417334
3,3,3,49550,65422.79534375696
3,3,3,49600,65356.84494522493
3,3,3,49650,65291.02737730429
3,3,3,49700,65225.34223909774
3,3,3,49750,65159.789131319754
3,3,3,49800,65094.36765628831
3,3,3,49850,65029.07741791688
3,3,3,49900,64963.91802170656
3,3,3,49950,64898.88907473787
3,3,3,50000,64833.99018566315
